1, 0.245649
0.998401, 0.246157
0.996808, 0.246655
0.99522, 0.247144
0.993636, 0.247626
0.992058, 0.248097
0.990485, 0.248555
0.988916, 0.248998
0.987353, 0.249425
0.985794, 0.249837
0.984241, 0.250237
0.982692, 0.250622
0.981149, 0.250991
0.97961, 0.251344
0.978076, 0.251685
0.976546, 0.252014
0.975022, 0.252332
0.973502, 0.252639
0.971987, 0.252935
0.970477, 0.25322
0.968971, 0.253494
0.96747, 0.253758
0.965974, 0.254012
0.964482, 0.254257
0.962995, 0.254495
0.961512, 0.254729
0.960034, 0.254959
0.958561, 0.255186
0.957092, 0.255408
0.955627, 0.255625
0.954167, 0.255839
0.952712, 0.256054
0.951261, 0.256268
0.949814, 0.256481
0.948372, 0.256693
0.946934, 0.256901
0.9455, 0.257107
0.944071, 0.257309
0.942646, 0.257507
0.941226, 0.257701
0.939809, 0.25789
0.938397, 0.258071
0.936989, 0.258245
0.935586, 0.258412
0.934186, 0.258572
0.932791, 0.258725
0.9314, 0.258872
0.930013, 0.259011
0.92863, 0.25914
0.927252, 0.259258
0.925877, 0.259363
0.924507, 0.259456
0.92314, 0.259537
0.921778, 0.259605
0.920419, 0.259657
0.919065, 0.259691
0.917714, 0.259708
0.916368, 0.25971
0.915025, 0.2597
0.913687, 0.259679
0.912352, 0.259647
0.911021, 0.259603
0.909694, 0.259547
0.908371, 0.259483
0.907052, 0.25941
0.905736, 0.259331
0.904425, 0.259245
0.903117, 0.25915
0.901813, 0.259048
0.900513, 0.258941
0.899216, 0.258834
0.897923, 0.258726
0.896634, 0.258617
0.895349, 0.258509
0.894067, 0.258403
0.892789, 0.2583
0.891515, 0.258198
0.890244, 0.2581
0.888977, 0.258002
0.887713, 0.257906
0.886453, 0.25781
0.885197, 0.257713
0.883944, 0.257616
0.882695, 0.257515
0.881449, 0.257411
0.880207, 0.257303
0.878968, 0.257193
0.877733, 0.257077
0.876501, 0.256955
0.875273, 0.256825
0.874048, 0.256686
0.872826, 0.256536
0.871608, 0.256372
0.870393, 0.256191
0.869182, 0.255992
0.867974, 0.255773
0.866769, 0.255535
0.865568, 0.255274
0.86437, 0.254991
0.863176, 0.254685
0.861984, 0.254357
0.860796, 0.254009
0.859612, 0.25364
0.85843, 0.253252
0.857252, 0.252842
0.856077, 0.252413
0.854905, 0.251966
0.853736, 0.251502
0.852571, 0.251022
0.851409, 0.250526
0.85025, 0.250012
0.849094, 0.249483
0.847941, 0.248943
0.846791, 0.248395
0.845645, 0.247842
0.844501, 0.247283
0.843361, 0.246723
0.842224, 0.246163
0.841089, 0.245605
0.839958, 0.245051
0.83883, 0.244502
0.837705, 0.243958
0.836583, 0.243417
0.835464, 0.24288
0.834348, 0.242347
0.833235, 0.241818
0.832124, 0.241293
0.831017, 0.240771
0.829913, 0.240251
0.828812, 0.239733
0.827713, 0.239217
0.826618, 0.238704
0.825525, 0.238191
0.824435, 0.237679
0.823348, 0.237163
0.822264, 0.236642
0.821183, 0.236115
0.820105, 0.235578
0.81903, 0.23503
0.817957, 0.234469
0.816887, 0.233894
0.81582, 0.233303
0.814756, 0.232696
0.813694, 0.232073
0.812636, 0.231435
0.81158, 0.230782
0.810526, 0.230113
0.809476, 0.229429
0.808428, 0.228731
0.807383, 0.22802
0.806341, 0.227297
0.805301, 0.226563
0.804264, 0.225819
0.803229, 0.225067
0.802198, 0.22431
0.801169, 0.22355
0.800142, 0.222793
0.799119, 0.222041
0.798097, 0.221297
0.797079, 0.220564
0.796063, 0.219844
0.79505, 0.21914
0.794039, 0.218454
0.79303, 0.217788
0.792025, 0.217143
0.791022, 0.21652
0.790021, 0.215919
0.789023, 0.215343
0.788027, 0.214792
0.787034, 0.21427
0.786044, 0.213776
0.785056, 0.213311
0.78407, 0.212874
0.783087, 0.212466
0.782107, 0.212087
0.781128, 0.211736
0.780153, 0.211413
0.779179, 0.211115
0.778209, 0.210841
0.77724, 0.210589
0.776274, 0.210357
0.77531, 0.210144
0.774349, 0.209948
0.77339, 0.209768
0.772434, 0.209602
0.77148, 0.209447
0.770528, 0.209303
0.769578, 0.20917
0.768631, 0.209046
0.767686, 0.208931
0.766744, 0.208823
0.765804, 0.208721
0.764866, 0.208626
0.76393, 0.208538
0.762997, 0.208457
0.762066, 0.208384
0.761137, 0.208319
0.760211, 0.208265
0.759287, 0.208224
0.758365, 0.208197
0.757445, 0.208186
0.756528, 0.208193
0.755612, 0.20822
0.754699, 0.208267
0.753788, 0.208339
0.75288, 0.208435
0.751973, 0.208555
0.751069, 0.208702
0.750167, 0.208874
0.749267, 0.209075
0.748369, 0.209304
0.747473, 0.209564
0.74658, 0.209855
0.745689, 0.210178
0.744799, 0.210534
0.743912, 0.210922
0.743027, 0.211345
0.742144, 0.2118
0.741263, 0.212288
0.740385, 0.212807
0.739508, 0.213356
0.738633, 0.213933
0.737761, 0.214537
0.73689, 0.215167
0.736022, 0.215822
0.735156, 0.216501
0.734291, 0.217202
0.733429, 0.217922
0.732569, 0.218661
0.73171, 0.219417
0.730854, 0.220188
0.73, 0.220973
0.729148, 0.221768
0.728297, 0.222572
0.727449, 0.223382
0.726603, 0.224198
0.725759, 0.225019
0.724916, 0.225845
0.724076, 0.226675
0.723237, 0.22751
0.722401, 0.22835
0.721566, 0.229195
0.720733, 0.230045
0.719903, 0.230901
0.719074, 0.231762
0.718247, 0.232628
0.717422, 0.233499
0.716599, 0.234374
0.715777, 0.235253
0.714958, 0.236137
0.714141, 0.237025
0.713325, 0.237919
0.712511, 0.238819
0.711699, 0.239726
0.710889, 0.240642
0.710081, 0.241568
0.709274, 0.242504
0.70847, 0.243452
0.707667, 0.244411
0.706866, 0.245382
0.706067, 0.246366
0.70527, 0.247361
0.704474, 0.248368
0.703681, 0.249386
0.702889, 0.250415
0.702098, 0.251454
0.70131, 0.252505
0.700523, 0.253565
0.699739, 0.254636
0.698955, 0.255716
0.698174, 0.256805
0.697395, 0.257904
0.696617, 0.259012
0.695841, 0.260128
0.695066, 0.261251
0.694293, 0.262379
0.693523, 0.263512
0.692753, 0.264647
0.691986, 0.265785
0.69122, 0.266925
0.690456, 0.268065
0.689693, 0.269203
0.688932, 0.27034
0.688173, 0.271474
0.687416, 0.272607
0.68666, 0.273736
0.685906, 0.274862
0.685154, 0.275983
0.684403, 0.277099
0.683654, 0.278207
0.682906, 0.279308
0.68216, 0.280401
0.681416, 0.281484
0.680673, 0.282557
0.679932, 0.28362
0.679193, 0.284672
0.678455, 0.285715
0.677719, 0.286749
0.676984, 0.287774
0.676251, 0.288791
0.67552, 0.289801
0.67479, 0.290804
0.674062, 0.291801
0.673335, 0.292791
0.67261, 0.293776
0.671886, 0.294756
0.671164, 0.295731
0.670444, 0.296701
0.669725, 0.297666
0.669007, 0.298629
0.668292, 0.299588
0.667577, 0.300547
0.666864, 0.301506
0.666153, 0.302465
0.665443, 0.303426
0.664735, 0.304388
0.664028, 0.305353
0.663323, 0.306321
0.662619, 0.307291
0.661917, 0.308262
0.661216, 0.309235
0.660517, 0.310208
0.659819, 0.311181
0.659123, 0.312155
0.658428, 0.313127
0.657735, 0.314097
0.657043, 0.315065
0.656352, 0.31603
0.655663, 0.316991
0.654976, 0.317947
0.654289, 0.318897
0.653605, 0.319839
0.652921, 0.320771
0.652239, 0.321693
0.651559, 0.322603
0.65088, 0.323498
0.650202, 0.324376
0.649526, 0.325236
0.648851, 0.326077
0.648178, 0.326897
0.647506, 0.327698
0.646835, 0.328476
0.646166, 0.329232
0.645498, 0.329967
0.644832, 0.330681
0.644167, 0.331375
0.643503, 0.332049
0.642841, 0.332702
0.64218, 0.333335
0.64152, 0.33395
0.640862, 0.334547
0.640205, 0.335126
0.639549, 0.33569
0.638895, 0.336239
0.638242, 0.336775
0.637591, 0.3373
0.636941, 0.337816
0.636292, 0.338326
0.635644, 0.338831
0.634998, 0.339332
0.634353, 0.339832
0.633709, 0.340331
0.633067, 0.34083
0.632426, 0.341331
0.631786, 0.341835
0.631148, 0.342342
0.63051, 0.342853
0.629874, 0.343369
0.62924, 0.343891
0.628607, 0.344417
0.627975, 0.34495
0.627344, 0.345488
0.626714, 0.346033
0.626086, 0.346583
0.625459, 0.347138
0.624833, 0.347694
0.624209, 0.348252
0.623586, 0.348809
0.622964, 0.349365
0.622343, 0.349916
0.621723, 0.35046
0.621105, 0.350995
0.620488, 0.35152
0.619872, 0.352035
0.619257, 0.352537
0.618644, 0.353024
0.618032, 0.353496
0.617421, 0.353952
0.616811, 0.354391
0.616203, 0.354812
0.615595, 0.355215
0.614989, 0.355599
0.614384, 0.355963
0.61378, 0.356307
0.613178, 0.356632
0.612576, 0.35694
0.611976, 0.35723
0.611377, 0.357504
0.610779, 0.357764
0.610182, 0.358013
0.609587, 0.358253
0.608992, 0.358486
0.608399, 0.358713
0.607807, 0.358936
0.607216, 0.359158
0.606626, 0.35938
0.606038, 0.359603
0.60545, 0.35983
0.604864, 0.36006
0.604279, 0.360296
0.603695, 0.360539
0.603112, 0.360793
0.60253, 0.361058
0.601949, 0.361336
0.601369, 0.361628
0.600791, 0.361936
0.600214, 0.362261
0.599637, 0.362601
0.599062, 0.362957
0.598488, 0.363325
0.597915, 0.363705
0.597343, 0.364096
0.596772, 0.364494
0.596203, 0.364899
0.595634, 0.365308
0.595067, 0.365719
0.5945, 0.366131
0.593935, 0.366543
0.593371, 0.366952
0.592807, 0.367357
0.592245, 0.367756
0.591684, 0.368147
0.591124, 0.368527
0.590565, 0.368893
0.590007, 0.369244
0.589451, 0.369576
0.588895, 0.369887
0.58834, 0.370175
0.587786, 0.370442
0.587234, 0.370685
0.586682, 0.370904
0.586131, 0.371099
0.585582, 0.371272
0.585033, 0.371425
0.584486, 0.371557
0.583939, 0.37167
0.583394, 0.371764
0.582849, 0.371841
0.582306, 0.371902
0.581764, 0.371949
0.581222, 0.371984
0.580682, 0.372008
0.580142, 0.372024
0.579604, 0.372036
0.579067, 0.372048
0.57853, 0.372062
0.577995, 0.372082
0.57746, 0.372109
0.576927, 0.372148
0.576395, 0.372199
0.575863, 0.372264
0.575333, 0.372344
0.574803, 0.372438
0.574275, 0.372548
0.573747, 0.372673
0.57322, 0.372813
0.572695, 0.372968
0.57217, 0.373139
0.571646, 0.373324
0.571124, 0.373523
0.570602, 0.373737
0.570081, 0.373965
0.569561, 0.374205
0.569042, 0.374456
0.568524, 0.374714
0.568007, 0.374976
0.567491, 0.375241
0.566976, 0.375505
0.566462, 0.375764
0.565948, 0.376015
0.565436, 0.376256
0.564925, 0.376483
0.564414, 0.376696
0.563904, 0.376892
0.563396, 0.377069
0.562888, 0.377226
0.562381, 0.377362
0.561875, 0.377476
0.56137, 0.377568
0.560866, 0.377636
0.560363, 0.37768
0.559861, 0.377701
0.559359, 0.377699
0.558859, 0.377677
0.558359, 0.377635
0.55786, 0.377576
0.557362, 0.377503
0.556865, 0.377419
0.556369, 0.377327
0.555874, 0.377231
0.55538, 0.377134
0.554886, 0.377038
0.554394, 0.376947
0.553902, 0.376864
0.553411, 0.37679
0.552922, 0.37673
0.552432, 0.376682
0.551944, 0.37665
0.551457, 0.376635
0.55097, 0.37664
0.550485, 0.376667
0.55, 0.376715