0.0 0.0
0.0001315789473683715 4.812030075187977
0.000263157894736743 7.218045112781965
0.00039473684210533655 9.624060150375954
0.000526315789473708 12.030075187969942
0.0006578947368420796 14.43609022556393
0.0007894736842104511 16.84210526315792
0.0009210526315788226 19.248120300751907
0.001052631578947416 21.654135338345895
0.0011842105263157876 26.466165413533872
0.001315789473684159 28.87218045112786
0.0014473684210525306 31.27819548872185
0.0015789473684211242 36.09022556390971
0.0017105263157894957 38.4962406015037
0.0018421052631578672 40.90225563909769
0.0019736842105262387 45.714285714285666
0.00210526315789461 48.120300751879654
0.0022368421052632037 52.93233082706763
0.002368421052631575 55.33834586466162
0.0024999999999999467 62.556390977443584
