0.0 0.0
0.0001315789473683715 3.0075187969924855
0.000263157894736743 8.020050125313333
0.00039473684210533655 12.030075187969942
0.000526315789473708 16.04010025062655
0.0006578947368420796 21.0526315789474
0.0007894736842104511 25.062656641604008
0.0009210526315788226 31.07769423558898
0.001052631578947416 36.090225563909826
0.0011842105263157876 41.10275689223056
0.001315789473684159 48.12030075187977
0.0014473684210525306 54.13533834586474
0.0015789473684211242 61.15288220551383
0.0017105263157894957 67.1679197994988
0.0018421052631578672 78.19548872180451
0.0019736842105262387 85.2130325814536
0.00210526315789461 96.24060150375942
0.0022368421052632037 111.27819548872185
0.002368421052631575 125.31328320802004
0.0024999999999999467 170.42606516290732
