345.86	61.224
346.08	61.224
346.29	61.224
346.50	25.532
346.72	71.560
346.93	96.306
347.14	102.453
347.36	101.922
347.57	102.024
347.78	101.397
348.00	99.782
348.21	140.588
348.42	134.200
348.64	115.245
348.85	101.581
349.06	100.594
349.28	87.847
349.49	100.788
349.70	91.032
349.92	88.715
350.13	106.565
350.34	110.511
350.56	91.385
350.77	134.261
350.98	89.790
351.20	97.449
351.41	81.369
351.62	101.254
351.84	107.698
352.05	141.405
352.26	81.970
352.48	122.104
352.69	109.180
352.90	84.009
353.12	79.158
353.33	116.290
353.54	88.331
353.75	88.401
353.97	89.883
354.18	92.215
354.39	96.295
354.61	96.578
354.82	96.584
355.03	96.556
355.25	95.760
355.46	94.471
355.67	95.290
355.88	96.894
356.10	96.828
356.31	96.253
356.52	97.522
356.74	98.056
356.95	99.055
357.16	98.561
357.38	99.939
357.59	102.466
357.80	103.771
358.01	100.261
358.23	100.465
358.44	101.695
358.65	103.453
358.87	101.966
359.08	102.715
359.29	102.912
359.50	105.153
359.72	105.519
359.93	104.059
360.14	104.768
360.35	105.201
360.57	103.571
360.78	103.465
360.99	103.222
361.21	104.881
361.42	100.381
361.63	100.350
361.84	100.881
362.06	102.361
362.27	99.081
362.48	100.497
362.69	101.959
362.91	99.787
363.12	96.276
363.33	97.843
363.54	97.839
363.76	100.071
363.97	97.649
364.18	97.948
364.39	98.719
364.61	98.615
364.82	97.487
365.03	97.586
365.25	97.758
365.46	98.612
365.67	96.821
365.88	98.784
366.10	100.188
366.31	102.810
366.52	99.881
366.73	101.602
366.94	104.541
367.16	103.884
367.37	102.369
367.58	100.794
367.79	99.376
368.01	97.975
368.22	96.275
368.43	96.064
368.64	97.243
368.86	97.981
369.07	98.262
369.28	97.862
369.49	98.621
369.71	96.260
369.92	95.483
370.13	94.574
370.34	94.301
370.55	93.753
370.77	93.446
370.98	94.603
371.19	95.633
371.40	94.675
371.62	94.823
371.83	96.296
372.04	99.070
372.25	100.654
372.46	100.227
372.68	100.194
372.89	101.062
373.10	100.433
373.31	101.038
373.53	99.869
373.74	101.210
373.95	103.984
374.16	105.831
374.37	105.636
374.59	107.902
374.80	108.912
375.01	105.412
375.22	103.913
375.43	102.491
375.65	103.912
375.86	102.428
376.07	101.927
376.28	101.621
376.49	102.303
376.71	102.019
376.92	103.882
377.13	104.610
377.34	104.653
377.55	104.158
377.77	102.816
377.98	103.327
378.19	103.753
378.40	100.602
378.61	100.648
378.83	102.512
379.04	102.953
379.25	102.109
379.46	102.638
379.67	102.783
379.88	103.817
380.10	101.876
380.31	101.264
380.52	103.344
380.73	104.436
380.94	103.432
381.15	102.264
381.37	102.345
381.58	101.886
381.79	100.746
382.00	99.335
382.21	98.706
382.43	97.857
382.64	97.514
382.85	98.957
383.06	100.379
383.27	101.002
383.48	99.185
383.70	98.369
383.91	101.745
384.12	101.992
384.33	101.010
384.54	101.069
384.75	102.414
384.96	100.747
385.18	100.734
385.39	98.659
385.60	101.481
385.81	102.107
386.02	102.653
386.23	101.299
386.45	103.137
386.66	104.550
386.87	104.007
387.08	103.980
387.29	98.548
387.50	97.050
387.71	94.547
387.93	94.983
388.14	96.203
388.35	95.723
388.56	93.863
388.77	95.572
388.98	96.062
389.19	96.134
389.40	93.762
389.62	93.670
389.83	95.357
390.04	94.814
390.25	94.501
390.46	95.117
390.67	97.103
390.88	97.978
391.10	96.433
391.31	97.028
391.52	95.725
391.73	101.641
391.94	100.964
392.15	102.891
392.36	103.628
392.57	105.006
392.78	104.314
393.00	103.996
393.21	104.535
393.42	106.065
393.63	104.549
393.84	106.338
394.05	107.992
394.26	108.245
394.47	106.375
394.69	107.666
394.90	108.063
395.11	107.099
395.32	105.683
395.53	107.174
395.74	107.114
395.95	109.084
396.16	107.238
396.37	107.711
396.58	109.340
396.80	108.579
397.01	105.238
397.22	104.930
397.43	107.866
397.64	106.659
397.85	105.902
398.06	105.744
398.27	106.867
398.48	105.881
398.69	105.549
398.90	104.410
399.12	104.050
399.33	103.400
399.54	102.290
399.75	102.233
399.96	103.341
400.17	104.509
400.38	102.558
400.59	101.964
400.80	102.528
401.01	100.600
401.22	99.279
401.43	101.230
401.64	101.607
401.86	100.239
402.07	98.781
402.28	98.131
402.49	98.709
402.70	98.995
402.91	97.693
403.12	96.407
403.33	98.046
403.54	98.977
403.75	98.654
403.96	99.720
404.17	100.318
404.38	99.293
404.59	97.702
404.80	99.023
405.01	100.550
405.23	101.329
405.44	102.055
405.65	102.281
405.86	102.429
406.07	101.842
406.28	101.479
406.49	103.848
406.70	105.387
406.91	105.687
407.12	104.684
407.33	104.582
407.54	107.041
407.75	106.725
407.96	105.269
408.17	105.440
408.38	106.626
408.59	107.679
408.80	106.862
409.01	106.801
409.22	106.862
409.43	106.237
409.64	104.583
409.85	104.405
410.07	105.511
410.28	104.071
410.49	104.713
410.70	104.576
410.91	105.010
411.12	104.250
411.33	103.659
411.54	103.366
411.75	103.582
411.96	102.268
412.17	101.968
412.38	101.657
412.59	103.394
412.80	102.446
413.01	102.162
413.22	101.863
413.43	104.071
413.64	103.837
413.85	103.281
414.06	101.012
414.27	101.833
414.48	100.742
414.69	100.957
414.90	100.659
415.11	102.303
415.32	102.150
415.53	101.280
415.74	102.040
415.95	101.984
416.16	103.029
416.37	102.036
416.58	102.243
416.79	103.137
417.00	102.502
417.21	101.856
417.42	101.441
417.63	102.188
417.84	102.369
418.05	102.843
418.26	103.824
418.47	106.949
418.68	106.832
418.89	106.840
419.10	106.803
419.31	107.817
419.52	107.480
419.73	107.427
419.94	107.964
420.15	108.114
420.36	108.845
420.57	107.336
420.78	107.978
420.99	109.823
421.20	110.165
421.41	109.615
421.61	109.897
421.82	111.333
422.03	111.677
422.24	109.976
422.45	109.308
422.66	109.292
422.87	109.913
423.08	108.785
423.29	109.241
423.50	110.202
423.71	109.562
423.92	107.496
424.13	107.174
424.34	107.345
424.55	106.999
424.76	106.576
424.97	107.460
425.18	108.773
425.39	108.295
425.60	107.905
425.81	108.468
426.02	109.371
426.23	109.105
426.43	108.380
426.64	108.766
426.85	110.617
427.06	111.570
427.27	111.351
427.48	111.718
427.69	112.098
427.90	112.293
428.11	111.825
428.32	112.532
428.53	113.304
428.74	113.704
428.95	112.731
429.16	112.706
429.37	113.247
429.58	113.274
429.78	112.350
429.99	112.220
430.20	112.446
430.41	111.991
430.62	111.641
430.83	112.627
431.04	113.237
431.25	112.946
431.46	111.707
431.67	110.381
431.88	109.946
432.09	109.699
432.30	108.760
432.50	108.463
432.71	108.816
432.92	108.810
433.13	107.215
433.34	107.373
433.55	108.373
433.76	107.737
433.97	106.114
434.18	106.149
434.39	105.855
434.59	104.754
434.80	103.764
435.01	102.700
435.22	102.889
435.43	103.083
435.64	102.363
435.85	102.307
436.06	102.961
436.27	103.579
436.48	102.662
436.68	102.113
436.89	103.263
437.10	103.857
437.31	103.363
437.52	104.253
437.73	104.827
437.94	104.662
438.15	103.960
438.36	104.106
438.56	104.598
438.77	105.412
438.98	104.240
439.19	104.776
439.40	105.939
439.61	105.770
439.82	104.882
440.03	104.860
440.23	105.484
440.44	106.225
440.65	105.023
440.86	105.193
441.07	106.449
441.28	106.838
441.49	106.299
441.70	106.801
441.90	107.956
442.11	108.749
442.32	108.667
442.53	108.507
442.74	109.993
442.95	109.967
443.16	107.803
443.36	108.662
443.57	108.876
443.78	108.747
443.99	107.486
444.20	107.187
444.41	107.520
444.61	107.810
444.82	106.751
445.03	107.325
445.24	108.611
445.45	109.773
445.66	108.342
445.87	108.289
446.07	107.565
446.28	106.409
446.49	104.544
446.70	103.345
446.91	104.377
447.12	104.543
447.32	104.182
447.53	105.219
447.74	106.334
447.95	106.827
448.16	106.251
448.37	106.578
448.57	107.820
448.78	107.241
448.99	106.601
449.20	106.813
449.41	107.919
449.62	107.970
449.82	107.131
450.03	107.631
450.24	108.364
450.45	109.338
450.66	108.845
450.86	108.852
451.07	110.855
451.28	111.144
451.49	109.724
451.70	109.410
451.90	109.764
452.11	109.482
452.32	107.389
452.53	106.996
452.74	107.421
452.95	107.206
453.15	106.442
453.36	105.586
453.57	106.361
453.78	105.940
453.99	104.895
454.19	104.554
454.40	105.126
454.61	105.821
454.82	105.086
455.02	105.043
455.23	106.375
455.44	105.683
455.65	104.537
455.86	104.534
456.06	105.190
456.27	105.573
456.48	104.642
456.69	104.930
456.90	106.284
457.10	107.177
457.31	106.506
457.52	106.377
457.73	107.278
457.93	106.221
458.14	104.992
458.35	104.818
458.56	105.495
458.77	105.896
458.97	104.207
459.18	103.565
459.39	103.732
459.60	103.078
459.80	102.257
460.01	102.594
460.22	103.592
460.43	103.431
460.63	102.131
460.84	102.474
461.05	103.158
461.26	102.655
461.46	102.057
461.67	101.848
461.88	102.537
462.09	102.643
462.29	102.678
462.50	102.573
462.71	103.138
462.92	103.020
463.12	101.830
463.33	101.745
463.54	102.459
463.75	102.309
463.95	101.903
464.16	102.298
464.37	102.890
464.58	102.746
464.78	102.386
464.99	102.850
465.20	104.165
465.41	104.515
465.61	104.633
465.82	104.900
466.03	105.682
466.24	105.489
466.44	105.154
466.65	105.137
466.86	105.572
467.06	105.707
467.27	104.741
467.48	104.474
467.69	105.058
467.89	105.173
468.10	104.877
468.31	105.076
468.52	105.507
468.72	105.741
468.93	105.620
469.14	105.826
469.34	106.406
469.55	106.399
469.76	105.793
469.97	105.533
470.17	105.886
470.38	106.029
470.59	105.764
470.79	106.202
471.00	107.270
471.21	108.138
471.41	108.152
471.62	108.975
471.83	110.112
472.04	110.629
472.24	110.023
472.45	109.885
472.66	110.412
472.86	110.189
473.07	109.039
473.28	108.095
473.48	107.574
473.69	106.836
473.90	106.061
474.10	105.644
474.31	106.160
474.52	106.363
474.73	106.065
474.93	105.924
475.14	105.896
475.35	105.360
475.55	104.943
475.76	104.607
475.97	104.658
476.17	104.302
476.38	103.211
476.59	103.064
476.79	103.686
477.00	104.007
477.21	103.751
477.41	103.985
477.62	104.790
477.83	105.388
478.03	105.179
478.24	105.140
478.45	105.656
478.65	105.783
478.86	105.526
479.07	105.133
479.27	105.907
479.48	105.965
479.69	105.890
479.89	105.900
480.10	106.118
480.31	105.451
480.51	104.749
480.72	104.771
480.92	105.451
481.13	105.588
481.34	105.255
481.54	105.576
481.75	105.990
481.96	105.754
482.16	105.091
482.37	104.909
482.58	105.040
482.78	104.903
482.99	104.718
483.20	104.332
483.40	104.612
483.61	104.081
483.81	103.675
484.02	103.929
484.23	104.488
484.43	104.925
484.64	105.516
484.85	106.329
485.05	106.985
485.26	107.052
485.46	106.833
485.67	107.437
485.88	107.781
486.08	107.757
486.29	107.078
486.50	107.139
486.70	107.454
486.91	107.512
487.11	107.162
487.32	106.505
487.53	106.656
487.73	106.479
487.94	106.481
488.14	106.767
488.35	107.154
488.56	107.141
488.76	106.429
488.97	105.548
489.17	104.803
489.38	104.193
489.59	103.049
489.79	102.558
490.00	102.241
490.20	102.204
490.41	101.911
490.62	102.165
490.82	102.089
491.03	101.822
491.23	101.214
491.44	100.741
491.65	101.227
491.85	101.472
492.06	101.239
492.26	101.144
492.47	100.862
492.68	100.119
492.88	99.292
493.09	99.372
493.29	99.846
493.50	100.254
493.70	99.999
493.91	100.218
494.12	100.833
494.32	100.866
494.53	100.570
494.73	100.166
494.94	100.324
495.14	100.508
495.35	100.736
495.56	100.863
495.76	101.438
495.97	101.405
496.17	101.121
496.38	100.838
496.58	100.647
496.79	100.403
496.99	100.495
497.20	100.943
497.41	101.207
497.61	101.378
497.82	101.286
498.02	101.820
498.23	102.480
498.43	102.488
498.64	102.255
498.84	102.749
499.05	103.778
499.25	104.504
499.46	105.072
499.67	105.610
499.87	106.299
500.08	106.403
500.28	106.177
500.49	106.401
500.69	106.961
500.90	107.329
501.10	107.225
501.31	107.056
501.51	107.307
501.72	107.403
501.92	107.215
502.13	107.189
502.33	107.104
502.54	106.194
502.75	105.240
502.95	104.521
503.16	103.860
503.36	103.128
503.57	102.053
503.77	101.339
503.98	100.824
504.18	100.316
504.39	99.879
504.59	99.552
504.80	98.956
505.00	98.472
505.21	98.013
505.41	98.109
505.62	98.011
505.82	97.481
506.03	96.970
506.23	96.838
506.44	96.837
506.64	97.045
506.85	97.292
507.05	97.448
507.26	98.000
507.46	98.176
507.67	97.926
507.87	97.969
508.08	98.220
508.28	98.633
508.49	98.974
508.69	99.111
508.90	99.680
509.10	100.376
509.31	100.784
509.51	101.155
509.72	101.497
509.92	102.040
510.13	102.578
510.33	103.486
510.54	104.504
510.74	104.997
510.94	104.896
511.15	105.091
511.35	105.498
511.56	105.232
511.76	104.633
511.97	104.289
512.17	104.495
512.38	104.898
512.58	104.757
512.79	104.789
512.99	105.110
513.20	105.030
513.40	104.572
513.61	104.446
513.81	104.562
514.01	104.482
514.22	103.855
514.42	103.315
514.63	102.868
514.83	102.196
515.04	101.648
515.24	101.199
515.45	101.036
515.65	100.932
515.86	100.822
516.06	101.269
516.26	102.331
516.47	102.424
516.67	101.914
516.88	101.830
517.08	101.966
517.29	101.945
517.49	102.035
517.69	102.339
517.90	102.914
518.10	102.997
518.31	102.837
518.51	102.944
518.72	103.303
518.92	103.372
519.12	103.310
519.33	103.718
519.53	104.527
519.74	105.018
519.94	105.259
520.15	105.463
520.35	105.622
520.55	105.800
520.76	105.868
520.96	105.971
521.17	106.223
521.37	106.253
521.58	106.110
521.78	106.176
521.98	106.326
522.19	106.155
522.39	105.989
522.60	105.573
522.80	105.404
523.00	104.785
523.21	103.726
523.41	102.961
523.62	102.389
523.82	101.953
524.02	101.658
524.23	101.532
524.43	101.563
524.64	101.328
524.84	100.604
525.04	100.303
525.25	100.430
525.45	100.392
525.65	100.303
525.86	100.391
526.06	100.518
526.27	100.499
526.47	100.217
526.67	100.093
526.88	100.602
527.08	101.060
527.29	101.373
527.49	102.139
527.69	102.699
527.90	102.795
528.10	102.236
528.30	101.587
528.51	101.352
528.71	101.238
528.92	100.963
529.12	101.006
529.32	100.949
529.53	100.538
529.73	100.097
529.93	99.900
530.14	100.238
530.34	100.569
530.54	100.950
530.75	101.736
530.95	102.730
531.15	103.565
531.36	104.112
531.56	104.618
531.77	105.069
531.97	105.481
532.17	105.537
532.38	105.712
532.58	106.106
532.78	105.988
532.99	105.993
533.19	106.232
533.39	106.439
533.60	106.451
533.80	106.142
534.00	105.754
534.21	105.552
534.41	105.085
534.61	104.568
534.82	104.434
535.02	104.194
535.22	103.642
535.43	102.574
535.63	101.726
535.83	101.489
536.04	101.395
536.24	101.129
536.44	101.253
536.65	101.170
536.85	100.955
537.05	100.693
537.26	100.104
537.46	99.538
537.66	99.021
537.86	98.817
538.07	99.059
538.27	99.729
538.47	100.314
538.68	100.346
538.88	100.410
539.08	100.547
539.29	100.808
539.49	101.039
539.69	101.369
539.90	101.721
540.10	101.684
540.30	101.355
540.50	101.171
540.71	101.408
540.91	102.084
541.11	102.617
541.32	102.982
541.52	103.793
541.72	104.463
541.92	104.937
542.13	105.350
542.33	105.703
542.53	105.652
542.74	105.212
542.94	105.230
543.14	105.415
543.34	105.424
543.55	105.254
543.75	105.220
543.95	105.415
544.16	105.548
544.36	105.237
544.56	104.962
544.76	104.673
544.97	103.924
545.17	103.081
545.37	102.262
545.57	101.985
545.78	101.367
545.98	100.848
546.18	100.431
546.39	100.398
546.59	100.489
546.79	100.678
546.99	101.238
547.20	101.866
547.40	102.382
547.60	102.708
547.80	103.139
548.01	103.667
548.21	104.075
548.41	104.596
548.61	105.587
548.82	106.854
549.02	107.566
549.22	108.212
549.42	108.738
549.63	109.577
549.83	110.364
550.03	111.419
550.23	112.551
550.43	113.703
550.64	114.266
550.84	114.447
551.04	114.802
551.24	115.146
551.45	114.790
551.65	113.951
551.85	113.291
552.05	112.745
552.26	112.427
552.46	111.918
552.66	111.108
552.86	110.103
553.06	108.774
553.27	107.782
553.47	107.234
553.67	107.133
553.87	107.079
554.07	106.952
554.28	106.671
554.48	106.516
554.68	106.289
554.88	105.869
555.09	105.612
555.29	105.011
555.49	104.238
555.69	103.794
555.89	103.791
556.10	103.706
556.30	103.411
556.50	102.712
556.70	101.868
556.90	101.178
557.11	100.705
557.31	100.380
557.51	100.147
557.71	99.950
557.91	99.955
558.11	99.772
558.32	99.530
558.52	99.640
558.72	99.956
558.92	100.245
559.12	100.643
559.33	100.931
559.53	100.983
559.73	100.810
559.93	100.743
560.13	100.859
560.33	100.925
560.54	101.106
560.74	101.465
560.94	102.105
561.14	102.813
561.34	103.582
561.54	104.280
561.75	105.126
561.95	105.536
562.15	105.510
562.35	105.421
562.55	105.486
562.75	105.155
562.96	104.593
563.16	104.329
563.36	104.237
563.56	103.908
563.76	103.628
563.96	103.612
564.17	103.560
564.37	103.097
564.57	102.562
564.77	101.862
564.97	101.178
565.17	100.495
565.37	99.555
565.58	98.483
565.78	97.522
565.98	96.729
566.18	96.329
566.38	96.182
566.58	96.184
566.78	96.048
566.98	95.848
567.19	95.933
567.39	96.101
567.59	96.254
567.79	96.360
567.99	96.409
568.19	96.422
568.39	96.613
568.59	96.793
568.80	96.906
569.00	97.166
569.20	97.312
569.40	97.395
569.60	97.872
569.80	98.485
570.00	99.262
570.20	99.648
570.41	99.740
570.61	99.795
570.81	99.643
571.01	99.550
571.21	99.643
571.41	99.645
571.61	99.458
571.81	99.303
572.01	99.483
572.21	99.697
572.42	99.475
572.62	98.814
572.82	98.026
573.02	97.417
573.22	96.936
573.42	96.453
573.62	96.035
573.82	95.804
574.02	95.840
574.22	95.989
574.42	96.491
574.63	96.844
574.83	96.758
575.03	96.554
575.23	96.356
575.43	96.333
575.63	96.192
575.83	96.015
576.03	95.722
576.23	95.418
576.43	95.128
576.63	95.161
576.83	95.311
577.03	95.673
577.23	96.176
577.44	96.607
577.64	97.019
577.84	97.131
578.04	96.824
578.24	96.075
578.44	95.425
578.64	94.879
578.84	94.449
579.04	94.098
579.24	93.779
579.44	93.408
579.64	92.726
579.84	92.006
580.04	91.316
580.24	90.804
580.44	90.553
580.64	90.508
580.84	90.609
581.05	90.753
581.25	90.843
581.45	90.775
581.65	90.692
581.85	90.404
582.05	90.289
582.25	90.211
582.45	90.602
582.65	91.101
582.85	91.438
583.05	91.626
583.25	91.851
583.45	92.489
583.65	93.211
583.85	94.038
584.05	94.895
584.25	95.794
584.45	96.634
584.65	97.064
584.85	96.987
585.05	96.827
585.25	96.810
585.45	97.029
585.65	97.298
585.85	97.415
586.05	97.599
586.25	97.903
586.45	98.493
586.65	98.967
586.85	99.048
587.05	98.799
587.25	98.365
587.45	97.993
587.65	97.262
587.85	96.433
588.05	95.651
588.25	94.942
588.45	94.395
588.65	93.893
588.85	93.612
589.05	93.821
589.25	94.139
589.45	94.338
589.65	94.321
589.85	94.373
590.05	94.244
590.25	93.948
590.45	93.487
590.65	92.844
590.85	92.115
591.05	91.562
591.25	91.347
591.45	91.651
591.65	91.922
591.85	92.088
592.05	91.991
592.25	92.039
592.45	92.226
592.65	92.447
592.85	92.639
593.05	92.698
593.25	92.628
593.45	92.492
593.64	92.421
593.84	92.553
594.04	92.690
594.24	92.926
594.44	93.055
594.64	93.210
594.84	93.244
595.04	93.186
595.24	93.163
595.44	93.284
595.64	93.249
595.84	93.148
596.04	93.159
596.24	93.718
596.44	94.193
596.64	94.363
596.84	94.286
597.04	94.374
597.24	94.522
597.43	94.739
597.63	94.849
597.83	94.949
598.03	95.046
598.23	95.054
598.43	95.164
598.63	95.590
598.83	95.994
599.03	96.193
599.23	96.291
599.43	96.446
599.63	96.500
599.83	96.281
600.02	96.340
600.22	96.300
600.42	95.882
600.62	95.488
600.82	95.401
601.02	95.281
601.22	94.943
601.42	94.604
601.62	94.495
601.82	94.722
602.02	94.772
602.21	94.410
602.41	94.075
602.61	93.700
602.81	93.223
603.01	93.000
603.21	93.198
603.41	93.800
603.61	94.288
603.81	94.557
604.01	94.887
604.20	95.071
604.40	95.267
604.60	95.435
604.80	95.840
605.00	96.472
605.20	97.318
605.40	98.199
605.60	99.007
605.79	99.600
605.99	99.919
606.19	100.217
606.39	100.878
606.59	101.546
606.79	102.163
606.99	102.627
607.19	102.699
607.38	102.692
607.58	102.468
607.78	102.143
607.98	101.864
608.18	101.555
608.38	101.102
608.58	100.667
608.77	100.700
608.97	100.875
609.17	100.919
609.37	100.998
609.57	101.092
609.77	101.420
609.97	101.571
610.16	101.584
610.36	101.690
610.56	101.952
610.76	102.235
610.96	102.274
611.16	102.120
611.35	101.762
611.55	100.968
611.75	99.940
611.95	98.983
612.15	98.371
612.35	98.135
612.55	98.069
612.74	97.959
612.94	97.633
613.14	97.253
613.34	96.967
613.54	96.935
613.73	97.018
613.93	96.993
614.13	96.840
614.33	96.868
614.53	96.772
614.73	96.428
614.92	96.063
615.12	96.131
615.32	96.500
615.52	97.197
615.72	98.247
615.91	99.508
616.11	100.917
616.31	102.303
616.51	103.348
616.71	104.438
616.90	105.632
617.10	106.658
617.30	107.506
617.50	108.389
617.70	109.249
617.89	110.121
618.09	110.599
618.29	110.861
618.49	111.109
618.69	111.324
618.88	111.604
619.08	111.897
619.28	112.068
619.48	111.887
619.68	111.314
619.87	110.758
620.07	110.359
620.27	109.873
620.47	109.306
620.66	108.737
620.86	108.065
621.06	107.430
621.26	106.984
621.46	106.773
621.65	106.476
621.85	105.772
622.05	104.881
622.25	104.490
622.44	104.513
622.64	104.908
622.84	105.147
623.04	105.185
623.23	105.260
623.43	105.200
623.63	105.128
623.83	105.087
624.02	105.104
624.22	104.906
624.42	104.509
624.62	103.913
624.81	103.516
625.01	103.165
625.21	102.804
625.41	102.538
625.60	102.404
625.80	102.228
626.00	102.115
626.20	101.793
626.39	101.146
626.59	100.458
626.79	99.558
626.99	99.173
627.18	99.327
627.38	99.213
627.58	98.749
627.78	98.081
627.97	97.722
628.17	97.355
628.37	97.215
628.56	97.466
628.76	97.890
628.96	98.414
629.16	98.844
629.35	99.260
629.55	99.578
629.75	99.345
629.94	98.986
630.14	98.889
630.34	99.408
630.54	100.144
630.73	100.727
630.93	101.350
631.13	101.924
631.32	102.368
631.52	103.042
631.72	103.928
631.92	104.788
632.11	104.933
632.31	104.335
632.51	103.753
632.70	103.453
632.90	103.138
633.10	102.630
633.29	102.167
633.49	101.514
633.69	100.793
633.88	100.470
634.08	100.411
634.28	100.500
634.48	100.334
634.67	99.807
634.87	99.669
635.07	99.632
635.26	99.291
635.46	98.503
635.66	97.363
635.85	96.058
636.05	95.125
636.25	94.876
636.44	95.325
636.64	95.818
636.84	95.662
637.03	95.136
637.23	94.497
637.43	93.788
637.62	93.136
637.82	92.404
638.02	91.526
638.21	90.633
638.41	89.338
638.61	87.913
638.80	86.993
639.00	86.229
639.19	85.527
639.39	85.189
639.59	85.385
639.78	85.906
639.98	86.585
640.18	86.923
640.37	86.968
640.57	86.804
640.77	86.560
640.96	86.545
641.16	86.774
641.36	87.232
641.55	87.475
641.75	87.343
641.94	87.495
642.14	87.914
642.34	88.308
642.53	88.981
642.73	90.195
642.93	91.484
643.12	92.062
643.32	91.907
643.51	91.459
643.71	91.002
643.91	90.555
644.10	90.001
644.30	89.699
644.49	89.728
644.69	89.815
644.89	89.611
645.08	89.285
645.28	88.985
645.47	88.618
645.67	88.486
645.87	88.809
646.06	89.096
646.26	89.163
646.46	89.004
646.65	88.673
646.85	88.154
647.04	87.433
647.24	87.015
647.43	86.860
647.63	86.657
647.83	86.406
648.02	86.114
648.22	86.010
648.41	86.172
648.61	86.237
648.81	86.155
649.00	86.298
649.20	86.663
649.39	86.983
649.59	87.270
649.78	87.355
649.98	87.367
650.18	86.919
650.37	86.323
650.57	85.869
650.76	85.537
650.96	84.933
651.15	84.745
651.35	84.788
651.55	85.008
651.74	85.228
651.94	85.193
652.13	85.234
652.33	85.403
652.52	85.249
652.72	84.842
652.91	84.368
653.11	84.014
653.31	83.508
653.50	82.769
653.70	82.033
653.89	81.669
654.09	81.343
654.28	81.116
654.48	80.936
654.67	80.812
654.87	80.570
655.06	80.426
655.26	80.053
655.45	79.622
655.65	79.001
655.85	78.286
656.04	77.933
656.24	77.564
656.43	77.144
656.63	76.736
656.82	76.446
657.02	76.551
657.21	76.526
657.41	76.366
657.60	76.392
657.80	76.378
657.99	76.175
658.19	75.912
658.38	75.651
658.58	75.548
658.77	75.371
658.97	75.009
659.16	74.506
659.36	73.879
659.55	73.200
659.75	72.690
659.94	72.449
660.14	72.500
660.33	72.450
660.53	72.391
660.72	72.467
660.92	72.589
661.11	72.593
661.31	72.485
661.50	72.368
661.70	72.151
661.89	71.611
662.09	70.817
662.28	70.022
662.48	69.306
662.67	68.666
662.87	68.001
663.06	67.488
663.26	67.259
663.45	67.165
663.65	66.978
663.84	66.693
664.04	66.496
664.23	66.163
664.43	65.710
664.62	65.450
664.81	65.224
665.01	65.089
665.20	64.060
665.40	63.806
665.59	63.724
665.79	63.665
665.98	63.740
666.18	63.959
666.37	64.349
666.57	64.891
666.76	65.332
666.95	65.991
667.15	66.678
667.34	67.247
667.54	67.656
667.73	68.279
667.93	68.958
668.12	69.389
668.32	69.829
668.51	70.366
668.70	70.658
668.90	70.608
669.09	70.090
669.29	70.256
669.48	69.449
669.68	68.428
669.87	67.570
670.06	66.785
670.26	66.166
670.45	65.581
670.65	64.926
670.84	64.281
671.04	63.659
671.23	62.923
671.42	61.954
671.62	60.945
671.81	60.197
672.01	59.723
672.20	59.419
672.40	59.269
672.59	59.148
672.78	58.909
672.98	58.527
673.17	58.425
673.37	58.623
673.56	58.743
673.75	58.803
673.95	58.906
674.14	58.950
674.34	58.350
674.53	57.837
674.72	57.165
674.92	56.594
675.11	56.000
675.30	55.421
675.50	54.913
675.69	54.506
675.89	53.892
676.08	53.063
676.27	52.255
676.47	51.539
676.66	50.873
676.86	50.334
677.05	49.953
677.24	49.656
677.44	49.499
677.63	49.442
677.82	49.449
678.02	49.436
678.21	49.311
678.41	49.036
678.60	48.760
678.79	48.630
678.99	48.477
679.18	48.210
679.37	47.970
679.57	47.878
679.76	47.727
679.95	47.507
680.15	47.468
680.34	47.593
680.53	47.464
680.73	47.321
680.92	47.246
681.12	47.292
681.31	47.124
681.50	46.580
681.70	45.937
681.89	45.345
682.08	44.822
682.28	44.429
682.47	44.240
682.66	44.280
682.86	44.456
683.05	44.746
683.24	45.264
683.44	45.908
683.63	46.608
683.82	47.307
684.02	48.039
684.21	48.728
684.40	49.267
684.59	49.836
684.79	50.373
684.98	50.867
685.17	51.059
685.37	51.142
685.56	51.338
685.75	51.665
685.95	52.028
686.14	52.338
686.33	52.581
686.53	52.854
686.72	53.038
686.91	53.022
687.11	53.099
687.30	53.103
687.49	53.026
687.68	52.722
687.88	52.383
688.07	52.142
688.26	51.893
688.46	51.485
688.65	51.149
688.84	50.984
689.03	50.844
689.23	50.666
689.42	50.609
689.61	50.765
689.81	51.132
690.00	51.327
690.19	51.565
690.38	51.788
690.58	51.904
690.77	51.804
690.96	51.694
691.16	51.513
691.35	51.362
691.54	51.153
691.73	51.083
691.93	51.059
692.12	50.962
692.31	50.810
692.50	50.856
692.70	51.077
692.89	51.282
693.08	51.478
693.27	51.791
693.47	52.375
693.66	52.962
693.85	53.337
694.04	53.722
694.24	54.205
694.43	54.616
694.62	54.890
694.81	55.119
695.01	55.326
695.20	55.442
695.39	55.453
695.58	55.509
695.78	55.550
695.97	55.492
696.16	55.478
696.35	55.624
696.55	55.975
696.74	56.214
696.93	56.379
697.12	56.633
697.31	57.123
697.51	57.493
697.70	57.603
697.89	57.690
698.08	57.733
698.28	57.502
698.47	57.183
698.66	56.962
698.85	56.995
699.04	57.052
699.24	57.101
699.43	57.251
699.62	57.478
699.81	57.673
700.00	58.004
700.20	58.510
700.39	59.059
700.58	59.471
700.77	59.690
700.96	59.981
701.16	60.252
701.35	60.379
701.54	60.204
701.73	60.320
701.92	60.625
702.12	60.945
702.31	61.343
702.50	61.835
702.69	62.287
702.88	62.469
703.07	62.668
703.27	63.074
703.46	63.433
703.65	63.608
703.84	63.701
704.03	63.847
704.23	63.885
704.42	63.887
704.61	63.767
704.80	63.838
704.99	64.090
705.18	64.303
705.38	64.310
705.57	64.379
705.76	64.275
705.95	64.095
706.14	63.911
706.33	63.794
706.52	63.776
706.72	63.877
706.91	63.945
707.10	63.843
707.29	63.829
707.48	64.117
707.67	64.521
707.87	65.071
708.06	65.617
708.25	66.002
708.44	66.245
708.63	66.604
708.82	66.821
709.01	66.861
709.20	66.893
709.40	67.281
709.59	68.083
709.78	68.947
709.97	69.841
710.16	70.838
710.35	71.772
710.54	72.425
710.74	73.066
710.93	73.906
711.12	75.047
711.31	76.119
711.50	76.573
711.69	76.766
711.88	76.892
712.07	76.976
712.26	76.965
712.46	77.037
712.65	77.334
712.84	77.736
713.03	77.933
713.22	78.061
713.41	78.057
713.60	77.863
713.79	77.813
713.98	77.861
714.17	78.010
714.37	78.389
714.56	78.898
714.75	79.426
714.94	79.700
715.13	79.645
715.32	79.376
715.51	79.431
715.70	79.801
715.89	80.087
716.08	80.091
716.27	80.039
716.46	79.978
716.66	79.602
716.85	78.988
717.04	78.525
717.23	78.517
717.42	78.500
717.61	78.437
717.80	78.155
717.99	78.069
718.18	77.867
718.37	77.373
718.56	76.920
718.75	77.037
718.94	77.453
719.13	78.069
719.32	78.614
719.52	79.187
719.71	79.551
719.90	79.784
720.09	80.133
720.28	80.747
720.47	81.428
720.66	81.824
720.85	82.372
721.04	82.931
721.23	83.027
721.42	82.824
721.61	82.703
721.80	82.738
721.99	82.687
722.18	82.564
722.37	82.619
722.56	82.772
722.75	82.636
722.94	82.422
723.13	82.211
723.32	82.209
723.51	82.012
723.70	81.759
723.89	81.485
724.08	81.482
724.27	81.619
724.46	81.564
724.65	81.769
724.84	82.312
725.03	82.999
725.22	83.705
725.41	84.510
725.60	85.330
725.79	85.958
725.98	86.282
726.17	86.696
726.36	87.353
726.55	87.686
726.74	87.533
726.93	87.212
727.12	86.904
727.31	86.624
727.50	86.306
727.69	85.837
727.88	85.337
728.07	84.949
728.26	84.760
728.45	85.020
728.64	85.397
728.83	85.467
729.02	85.116
729.21	84.732
729.40	84.410
729.59	84.031
729.78	83.685
729.97	83.642
730.16	83.897
730.35	84.086
730.54	84.397
730.73	84.924
730.92	85.369
731.11	85.568
731.30	85.363
731.49	85.393
731.68	85.779
731.87	86.204
732.06	86.617
732.25	87.049
732.44	87.449
732.63	87.784
732.82	88.026
733.00	88.150
733.19	88.017
733.38	87.517
733.57	86.625
733.76	85.862
733.95	85.480
734.14	85.042
734.33	84.712
734.52	84.652
734.71	84.993
734.90	85.283
735.09	85.423
735.28	85.433
735.47	85.425
735.66	85.370
735.85	85.226
736.03	84.879
736.22	84.356
736.41	83.715
736.60	82.652
736.79	81.701
736.98	81.116
737.17	80.890
737.36	80.989
737.55	81.558
737.74	82.555
737.93	83.110
738.11	83.054
738.30	82.457
738.49	81.858
738.68	80.964
738.87	79.943
739.06	79.199
739.25	79.112
739.44	79.180
739.63	79.132
739.82	79.166
740.00	79.207
740.19	79.144
740.38	79.045
740.57	79.377
740.76	80.080
740.95	80.817
741.14	81.336
741.33	81.657
741.52	81.794
741.70	81.325
741.89	80.554
742.08	79.974
742.27	80.060
742.46	80.268
742.65	80.345
742.84	80.509
743.03	80.852
743.21	80.951
743.40	80.776
743.59	80.917
743.78	81.431
743.97	82.094
744.16	82.496
744.35	82.820
744.53	83.212
744.72	83.272
744.91	83.238
745.10	83.123
745.29	83.069
745.48	82.949
745.66	83.085
745.85	83.437
746.04	83.900
746.23	84.147
746.42	84.407
746.61	84.788
746.80	85.569
746.98	86.411
747.17	87.433
747.36	88.711
747.55	90.044
747.74	90.617
747.93	90.672
748.11	90.530
748.30	90.600
748.49	90.233
748.68	90.094
748.87	90.216
749.05	90.657
749.24	90.914
749.43	90.855
749.62	90.991
749.81	91.248
750.00	91.516
750.18	91.589
750.37	91.491
750.56	91.569
750.75	91.416
750.94	91.193
751.12	90.953
751.31	90.947
751.50	90.834
751.69	90.813
751.88	91.081
752.06	91.763
752.25	92.239
752.44	93.015
752.63	93.845
752.81	94.674
753.00	95.133
753.19	94.955
753.38	94.918
753.57	94.932
753.75	95.282
753.94	95.783
754.13	96.561
754.32	97.357
754.50	97.796
754.69	98.017
754.88	98.251
755.07	98.333
755.26	98.234
755.44	98.059
755.63	98.347
755.82	99.101
756.01	99.597
756.19	99.915
756.38	99.895
756.57	100.034
756.76	100.259
756.94	100.572
757.13	101.697
757.32	103.092
757.51	104.473
757.69	104.973
757.88	104.816
758.07	104.715
758.26	104.383
758.44	104.027
758.63	103.893
758.82	104.276
759.01	104.997
759.19	105.495
759.38	105.681
759.57	105.698
759.76	105.295
759.94	104.798
760.13	104.347
760.32	104.375
760.50	103.600
760.69	102.421
760.88	101.447
761.07	100.655
761.25	100.109
761.44	99.479
761.63	99.368
761.81	99.937
762.00	100.436
762.19	100.881
762.38	101.188
762.56	101.501
762.75	101.281
762.94	100.462
763.12	99.648
763.31	99.225
763.50	98.842
763.68	98.520
763.87	98.374
764.06	98.914
764.25	99.591
764.43	100.418
764.62	101.384
764.81	102.595
764.99	103.648
765.18	103.839
765.37	103.855
765.55	103.503
765.74	103.097
765.93	102.560
766.11	102.270
766.30	102.461
766.49	102.493
766.67	102.272
766.86	102.173
767.05	102.314
767.23	102.358
767.42	102.183
767.61	102.097
767.79	102.215
767.98	101.771
768.17	101.212
768.35	101.130
768.54	101.363
768.73	101.497
768.91	101.608
769.10	102.345
769.29	103.605
769.47	105.045
769.66	106.176
769.85	107.311
770.03	108.388
770.22	108.905
770.41	108.861
770.59	108.742
770.78	108.498
770.96	108.152
771.15	108.012
771.34	108.159
771.52	108.401
771.71	108.441
771.90	108.481
772.08	108.204
772.27	107.691
772.46	106.791
772.64	105.508
772.83	104.150
773.01	103.093
773.20	101.926
773.39	100.810
773.57	100.030
773.76	99.609
773.94	99.040
774.13	98.318
774.32	98.010
774.50	98.209
774.69	98.341
774.87	98.507
775.06	98.553
775.25	99.046
775.43	99.587
775.62	100.190
775.80	101.074
775.99	102.323
776.18	103.604
776.36	104.728
776.55	106.045
776.73	107.571
776.92	108.324
777.11	108.112
777.29	108.086
777.48	108.107
777.66	107.756
777.85	107.441
778.04	107.601
778.22	107.989
778.41	108.127
778.59	107.941
778.78	107.700
778.96	107.776
779.15	107.438
779.34	107.062
779.52	106.881
779.71	106.527
779.89	105.917
780.08	104.913
780.26	104.243
780.45	104.323
780.63	104.279
780.82	104.364
781.01	104.718
781.19	104.812
781.38	104.575
781.56	104.101
781.75	103.186
781.93	102.229
782.12	100.749
782.30	99.040
782.49	97.781
782.67	96.896
782.86	95.976
783.04	94.794
783.23	93.760
783.42	92.793
783.60	91.941
783.79	90.934
783.97	90.118
784.16	89.125
784.34	87.874
784.53	86.733
784.71	86.029
784.90	85.802
785.08	85.597
785.27	85.188
785.45	85.057
785.64	85.355
785.82	85.752
786.01	85.984
786.19	86.127
786.38	86.250
786.56	86.293
786.75	86.018
786.93	85.676
787.12	85.080
787.30	84.284
787.49	83.549
787.67	83.378
787.86	83.651
788.04	84.311
788.23	84.625
788.41	84.486
788.60	83.941
788.78	83.212
788.97	82.437
789.15	82.246
789.34	82.390
789.52	82.772
789.71	83.175
789.89	84.380
790.08	86.324
790.26	88.278
790.45	90.004
790.63	91.661
790.82	93.439
791.00	95.202
791.18	96.661
791.37	98.030
791.55	98.828
791.74	99.057
791.92	98.712
792.11	98.994
792.29	99.839
792.48	100.799
792.66	101.607
792.85	102.519
793.03	103.627
793.21	104.054
793.40	103.827
793.58	103.477
793.77	103.057
793.95	102.202
794.14	101.152
794.32	100.329
794.51	99.985
794.69	100.078
794.87	100.071
795.06	100.070
795.24	100.063
795.43	100.291
795.61	100.681
795.80	101.485
795.98	102.555
796.16	103.474
796.35	104.012
796.53	104.473
796.72	104.888
796.90	104.556
797.08	104.242
797.27	103.978
797.45	103.805
797.64	103.219
797.82	102.624
798.01	102.625
798.19	102.838
798.37	102.739
798.56	102.115
798.74	101.542
798.93	101.395
799.11	101.077
799.29	100.427
799.48	99.594
799.66	98.643
799.84	97.540
800.03	96.549
800.21	96.176
800.40	96.256
800.58	96.311
800.76	96.247
800.95	96.055
801.13	96.183
801.32	96.200
801.50	96.233
801.68	96.369
801.87	96.256
802.05	96.090
802.23	96.095
802.42	96.366
802.60	97.245
802.79	98.005
802.97	98.942
803.15	100.240
803.34	101.762
803.52	103.031
803.70	103.937
803.89	104.710
804.07	105.221
804.25	105.571
804.44	105.914
804.62	106.956
804.80	108.581
804.99	110.077
805.17	111.150
805.35	111.844
805.54	112.342
805.72	112.607
805.90	112.265
806.09	111.871
806.27	111.527
806.45	111.035
806.64	110.748
806.82	110.717
807.00	110.720
807.19	110.540
807.37	110.037
807.55	109.696
807.74	109.398
807.92	109.122
808.10	108.395
808.29	107.858
808.47	107.163
808.65	106.540
808.84	105.739
809.02	105.239
809.20	105.412
809.39	105.783
809.57	106.523
809.75	107.771
809.93	109.264
810.12	110.525
810.30	111.041
810.48	111.259
810.67	111.996
810.85	112.712
811.03	113.538
811.21	115.055
811.40	117.021
811.58	118.887
811.76	120.516
811.95	122.220
812.13	123.584
812.31	124.647
812.49	124.872
812.68	125.055
812.86	125.631
813.04	125.982
813.23	126.274
813.41	126.910
813.59	127.923
813.77	128.848
813.96	130.077
814.14	131.828
814.32	133.635
814.50	134.885
814.69	135.905
814.87	136.898
815.05	137.150
815.23	136.649
815.42	135.589
815.60	134.979
815.78	134.964
815.96	134.818
816.15	134.236
816.33	133.653
816.51	133.047
816.69	131.658
816.88	129.373
817.06	126.783
817.24	124.200
817.42	121.872
817.61	119.656
817.79	117.735
817.97	116.139
818.15	114.720
818.34	113.166
818.52	112.171
818.70	111.955
818.88	112.405
819.06	112.789
819.25	113.216
819.43	113.337
819.61	113.249
819.79	113.184
819.97	113.728
820.16	114.883
820.34	116.477
820.52	117.968
820.70	119.721
820.89	121.919
821.07	123.685
821.25	125.093
821.43	126.661
821.61	128.442
821.79	129.939
821.98	131.351
822.16	132.348
822.34	132.532
822.52	131.725
822.70	130.383
822.89	128.919
823.07	127.973
823.25	127.157
823.43	126.260
823.61	125.606
823.80	124.933
823.98	123.808
824.16	122.578
824.34	121.394
824.52	120.499
824.70	119.134
824.89	117.384
825.07	115.721
825.25	114.081
825.43	111.995
825.61	109.769
825.79	107.805
825.98	106.837
826.16	106.641
826.34	106.916
826.52	107.562
826.70	108.871
826.88	109.926
827.06	110.051
827.25	109.954
827.43	109.564
827.61	108.852
827.79	108.247
827.97	107.938
828.15	108.098
828.33	108.178
828.52	108.577
828.70	109.411
828.88	110.372
829.06	111.241
829.24	112.327
829.42	113.646
829.60	115.229
829.78	116.337
829.97	116.841
830.15	116.775
830.33	116.691
830.51	116.213
830.69	115.461
830.87	115.305
831.05	115.217
831.23	115.204
831.41	114.830
831.60	114.179
831.78	113.363
831.96	112.312
832.14	111.294
832.32	110.416
832.50	109.681
832.68	108.785
832.86	107.571
833.04	106.495
833.22	105.771
833.41	104.788
833.59	103.604
833.77	102.655
833.95	102.496
834.13	102.582
834.31	102.823
834.49	103.438
834.67	104.175
834.85	105.007
835.03	105.695
835.21	106.451
835.39	107.477
835.58	108.587
835.76	109.630
835.94	110.576
836.12	111.391
836.30	112.431
836.48	113.463
836.66	115.064
836.84	116.695
837.02	117.971
837.20	118.831
837.38	119.651
837.56	120.614
837.74	120.890
837.92	120.570
838.10	119.910
838.28	119.336
838.46	118.915
838.64	118.637
838.82	118.713
839.01	119.316
839.19	119.437
839.37	119.219
839.55	118.829
839.73	118.593
839.91	118.284
840.09	117.735
840.27	117.484
840.45	117.391
840.63	117.577
840.81	118.110
840.99	119.334
841.17	120.967
841.35	122.413
841.53	124.043
841.71	125.722
841.89	128.122
842.07	129.811
842.25	130.967
842.43	131.527
842.61	132.377
842.79	132.537
842.97	132.812
843.15	132.905
843.33	133.338
843.51	133.847
843.69	134.509
843.87	135.266
844.05	136.041
844.23	136.334
844.41	135.834
844.59	135.238
844.77	134.786
844.95	133.960
845.13	133.117
845.31	132.349
845.49	132.029
845.67	130.720
845.85	129.816
846.03	129.439
846.21	129.928
846.39	129.952
846.57	129.646
846.75	129.145
846.93	129.169
847.11	128.940
847.28	128.016
847.46	127.036
847.64	125.953
847.82	125.514
848.00	125.499
848.18	126.040
848.36	126.889
848.54	127.494
848.72	127.522
848.90	127.148
849.08	126.945
849.26	126.156
849.44	125.408
849.62	124.841
849.80	124.531
849.98	123.805
850.16	122.860
850.34	122.398
850.51	122.538
850.69	122.203
850.87	121.825
851.05	122.004
851.23	122.381
851.41	122.760
851.59	122.297
851.77	121.377
851.95	120.600
852.13	120.073
852.31	119.705
852.49	120.036
852.67	121.080
852.84	121.936
853.02	122.651
853.20	123.295
853.38	123.765
853.56	123.729
853.74	123.749
853.92	123.996
854.10	124.436
854.28	125.085
854.46	125.863
854.63	126.525
854.81	127.145
854.99	127.946
855.17	128.760
855.35	130.072
855.53	131.637
855.71	132.866
855.89	133.291
856.07	133.564
856.24	133.687
856.42	133.350
856.60	132.820
856.78	132.372
856.96	132.684
857.14	132.745
857.32	132.649
857.49	132.216
857.67	131.973
857.85	131.345
858.03	130.498
858.21	129.360
858.39	128.439
858.57	127.417
858.75	126.462
858.92	125.823
859.10	125.790
859.28	125.929
859.46	126.006
859.64	126.372
859.82	127.049
859.99	127.580
860.17	127.823
860.35	128.122
860.53	128.662
860.71	128.704
860.89	128.464
861.06	128.590
861.24	129.156
861.42	129.751
861.60	130.058
861.78	130.457
861.96	131.793
862.13	133.112
862.31	134.520
862.49	135.971
862.67	137.495
862.85	138.157
863.02	137.443
863.20	136.090
863.38	134.567
863.56	132.915
863.74	131.355
863.92	130.053
864.09	129.093
864.27	128.293
864.45	127.735
864.63	127.354
864.81	126.917
864.98	126.021
865.16	125.073
865.34	124.694
865.52	125.044
865.69	125.616
865.87	126.246
866.05	127.116
866.23	128.114
866.41	128.871
866.58	128.883
866.76	129.396
866.94	130.423
867.12	131.624
867.29	132.207
867.47	132.769
867.65	134.132
867.83	135.733
868.01	137.408
868.18	139.213
868.36	141.412
868.54	143.920
868.72	147.100
868.89	150.451
869.07	154.118
869.25	156.757
869.43	158.323
869.60	160.049
869.78	162.025
869.96	163.646
870.14	165.541
870.31	168.603
870.49	172.744
870.67	176.714
870.85	179.969
871.02	183.684
871.20	188.260
871.38	192.235
871.56	195.507
871.73	197.579
871.91	200.076
872.09	201.372
872.26	201.553
872.44	201.232
872.62	201.156
872.80	200.209
872.97	199.107
873.15	198.221
873.33	197.500
873.50	196.631
873.68	195.066
873.86	194.603
874.04	195.884
874.21	196.495
874.39	197.462
874.57	199.679
874.74	202.491
874.92	204.897
875.10	205.763
875.27	206.356
875.45	207.488
875.63	207.724
875.81	207.571
875.98	207.109
876.16	207.297
876.34	206.415
876.51	203.315
876.69	200.986
876.87	199.811
877.04	197.662
877.22	195.109
877.40	193.465
877.57	191.600
877.75	188.507
877.93	185.018
878.10	181.896
878.28	179.094
878.46	176.798
878.63	174.912
878.81	174.276
878.99	174.616
879.16	174.122
879.34	172.745
879.52	172.224
879.69	172.657
879.87	172.619
880.05	172.519
880.22	173.819
880.40	174.982
880.58	176.465
880.75	177.881
880.93	178.919
881.10	180.594
881.28	181.458
881.46	181.471
881.63	182.184
881.81	182.874
881.99	183.297
882.16	182.665
882.34	182.383
882.51	182.566
882.69	181.725
882.87	180.957
883.04	180.880
883.22	181.765
883.40	182.038
883.57	182.254
883.75	183.444
883.92	185.521
884.10	186.384
884.28	186.431
884.45	186.413
884.63	187.253
884.80	187.462
884.98	187.620
885.16	187.989
885.33	188.236
885.51	188.152
885.68	188.047
885.86	188.511
886.04	189.187
886.21	188.709
886.39	187.124
886.56	185.976
886.74	185.420
886.92	184.132
887.09	183.171
887.27	182.785
887.44	182.614
887.62	181.900
887.79	181.682
887.97	180.991
888.15	181.668
888.32	182.156
888.50	181.494
888.67	180.552
888.85	180.360
889.02	180.019
889.20	179.418
889.37	179.205
889.55	179.848
889.73	179.580
889.90	179.461
890.08	180.475
890.25	181.243
890.43	181.485
890.60	181.151
890.78	180.869
890.95	180.618
891.13	179.073
891.30	176.378
891.48	173.400
891.66	171.416
891.83	168.655
892.01	166.293
892.18	164.642
892.36	164.239
892.53	164.319
892.71	163.939
892.88	163.874
893.06	164.329
893.23	164.862
893.41	165.095
893.58	166.153
893.76	167.872
893.93	169.487
894.11	170.128
894.28	171.105
894.46	171.729
894.63	171.548
894.81	171.053
894.98	171.412
895.16	172.410
895.33	172.745
895.51	172.290
895.68	171.631
895.86	171.963
896.03	171.686
896.21	170.344
896.38	169.181
896.56	168.277
896.73	165.849
896.91	163.671
897.08	162.205
897.26	161.107
897.43	159.579
897.61	157.866
897.78	157.168
897.96	156.532
898.13	155.668
898.31	154.398
898.48	153.767
898.65	153.089
898.83	152.575
899.00	152.203
899.18	152.654
899.35	153.750
899.53	154.746
899.70	155.634
899.88	157.112
900.05	159.701
900.23	162.202
900.40	164.731
900.57	167.411
900.75	170.556
900.92	173.715
901.10	176.294
901.27	179.840
901.45	183.593
901.62	186.856
901.80	189.694
901.97	193.162
902.14	197.194
902.32	201.157
902.49	204.631
902.67	208.031
902.84	212.672
903.02	216.741
903.19	221.150
903.36	226.543
903.54	233.642
903.71	239.175
903.89	244.365
904.06	250.189
904.23	257.272
904.41	263.233
904.58	267.197
904.76	271.923
904.93	277.901
905.10	282.264
905.28	285.982
905.45	291.558
905.63	299.935
905.80	305.979
905.97	313.659
906.15	321.197
906.32	331.266
906.50	339.301
906.67	344.367
906.84	347.926
907.02	352.331
907.19	356.467
907.36	358.808
907.54	361.964
907.71	367.701
907.89	369.097
908.06	369.653
908.23	372.597
908.41	376.714
908.58	375.429
908.75	370.563
908.93	365.272
909.10	361.480
909.27	356.253
909.45	352.090
909.62	346.011
909.80	344.139
909.97	341.009
910.14	337.818
910.32	337.003
910.49	338.305
910.66	337.986
910.84	334.775
911.01	330.484
911.18	328.095
911.36	323.012
911.53	315.476
911.70	307.200
911.88	297.833
912.05	287.875
912.22	277.507
912.40	269.023
912.57	262.367
912.74	255.155
912.92	246.976
913.09	240.942
913.26	237.199
913.44	231.915
913.61	226.125
913.78	220.569
913.95	215.256
914.13	208.878
914.30	202.456
914.47	196.540
914.65	192.459
914.82	187.026
914.99	181.864
915.17	178.419
915.34	176.859
915.51	175.939
915.68	175.982
915.86	177.209
916.03	179.252
916.20	181.314
916.38	182.856
916.55	184.701
916.72	186.874
916.89	187.936
917.07	188.917
917.24	189.430
917.41	189.984
917.59	189.960
917.76	190.040
917.93	190.615
918.10	192.600
918.28	194.651
918.45	196.519
918.62	199.521
918.79	203.046
918.97	205.586
919.14	205.083
919.31	203.389
919.48	200.805
919.66	197.123
919.83	191.340
920.00	186.452
920.17	182.471
920.35	178.118
920.52	174.052
920.69	170.732
920.86	168.809
921.04	166.795
921.21	165.204
921.38	164.346
921.55	163.646
921.73	162.481
921.90	159.933
922.07	157.299
922.24	154.174
922.41	150.966
922.59	147.799
922.76	146.208
922.93	145.860
923.10	145.835
923.27	146.190
923.45	146.498
923.62	147.574
923.79	148.786
923.96	149.239
924.14	149.599
924.31	150.483
924.48	150.952
924.65	150.336
924.82	148.842
925.00	148.083
925.17	147.477
925.34	146.944
925.51	147.849
925.68	150.178
925.85	153.354
926.03	156.014
926.20	159.004
926.37	162.117
926.54	163.806
926.71	164.431
926.89	164.390
927.06	165.245
927.23	164.844
927.40	164.144
927.57	164.501
927.74	164.640
927.92	163.753
928.09	162.596
928.26	163.092
928.43	165.330
928.60	167.455
928.77	168.124
928.94	168.494
929.12	168.872
929.29	169.343
929.46	169.188
929.63	170.286
929.80	171.150
929.97	172.065
930.15	172.120
930.32	171.911
930.49	172.752
930.66	173.342
930.83	173.642
931.00	174.802
931.17	177.537
931.34	181.111
931.52	183.306
931.69	185.121
931.86	186.201
932.03	185.441
932.20	183.504
932.37	183.070
932.54	184.129
932.71	184.365
932.89	183.446
933.06	182.520
933.23	182.119
933.40	181.598
933.57	180.781
933.74	180.718
933.91	182.358
934.08	183.012
934.25	184.158
934.42	185.804
934.60	188.354
934.77	189.446
934.94	189.621
935.11	191.520
935.28	194.713
935.45	198.351
935.62	201.808
935.79	206.646
935.96	212.398
936.13	215.920
936.30	217.369
936.47	219.927
936.65	224.011
936.82	224.899
936.99	223.871
937.16	222.992
937.33	222.471
937.50	221.153
937.67	218.798
937.84	216.122
938.01	215.155
938.18	212.152
938.35	208.552
938.52	206.309
938.69	205.163
938.86	203.474
939.03	200.452
939.20	199.161
939.37	198.690
939.54	197.093
939.72	194.454
939.89	192.978
940.06	190.617
940.23	187.045
940.40	184.358
940.57	182.844
940.74	182.670
940.91	183.055
941.08	182.817
941.25	184.451
941.42	186.930
941.59	188.775
941.76	190.013
941.93	191.397
942.10	193.535
942.27	195.591
942.44	195.819
942.61	197.457
942.78	200.355
942.95	202.002
943.12	202.285
943.29	205.071
943.46	209.659
943.63	213.694
943.80	216.310
943.97	220.165
944.14	224.867
944.31	227.266
944.48	227.939
944.65	228.262
944.82	227.985
944.99	227.695
945.16	226.231
945.33	224.407
945.50	224.491
945.67	222.618
945.84	219.913
946.01	218.941
946.18	218.928
946.35	217.219
946.52	214.689
946.69	213.809
946.86	214.587
947.02	214.862
947.19	214.650
947.36	215.807
947.53	217.912
947.70	219.512
947.87	220.150
948.04	221.202
948.21	226.024
948.38	230.259
948.55	232.816
948.72	236.827
948.89	244.541
949.06	249.182
949.23	251.134
949.40	253.429
949.57	258.988
949.74	264.276
949.91	268.176
950.07	273.165
950.24	282.348
950.41	286.995
950.58	288.205
950.75	288.333
950.92	291.366
951.09	290.282
951.26	286.933
951.43	286.658
951.60	289.903
951.77	287.420
951.94	286.076
952.10	287.166
952.27	291.240
952.44	292.659
952.61	290.910
952.78	294.997
952.95	299.823
953.12	302.223
953.29	296.411
953.46	295.101
953.63	297.444
953.79	297.184
953.96	293.956
954.13	293.436
954.30	296.519
954.47	298.596
954.64	298.744
954.81	301.461
954.98	304.836
955.14	307.079
955.31	307.260
955.48	307.068
955.65	307.896
955.82	306.566
955.99	301.002
956.16	300.638
956.33	301.294
956.49	300.285
956.66	295.914
956.83	296.130
957.00	298.985
957.17	297.332
957.34	292.085
957.50	288.745
957.67	288.329
957.84	287.722
958.01	282.947
958.18	279.680
958.35	280.689
958.52	277.695
958.68	271.962
958.85	270.477
959.02	270.507
959.19	268.450
959.36	263.385
959.52	261.947
959.69	262.558
959.86	261.936
960.03	258.146
960.20	256.866
960.37	258.253
960.53	255.949
960.70	252.399
960.87	251.731
961.04	252.819
961.21	251.287
961.37	246.839
961.54	243.979
961.71	243.143
961.88	238.831
962.05	234.435
962.21	229.848
962.38	228.391
962.55	226.187
962.72	222.567
962.89	221.827
963.05	221.725
963.22	218.270
963.39	213.608
963.56	210.044
963.73	208.699
963.89	204.771
964.06	200.203
964.23	197.163
964.40	196.591
964.56	195.052
964.73	192.452
964.90	191.096
965.07	191.929
965.23	191.649
965.40	191.905
965.57	192.852
965.74	196.791
965.90	198.338
966.07	199.030
966.24	201.206
966.41	202.144
966.57	203.683
966.74	204.244
966.91	205.718
967.08	210.443
967.24	212.275
967.41	212.514
967.58	213.648
967.75	216.767
967.91	216.189
968.08	213.434
968.25	214.710
968.42	217.659
968.58	217.777
968.75	216.651
968.92	213.837
969.08	214.714
969.25	212.637
969.42	209.268
969.59	205.427
969.75	204.869
969.92	203.803
970.09	199.099
970.25	195.588
970.42	194.124
970.59	191.309
970.76	187.250
970.92	184.361
971.09	184.514
971.26	181.826
971.42	177.869
971.59	175.720
971.76	173.494
971.92	170.082
972.09	167.103
972.26	165.728
972.42	165.618
972.59	164.299
972.76	162.227
972.92	160.919
973.09	161.144
973.26	160.335
973.42	158.300
973.59	157.072
973.76	157.558
973.92	156.947
974.09	154.098
974.26	152.768
974.42	154.734
974.59	154.379
974.76	152.567
974.92	153.751
975.09	156.079
975.26	157.326
975.42	158.893
975.59	160.409
975.76	163.585
975.92	165.312
976.09	164.198
976.26	164.889
976.42	166.646
976.59	166.986
976.76	163.734
976.92	163.745
977.09	165.568
977.25	166.742
977.42	165.217
977.59	166.546
977.75	169.803
977.92	170.870
978.08	170.505
978.25	173.551
978.42	174.954
978.58	173.929
978.75	171.645
978.92	170.222
979.08	169.436
979.25	168.408
979.41	166.000
979.58	165.704
979.75	166.464
979.91	166.768
980.08	165.956
980.24	167.948
980.41	170.881
980.58	172.288
980.74	170.951
980.91	172.462
981.07	175.404
981.24	175.868
981.40	172.672
981.57	171.690
981.74	172.251
981.90	171.313
982.07	170.664
982.23	171.927
982.40	176.096
982.56	178.043
982.73	177.868
982.90	179.243
983.06	183.235
983.23	184.987
983.39	184.649
983.56	185.764
983.72	187.970
983.89	188.431
984.05	186.672
984.22	187.755
984.39	190.064
984.55	189.402
984.72	186.803
984.88	184.617
985.05	186.210
985.21	184.737
985.38	183.747
985.54	182.792
985.71	184.114
985.87	182.748
986.04	179.992
986.20	178.996
986.37	180.134
986.54	179.484
986.70	175.384
986.87	173.147
987.03	173.812
987.20	173.782
987.36	169.620
987.53	169.640
987.69	170.520
987.86	170.389
988.02	167.575
988.19	167.725
988.35	173.723
988.52	175.551
988.68	173.432
988.85	172.991
989.01	175.270
989.18	174.070
989.34	170.898
989.51	169.555
989.67	171.264
989.84	171.291
990.00	167.805
990.17	166.597
990.33	168.287
990.49	168.803
990.66	165.039
990.82	166.460
990.99	167.751
991.15	167.770
991.32	164.013
991.48	163.947
991.65	166.318
991.81	164.526
991.98	161.164
992.14	159.569
992.31	161.485
992.47	159.788
992.63	156.532
992.80	154.725
992.96	156.896
993.13	157.416
993.29	154.381
993.46	153.802
993.62	157.176
993.79	157.298
993.95	154.837
994.11	154.504
994.28	156.390
994.44	156.710
994.61	152.694
994.77	153.813
994.94	156.770
995.10	152.697
995.26	150.779
995.43	151.723
995.59	158.346
995.76	157.475
995.92	155.198
996.09	154.389
996.25	159.905
996.41	159.413
996.58	156.503
996.74	155.145
996.91	158.575
997.07	158.357
997.23	156.129
997.40	153.167
997.56	156.668
997.73	156.426
997.89	154.445
998.05	155.247
998.22	160.170
998.38	161.873
998.54	164.097
998.71	163.836
998.87	167.620
999.04	166.054
999.20	165.170
999.36	164.892
999.53	171.142
999.69	167.743
999.85	163.795
1000.02	161.220
1000.18	166.424
1000.35	165.074
1000.51	162.401
1000.67	160.556
1000.84	166.464
1001.00	165.955
1001.16	165.962
1001.33	164.442
1001.49	167.745
1001.65	166.654
1001.82	163.109
1001.98	163.467
1002.14	166.647
1002.31	167.231
1002.47	165.085
1002.63	165.411
1002.80	170.905
1002.96	169.478
1003.12	170.188
1003.29	170.183
1003.45	172.369
1003.61	169.245
1003.78	163.411
1003.94	162.773
1004.10	167.789
1004.27	168.482
1004.43	162.500
1004.59	159.998
1004.76	163.168
1004.92	163.263
1005.08	158.381
1005.25	158.528
1005.41	162.233
1005.57	162.674
1005.73	158.978
1005.90	155.112
1006.06	157.091
1006.22	155.070
1006.39	152.463
1006.55	151.908
1006.71	155.669
1006.87	157.347
1007.04	154.414
1007.20	155.696
1007.36	156.954
1007.53	155.708
1007.69	152.404
1007.85	153.713
1008.01	156.321
1008.18	157.442
1008.34	153.099
1008.50	152.710
1008.66	152.901
1008.83	153.748
1008.99	152.197
1009.15	148.612
1009.32	155.546
1009.48	156.221
1009.64	150.762
1009.80	149.583
1009.97	150.373
1010.13	149.112
1010.29	145.959
1010.45	145.486
1010.62	147.064
1010.78	148.317
1010.94	146.632
1011.10	143.235
1011.26	144.805
1011.43	145.429
1011.59	141.017
1011.75	139.394
1011.91	143.376
1012.08	144.919
1012.24	137.870
1012.40	134.791
1012.56	139.479
1012.72	139.010
1012.89	138.502
1013.05	141.057
1013.21	142.250
1013.37	142.184
1013.54	139.615
1013.70	138.485
1013.86	141.928
1014.02	143.071
1014.18	139.434
1014.35	137.578
1014.51	140.842
1014.67	140.449
1014.83	135.600
1014.99	132.190
1015.15	134.943
1015.32	133.555
1015.48	130.235
1015.64	131.854
1015.80	138.492
1015.96	138.134
1016.13	134.003
1016.29	132.383
1016.45	136.403
1016.61	137.350
1016.77	133.130
1016.93	131.266
1017.10	131.826
1017.26	129.762
1017.42	125.825
1017.58	126.840
1017.74	129.041
1017.90	130.059
1018.06	125.243
1018.23	124.319
1018.39	130.347
1018.55	132.443
1018.71	128.727
1018.87	128.175
1019.03	129.155
1019.20	126.601
1019.36	123.222
1019.52	122.201
1019.68	124.951
1019.84	121.503
1020.00	118.478
1020.16	118.872
1020.32	122.449
1020.49	123.162
1020.65	119.614
1020.81	118.911
1020.97	119.998
1021.13	120.301
1021.29	117.574
1021.45	118.955
1021.61	122.487
1021.77	119.789
1021.94	115.030
1022.10	114.465
1022.26	113.905
1022.42	115.462
1022.58	113.457
1022.74	112.927
1022.90	115.884
1023.06	116.383
1023.22	114.621
1023.38	115.177
1023.54	118.019
1023.71	116.289
1023.87	115.697
1024.03	118.815
1024.19	123.362
1024.35	123.569
1024.51	119.817
1024.67	117.929
1024.83	119.792
1024.99	118.362
1025.15	117.526
1025.31	115.564
1025.47	120.612
1025.63	121.646
1025.79	119.423
1025.96	118.738
1026.12	124.269
1026.28	124.654
1026.44	123.349
1026.60	124.296
1026.76	127.393
1026.92	128.238
1027.08	126.784
1027.24	125.583
1027.40	127.830
1027.56	128.407
1027.72	124.565
1027.88	130.074
1028.04	134.846
1028.20	136.126
1028.36	134.306
1028.52	131.471
1028.68	134.275
1028.84	133.145
1029.00	128.290
1029.16	122.753
1029.32	124.855
1029.48	122.568
1029.64	118.452
1029.80	116.098
1029.96	116.846
1030.12	119.815
1030.28	115.624
1030.44	111.975
1030.60	114.203
1030.76	188.100
1030.92	85.727
1031.08	93.242
1031.24	141.302
1031.40	133.135
1031.56	105.124
1031.72	49.317
1031.88	136.708
1032.04	163.444
1032.20	102.731
1032.36	68.924
1032.52	144.397
1032.68	111.252
1032.84	72.270
1033.00	71.091
1033.16	126.607
1033.32	133.194
1033.48	81.858
1033.64	78.062
1033.80	131.988
1033.96	154.369
1034.12	115.247
1034.28	74.639
1034.44	102.106
1034.60	147.141
1034.76	79.904
1034.92	150.173
1035.07	105.549
1035.23	103.035
1035.39	106.540
1035.55	107.790
1035.71	106.386
1035.87	106.678
1036.03	115.924
1036.19	116.937
1036.35	106.058