345.86	1208.30
346.08	1208.30
346.29	1208.30
346.50	1161.20
346.72	1350.98
346.93	1398.76
347.14	1436.99
347.36	1474.99
347.57	1516.63
347.78	1562.15
348.00	1565.79
348.21	1564.88
348.42	1551.68
348.64	1556.46
348.85	1556.46
349.06	1555.77
349.28	1555.77
349.49	1559.19
349.70	1559.19
349.92	1570.11
350.13	1573.07
350.34	1603.79
350.56	1599.92
350.77	1587.86
350.98	1588.09
351.20	1609.93
351.41	1599.69
351.62	1599.69
351.84	1594.46
352.05	1609.48
352.26	1596.05
352.48	1598.55
352.69	1619.49
352.90	1619.94
353.12	1607.20
353.33	1624.49
353.54	1606.29
353.75	1590.59
353.97	1599.01
354.18	1616.76
354.39	1630.41
354.61	1619.49
354.82	1615.16
355.03	1620.63
355.25	1609.93
355.46	1630.41
355.67	1641.79
355.88	1616.99
356.10	1606.52
356.31	1611.07
356.52	1602.88
356.74	1614.94
356.95	1600.37
357.16	1609.25
357.38	1605.84
357.59	1601.97
357.80	1607.43
358.01	1596.96
358.23	1562.15
358.44	1573.30
358.65	1578.07
358.87	1584.67
359.08	1569.88
359.29	1577.62
359.50	1572.16
359.72	1570.11
359.93	1576.25
360.14	1600.15
360.35	1584.22
360.57	1598.10
360.78	1598.10
360.99	1607.20
361.21	1612.43
361.42	1620.40
361.63	1621.08
361.84	1625.86
362.06	1620.85
362.27	1631.09
362.48	1597.87
362.69	1599.69
362.91	1605.84
363.12	1594.91
363.33	1601.28
363.54	1615.62
363.76	1613.80
363.97	1601.97
364.18	1611.07
364.39	1623.81
364.61	1616.76
364.82	1617.21
365.03	1616.99
365.25	1614.71
365.46	1610.16
365.67	1620.63
365.88	1638.38
366.10	1644.52
366.31	1642.24
366.52	1644.29
366.73	1652.26
366.94	1648.84
367.16	1636.33
367.37	1628.59
367.58	1609.93
367.79	1617.44
368.01	1606.75
368.22	1599.69
368.43	1602.19
368.64	1606.97
368.86	1637.46
369.07	1665.00
369.28	1678.88
369.49	1681.61
369.71	1671.83
369.92	1657.03
370.13	1658.17
370.34	1658.17
370.55	1634.73
370.77	1609.70
370.98	1604.01
371.19	1588.54
371.40	1594.46
371.62	1598.33
371.83	1609.02
372.04	1609.02
372.25	1601.06
372.46	1605.84
372.68	1594.00
372.89	1568.29
373.10	1566.92
373.31	1564.19
373.53	1563.06
373.74	1559.41
373.95	1571.93
374.16	1594.00
374.37	1612.66
374.59	1613.57
374.80	1614.94
375.01	1618.35
375.22	1609.25
375.43	1589.91
375.65	1603.10
375.86	1602.19
376.07	1599.01
376.28	1598.55
376.49	1612.43
376.71	1633.60
376.92	1634.73
377.13	1644.29
377.34	1650.21
377.55	1648.16
377.77	1643.84
377.98	1621.54
378.19	1599.46
378.40	1604.24
378.61	1592.64
378.83	1601.28
379.04	1588.77
379.25	1598.78
379.46	1601.74
379.67	1604.01
379.88	1614.03
380.10	1617.90
380.31	1593.55
380.52	1595.60
380.73	1595.60
380.94	1609.70
381.15	1625.63
381.37	1616.30
381.58	1626.09
381.79	1621.99
382.00	1633.14
382.21	1644.29
382.43	1641.33
382.64	1630.64
382.85	1647.70
383.06	1621.54
383.27	1624.27
383.48	1621.76
383.70	1627.45
383.91	1616.99
384.12	1613.34
384.33	1606.06
384.54	1604.01
384.75	1593.77
384.96	1601.06
385.18	1590.13
385.39	1575.12
385.60	1584.22
385.81	1578.98
386.02	1573.07
386.23	1581.26
386.45	1580.35
386.66	1590.59
386.87	1590.82
387.08	1588.54
387.29	1593.77
387.50	1587.18
387.71	1599.24
387.93	1605.38
388.14	1616.99
388.35	1606.29
388.56	1599.69
388.77	1611.30
388.98	1625.40
389.19	1626.31
389.40	1619.03
389.62	1607.66
389.83	1640.88
390.04	1616.76
390.25	1629.73
390.46	1626.31
390.67	1620.17
390.88	1615.16
391.10	1611.07
391.31	1597.19
391.52	1587.18
391.73	1557.82
391.94	1559.87
392.15	1563.06
392.36	1553.95
392.57	1550.08
392.78	1569.65
393.00	1569.20
393.21	1587.18
393.42	1586.72
393.63	1579.89
393.84	1581.94
394.05	1579.67
394.26	1579.21
394.47	1563.51
394.69	1545.08
394.90	1551.91
395.11	1549.40
395.32	1568.52
395.53	1566.24
395.74	1574.66
395.95	1560.10
396.16	1572.61
396.37	1587.86
396.58	1583.99
396.80	1566.47
397.01	1572.16
397.22	1580.58
397.43	1583.31
397.64	1586.27
397.85	1598.78
398.06	1583.53
398.27	1577.16
398.48	1580.80
398.69	1581.26
398.90	1579.89
399.12	1555.77
399.33	1553.04
399.54	1550.54
399.75	1551.91
399.96	1554.18
400.17	1558.73
400.38	1560.32
400.59	1571.70
400.80	1575.80
401.01	1594.00
401.22	1599.69
401.43	1592.41
401.64	1591.73
401.86	1582.62
402.07	1579.44
402.28	1577.85
402.49	1583.31
402.70	1565.10
402.91	1548.72
403.12	1558.50
403.33	1571.47
403.54	1568.97
403.75	1571.70
403.96	1566.47
404.17	1559.19
404.38	1557.37
404.59	1554.18
404.80	1551.68
405.01	1551.45
405.23	1543.03
405.44	1535.75
405.65	1535.75
405.86	1548.04
406.07	1543.71
406.28	1537.34
406.49	1555.77
406.70	1556.23
406.91	1546.67
407.12	1536.43
407.33	1544.40
407.54	1542.58
407.75	1533.47
407.96	1540.98
408.17	1535.52
408.38	1524.60
408.59	1537.34
408.80	1524.14
409.01	1528.24
409.22	1537.11
409.43	1543.26
409.64	1535.07
409.85	1527.56
410.07	1538.93
410.28	1553.27
410.49	1551.45
410.70	1567.61
410.91	1572.84
411.12	1556.91
411.33	1548.49
411.54	1555.77
411.75	1561.01
411.96	1557.82
412.17	1540.98
412.38	1532.56
412.59	1525.28
412.80	1527.10
413.01	1540.98
413.22	1557.37
413.43	1560.10
413.64	1572.38
413.85	1566.24
414.06	1575.57
414.27	1575.57
414.48	1579.89
414.69	1565.56
414.90	1547.35
415.11	1528.01
415.32	1545.08
415.53	1526.65
415.74	1527.10
415.95	1520.73
416.16	1537.34
416.37	1518.00
416.58	1533.93
416.79	1544.85
417.00	1541.89
417.21	1521.41
417.42	1516.41
417.63	1511.40
417.84	1513.68
418.05	1493.88
418.26	1504.35
418.47	1495.47
418.68	1500.71
418.89	1506.85
419.10	1499.57
419.31	1514.13
419.52	1520.96
419.73	1511.63
419.94	1532.11
420.15	1529.61
420.36	1549.63
420.57	1547.58
420.78	1543.03
420.99	1533.93
421.20	1524.14
421.41	1523.69
421.61	1530.74
421.82	1509.58
422.03	1513.90
422.24	1489.78
422.45	1480.45
422.66	1489.78
422.87	1496.15
423.08	1484.78
423.29	1476.81
423.50	1474.08
423.71	1485.23
423.92	1482.27
424.13	1472.26
424.34	1469.30
424.55	1446.32
424.76	1459.97
424.97	1469.30
425.18	1473.85
425.39	1468.17
425.60	1469.30
425.81	1468.39
426.02	1474.99
426.23	1484.09
426.43	1502.53
426.64	1489.33
426.85	1485.46
427.06	1483.41
427.27	1487.51
427.48	1471.58
427.69	1475.68
427.90	1480.23
428.11	1460.88
428.32	1450.19
428.53	1454.29
428.74	1463.84
428.95	1472.72
429.16	1468.85
429.37	1482.27
429.58	1474.54
429.78	1464.98
429.99	1484.09
430.20	1497.29
430.41	1505.26
430.62	1501.84
430.83	1495.47
431.04	1506.39
431.25	1504.12
431.46	1512.54
431.67	1525.74
431.88	1523.23
432.09	1521.64
432.30	1514.59
432.50	1512.08
432.71	1509.13
432.92	1513.45
433.13	1511.86
433.34	1506.39
433.55	1507.30
433.76	1505.48
433.97	1506.85
434.18	1497.52
434.39	1507.30
434.59	1506.17
434.80	1491.38
435.01	1488.87
435.22	1498.89
435.43	1493.20
435.64	1495.93
435.85	1500.71
436.06	1505.71
436.27	1512.54
436.48	1510.04
436.68	1510.72
436.89	1501.62
437.10	1486.14
437.31	1495.47
437.52	1508.22
437.73	1503.66
437.94	1519.14
438.15	1497.75
438.36	1499.80
438.56	1490.69
438.77	1488.87
438.98	1502.98
439.19	1492.51
439.40	1476.13
439.61	1472.72
439.82	1463.62
440.03	1470.21
440.23	1486.37
440.44	1487.05
440.65	1507.08
440.86	1494.11
441.07	1499.57
441.28	1497.75
441.49	1503.44
441.70	1500.48
441.90	1503.21
442.11	1493.42
442.32	1505.71
442.53	1496.84
442.74	1505.26
442.95	1497.75
443.16	1492.74
443.36	1491.83
443.57	1478.18
443.78	1485.92
443.99	1496.61
444.20	1494.56
444.41	1506.85
444.61	1509.58
444.82	1517.32
445.03	1522.78
445.24	1520.28
445.45	1538.02
445.66	1522.55
445.87	1507.08
446.07	1508.67
446.28	1499.57
446.49	1494.11
446.70	1491.38
446.91	1497.75
447.12	1491.60
447.32	1483.41
447.53	1488.42
447.74	1485.46
447.95	1498.20
448.16	1495.02
448.37	1504.80
448.57	1487.51
448.78	1481.82
448.99	1488.19
449.20	1501.84
449.41	1495.47
449.62	1499.57
449.82	1478.18
450.03	1479.77
450.24	1469.08
450.45	1484.55
450.66	1491.15
450.86	1482.73
451.07	1478.18
451.28	1474.54
451.49	1479.09
451.70	1486.60
451.90	1497.52
452.11	1514.13
452.32	1514.59
452.53	1517.77
452.74	1530.97
452.95	1516.63
453.15	1532.34
453.36	1537.57
453.57	1549.17
453.78	1540.30
453.99	1538.71
454.19	1539.84
454.40	1534.84
454.61	1522.10
454.82	1529.61
455.02	1526.42
455.23	1520.28
455.44	1507.76
455.65	1508.44
455.86	1489.10
456.06	1485.46
456.27	1488.19
456.48	1493.20
456.69	1482.96
456.90	1489.10
457.10	1498.20
457.31	1490.24
457.52	1489.10
457.73	1512.31
457.93	1523.01
458.14	1514.36
458.35	1508.90
458.56	1516.86
458.77	1519.14
458.97	1501.84
459.18	1508.90
459.39	1509.35
459.60	1498.20
459.80	1491.60
460.01	1495.93
460.22	1515.72
460.43	1523.01
460.63	1520.05
460.84	1529.61
461.05	1533.93
461.26	1532.34
461.46	1526.42
461.67	1518.91
461.88	1525.96
462.09	1510.49
462.29	1507.76
462.50	1502.75
462.71	1495.02
462.92	1512.54
463.12	1513.22
463.33	1527.33
463.54	1544.62
463.75	1542.35
463.95	1554.64
464.16	1562.83
464.37	1565.56
464.58	1580.12
464.78	1571.47
464.99	1580.35
465.20	1572.16
465.41	1563.06
465.61	1553.50
465.82	1544.17
466.03	1529.83
466.24	1531.88
466.44	1518.68
466.65	1511.86
466.86	1499.34
467.06	1491.15
467.27	1487.05
467.48	1503.66
467.69	1502.98
467.89	1512.31
468.10	1515.27
468.31	1511.40
468.52	1512.99
468.72	1519.82
468.93	1531.88
469.14	1542.35
469.34	1533.02
469.55	1535.52
469.76	1550.31
469.97	1540.07
470.17	1542.80
470.38	1543.94
470.59	1548.49
470.79	1563.74
471.00	1559.41
471.21	1560.32
471.41	1553.95
471.62	1541.89
471.83	1545.53
472.04	1538.71
472.24	1534.61
472.45	1526.19
472.66	1513.45
472.86	1521.19
473.07	1526.19
473.28	1524.60
473.48	1533.93
473.69	1536.66
473.90	1550.08
474.10	1554.64
474.31	1558.28
474.52	1542.58
474.73	1535.52
474.93	1556.00
475.14	1564.42
475.35	1556.68
475.55	1564.65
475.76	1570.11
475.97	1563.28
476.17	1571.47
476.38	1581.03
476.59	1603.33
476.79	1583.76
477.00	1596.96
477.21	1591.95
477.41	1590.36
477.62	1601.74
477.83	1609.02
478.03	1605.84
478.24	1606.97
478.45	1589.45
478.65	1591.95
478.86	1582.62
479.07	1597.42
479.27	1602.65
479.48	1601.51
479.69	1595.14
479.89	1598.33
480.10	1603.10
480.31	1619.49
480.51	1622.22
480.72	1627.91
480.92	1628.14
481.13	1629.05
481.34	1629.50
481.54	1641.56
481.75	1643.15
481.96	1642.02
482.16	1633.37
482.37	1629.96
482.58	1636.55
482.78	1634.05
482.99	1628.59
483.20	1613.57
483.40	1603.10
483.61	1598.10
483.81	1593.77
484.02	1597.87
484.23	1601.06
484.43	1604.92
484.64	1598.78
484.85	1591.73
485.05	1596.05
485.26	1604.01
485.46	1614.71
485.67	1624.04
485.88	1606.06
486.08	1594.69
486.29	1608.34
486.50	1611.75
486.70	1614.71
486.91	1609.70
487.11	1632.00
487.32	1619.72
487.53	1622.45
487.73	1638.38
487.94	1645.88
488.14	1613.80
488.35	1609.25
488.56	1627.91
488.76	1637.92
488.97	1619.49
489.17	1630.87
489.38	1626.54
489.59	1623.81
489.79	1622.90
490.00	1630.64
490.20	1637.92
490.41	1638.83
490.62	1640.88
490.82	1649.53
491.03	1649.53
491.23	1652.94
491.44	1650.66
491.65	1658.17
491.85	1652.03
492.06	1652.03
492.26	1650.21
492.47	1654.76
492.68	1659.54
492.88	1660.22
493.09	1675.92
493.29	1682.98
493.50	1673.42
493.70	1685.93
493.91	1690.03
494.12	1688.44
494.32	1669.09
494.53	1662.50
494.73	1668.64
494.94	1663.86
495.14	1661.59
495.35	1661.36
495.56	1659.99
495.76	1659.08
495.97	1662.72
496.17	1673.65
496.38	1669.55
496.58	1663.41
496.79	1660.68
496.99	1668.18
497.20	1687.53
497.41	1689.35
497.61	1689.57
497.82	1668.41
498.02	1666.82
498.23	1670.46
498.43	1673.42
498.64	1661.81
498.84	1656.35
499.05	1638.15
499.25	1635.42
499.46	1643.84
499.67	1652.71
499.87	1669.78
500.08	1655.67
500.28	1660.22
500.49	1660.90
500.69	1660.45
500.90	1660.22
501.10	1674.78
501.31	1667.73
501.51	1675.47
501.72	1659.76
501.92	1666.82
502.13	1651.80
502.33	1664.32
502.54	1674.33
502.75	1683.43
502.95	1671.83
503.16	1680.02
503.36	1676.83
503.57	1690.03
503.77	1702.09
503.98	1716.20
504.18	1721.43
504.39	1708.46
504.59	1691.39
504.80	1708.01
505.00	1697.31
505.21	1697.77
505.41	1711.87
505.62	1712.56
505.82	1710.05
506.03	1707.32
506.23	1713.47
506.44	1734.86
506.64	1715.52
506.85	1718.02
507.05	1720.52
507.26	1689.12
507.46	1681.15
507.67	1670.69
507.87	1665.68
508.08	1664.77
508.28	1659.54
508.49	1650.44
508.69	1651.80
508.90	1656.12
509.10	1663.18
509.31	1657.72
509.51	1659.31
509.72	1650.89
509.92	1656.58
510.13	1657.72
510.33	1652.71
510.54	1652.71
510.74	1645.20
510.94	1637.46
511.15	1645.88
511.35	1668.41
511.56	1681.38
511.76	1673.65
511.97	1684.11
512.17	1692.53
512.38	1691.39
512.58	1686.39
512.79	1702.09
512.99	1701.63
513.20	1690.26
513.40	1683.20
513.61	1690.94
513.81	1691.39
514.01	1697.99
514.22	1695.95
514.42	1712.78
514.63	1716.65
514.83	1720.29
515.04	1723.71
515.24	1728.03
515.45	1718.93
515.65	1704.14
515.86	1714.38
516.06	1728.03
516.26	1723.25
516.47	1723.93
516.67	1721.20
516.88	1710.05
517.08	1713.92
517.29	1727.58
517.49	1722.34
517.69	1727.80
517.90	1719.16
518.10	1715.29
518.31	1706.41
518.51	1717.34
518.72	1720.75
518.92	1719.38
519.12	1709.83
519.33	1735.77
519.53	1718.47
519.74	1718.93
519.94	1715.74
520.15	1720.98
520.35	1720.52
520.55	1718.02
520.76	1727.12
520.96	1723.93
521.17	1718.93
521.37	1736.45
521.58	1744.87
521.78	1743.50
521.98	1742.14
522.19	1744.41
522.39	1741.46
522.60	1738.50
522.80	1754.20
523.00	1738.27
523.21	1727.80
523.41	1723.48
523.62	1735.31
523.82	1747.60
524.02	1737.59
524.23	1744.87
524.43	1735.99
524.64	1718.93
524.84	1723.25
525.04	1727.80
525.25	1730.99
525.45	1716.20
525.65	1709.83
525.86	1713.01
526.06	1725.30
526.27	1719.84
526.47	1727.58
526.67	1732.13
526.88	1728.94
527.08	1735.31
527.29	1738.50
527.49	1733.49
527.69	1728.71
527.90	1718.93
528.10	1722.11
528.30	1729.40
528.51	1739.64
528.71	1732.35
528.92	1717.11
529.12	1718.02
529.32	1716.65
529.53	1719.16
529.73	1726.67
529.93	1734.63
530.14	1730.53
530.34	1713.24
530.54	1732.58
530.75	1734.17
530.95	1739.41
531.15	1749.19
531.36	1746.01
531.56	1767.62
531.77	1776.27
531.97	1762.39
532.17	1772.63
532.38	1763.76
532.58	1758.52
532.78	1773.77
532.99	1772.18
533.19	1771.95
533.39	1744.19
533.60	1747.60
533.80	1749.19
534.00	1755.34
534.21	1746.46
534.41	1748.06
534.61	1723.02
534.82	1721.20
535.02	1725.30
535.22	1715.29
535.43	1697.08
535.63	1709.37
535.83	1704.59
536.04	1714.83
536.24	1731.67
536.44	1734.17
536.65	1733.04
536.85	1737.13
537.05	1736.91
537.26	1739.41
537.46	1737.36
537.66	1728.03
537.86	1728.49
538.07	1718.47
538.27	1720.98
538.47	1729.17
538.68	1721.66
538.88	1733.26
539.08	1729.17
539.29	1731.67
539.49	1739.41
539.69	1742.14
539.90	1749.42
540.10	1767.40
540.30	1767.85
540.50	1766.26
540.71	1756.70
540.91	1768.53
541.11	1754.88
541.32	1760.57
541.52	1752.38
541.72	1756.93
541.92	1739.18
542.13	1729.62
542.33	1740.55
542.53	1764.44
542.74	1755.79
542.94	1776.04
543.14	1774.00
543.34	1776.73
543.55	1774.22
543.75	1786.97
543.95	1793.79
544.16	1786.51
544.36	1772.18
544.56	1776.04
544.76	1766.71
544.97	1766.71
545.17	1768.76
545.37	1753.74
545.57	1737.59
545.78	1728.49
545.98	1733.04
546.18	1732.13
546.39	1735.08
546.59	1728.49
546.79	1730.76
546.99	1733.26
547.20	1741.00
547.40	1764.89
547.60	1771.04
547.80	1771.49
548.01	1771.72
548.21	1767.40
548.41	1774.45
548.61	1779.91
548.82	1786.97
549.02	1784.69
549.22	1769.67
549.42	1778.32
549.63	1775.36
549.83	1773.54
550.03	1764.67
550.23	1776.04
550.43	1754.43
550.64	1744.41
550.84	1750.10
551.04	1746.01
551.24	1735.31
551.45	1741.46
551.65	1746.46
551.85	1764.67
552.05	1821.10
552.26	1843.63
552.46	1839.30
552.66	1832.93
552.86	1834.98
553.06	1836.80
553.27	1829.06
553.47	1832.02
553.67	1829.29
553.87	1760.34
554.07	1741.23
554.28	1737.36
554.48	1742.82
554.68	1743.73
554.88	1744.19
555.09	1747.37
555.29	1751.70
555.49	1744.41
555.69	1733.04
555.89	1734.63
556.10	1744.87
556.30	1740.77
556.50	1749.88
556.70	1740.09
556.90	1750.10
557.11	1748.06
557.31	1756.47
557.51	1766.94
557.71	1776.73
557.91	1771.27
558.11	1765.80
558.32	1756.70
558.52	1769.67
558.72	1764.89
558.92	1758.98
559.12	1759.66
559.33	1765.35
559.53	1771.72
559.73	1782.19
559.93	1798.34
560.13	1799.25
560.33	1808.36
560.54	1799.48
560.74	1813.82
560.94	1808.81
561.14	1805.17
561.34	1789.24
561.54	1781.51
561.75	1767.17
561.95	1771.72
562.15	1753.74
562.35	1758.52
562.55	1728.49
562.75	1727.80
562.96	1732.81
563.16	1746.46
563.36	1757.61
563.56	1767.17
563.76	1770.81
563.96	1780.37
564.17	1782.42
564.37	1794.48
564.57	1799.71
564.77	1801.53
564.97	1800.39
565.17	1805.63
565.37	1800.39
565.58	1793.57
565.78	1784.01
565.98	1791.52
566.18	1794.48
566.38	1784.01
566.58	1774.22
566.78	1759.89
566.98	1743.28
567.19	1746.01
567.39	1756.25
567.59	1766.26
567.79	1759.43
567.99	1756.25
568.19	1758.29
568.39	1763.07
568.59	1776.95
568.80	1787.88
569.00	1796.52
569.20	1786.06
569.40	1790.61
569.60	1783.10
569.80	1790.15
570.00	1799.48
570.20	1793.34
570.41	1797.21
570.61	1793.34
570.81	1777.41
571.01	1786.51
571.21	1786.51
571.41	1803.81
571.61	1805.40
571.81	1799.03
572.01	1805.85
572.21	1803.58
572.42	1804.49
572.62	1812.68
572.82	1816.09
573.02	1821.33
573.22	1812.91
573.42	1806.54
573.62	1808.13
573.82	1818.14
574.02	1827.02
574.22	1838.39
574.42	1843.40
574.63	1845.67
574.83	1845.22
575.03	1860.47
575.23	1871.62
575.43	1886.18
575.63	1879.13
575.83	1867.52
576.03	1858.42
576.23	1852.05
576.43	1842.72
576.63	1829.06
576.83	1811.77
577.03	1794.93
577.23	1774.22
577.44	1771.95
577.64	1781.51
577.84	1782.19
578.04	1786.28
578.24	1784.92
578.44	1794.02
578.64	1797.66
578.84	1787.88
579.04	1808.36
579.24	1812.45
579.44	1811.54
579.64	1807.22
579.84	1804.03
580.04	1805.17
580.24	1793.34
580.44	1800.85
580.64	1822.69
580.84	1809.72
581.05	1811.31
581.25	1804.03
581.45	1810.18
581.65	1815.64
581.85	1812.45
582.05	1820.19
582.25	1814.73
582.45	1824.29
582.65	1833.84
582.85	1834.07
583.05	1832.48
583.25	1828.84
583.45	1844.54
583.65	1836.80
583.85	1834.52
584.05	1820.87
584.25	1805.17
584.45	1799.48
584.65	1800.16
584.85	1793.34
585.05	1799.03
585.25	1778.09
585.45	1793.79
585.65	1789.70
585.85	1787.88
586.05	1801.76
586.25	1804.49
586.45	1793.57
586.65	1802.67
586.85	1794.25
587.05	1799.71
587.25	1785.83
587.45	1782.87
587.65	1794.93
587.85	1797.66
588.05	1785.15
588.25	1786.28
588.45	1780.60
588.65	1786.51
588.85	1790.83
589.05	1801.30
589.25	1807.67
589.45	1816.55
589.65	1800.62
589.85	1809.27
590.05	1823.83
590.25	1826.56
590.45	1821.33
590.65	1814.96
590.85	1809.49
591.05	1821.78
591.25	1822.92
591.45	1827.93
591.65	1834.30
591.85	1836.80
592.05	1839.76
592.25	1846.13
592.45	1847.50
592.65	1848.86
592.85	1841.35
593.05	1837.94
593.25	1839.76
593.45	1828.15
593.64	1826.79
593.84	1819.28
594.04	1814.50
594.24	1820.19
594.44	1832.93
594.64	1838.17
594.84	1841.12
595.04	1839.76
595.24	1837.26
595.44	1824.29
595.64	1831.57
595.84	1825.42
596.04	1814.27
596.24	1799.25
596.44	1793.34
596.64	1769.90
596.84	1785.37
597.04	1791.75
597.24	1799.48
597.43	1791.06
597.63	1800.39
597.83	1797.66
598.03	1825.42
598.23	1832.93
598.43	1852.50
598.63	1839.99
598.83	1846.81
599.03	1851.36
599.23	1873.44
599.43	1878.67
599.63	1885.95
599.83	1870.48
600.02	1849.77
600.22	1848.63
600.42	1858.42
600.62	1850.45
600.82	1849.09
601.02	1855.91
601.22	1839.76
601.42	1845.45
601.62	1828.84
601.82	1838.62
602.02	1827.24
602.21	1817.91
602.41	1819.96
602.61	1835.66
602.81	1823.15
603.01	1827.93
603.21	1826.79
603.41	1835.21
603.61	1837.48
603.81	1839.30
604.01	1831.79
604.20	1821.78
604.40	1802.67
604.60	1794.48
604.80	1797.66
605.00	1798.80
605.20	1803.58
605.40	1812.91
605.60	1816.09
605.79	1821.78
605.99	1831.34
606.19	1835.21
606.39	1848.18
606.59	1852.27
606.79	1843.63
606.99	1834.98
607.19	1820.42
607.38	1839.30
607.58	1837.94
607.78	1842.03
607.98	1838.17
608.18	1836.12
608.38	1839.99
608.58	1850.68
608.77	1872.07
608.97	1875.94
609.17	1875.26
609.37	1889.14
609.57	1903.93
609.77	1914.40
609.97	1900.74
610.16	1908.48
610.36	1908.25
610.56	1902.34
610.76	1901.65
610.96	1883.90
611.16	1871.62
611.35	1852.27
611.55	1832.25
611.75	1842.03
611.95	1820.87
612.15	1819.51
612.35	1818.37
612.55	1826.33
612.74	1828.61
612.94	1821.33
613.14	1818.37
613.34	1822.46
613.54	1823.15
613.73	1822.46
613.93	1808.13
614.13	1797.21
614.33	1786.06
614.53	1781.96
614.73	1780.14
614.92	1779.46
615.12	1784.46
615.32	1774.68
615.52	1783.10
615.72	1788.33
615.91	1796.07
616.11	1799.48
616.31	1810.86
616.51	1815.64
616.71	1818.14
616.90	1832.70
617.10	1850.45
617.30	1849.54
617.50	1857.96
617.70	1867.75
617.89	1875.03
618.09	1876.39
618.29	1887.54
618.49	1898.24
618.69	1879.35
618.88	1864.79
619.08	1864.56
619.28	1867.98
619.48	1866.84
619.68	1866.84
619.87	1868.43
620.07	1870.71
620.27	1860.69
620.47	1875.71
620.66	1882.08
620.86	1894.37
621.06	1900.52
621.26	1889.36
621.46	1882.99
621.65	1874.80
621.85	1858.42
622.05	1855.00
622.25	1846.59
622.44	1845.22
622.64	1836.12
622.84	1812.91
623.04	1818.82
623.23	1815.87
623.43	1808.36
623.63	1825.20
623.83	1835.21
624.02	1850.00
624.22	1863.65
624.42	1855.69
624.62	1867.52
624.81	1857.74
625.01	1872.98
625.21	1882.31
625.41	1868.20
625.60	1861.38
625.80	1844.99
626.00	1829.97
626.20	1848.86
626.39	1852.27
626.59	1863.20
626.79	1848.86
626.99	1849.09
627.18	1866.38
627.38	1877.76
627.58	1889.59
627.78	1882.31
627.97	1877.30
628.17	1873.44
628.37	1860.24
628.56	1870.25
628.76	1872.07
628.96	1862.51
629.16	1852.96
629.35	1834.30
629.55	1852.73
629.75	1842.72
629.94	1858.87
630.14	1864.79
630.34	1862.29
630.54	1860.01
630.73	1852.50
630.93	1852.27
631.13	1854.78
631.32	1841.81
631.52	1847.72
631.72	1825.20
631.92	1828.15
632.11	1832.70
632.31	1839.99
632.51	1831.34
632.70	1843.85
632.90	1854.32
633.10	1856.37
633.29	1857.74
633.49	1871.39
633.69	1880.72
633.88	1875.71
634.08	1875.48
634.28	1892.32
634.48	1891.41
634.67	1895.05
634.87	1901.65
635.07	1899.60
635.26	1902.34
635.46	1884.13
635.66	1883.90
635.85	1888.91
636.05	1876.85
636.25	1873.21
636.44	1855.91
636.64	1848.41
636.84	1853.18
637.03	1828.61
637.23	1841.58
637.43	1843.85
637.62	1824.06
637.82	1835.89
638.02	1839.08
638.21	1848.86
638.41	1853.41
638.61	1850.23
638.80	1866.61
639.00	1859.33
639.19	1860.24
639.39	1860.01
639.59	1856.37
639.78	1838.62
639.98	1845.90
640.18	1843.40
640.37	1830.43
640.57	1826.56
640.77	1827.24
640.96	1832.02
641.16	1851.36
641.36	1846.81
641.55	1852.05
641.75	1854.32
641.94	1849.32
642.14	1858.19
642.34	1853.87
642.53	1850.68
642.73	1849.32
642.93	1840.90
643.12	1844.76
643.32	1860.92
643.51	1865.47
643.71	1880.49
643.91	1880.72
644.10	1890.05
644.30	1904.84
644.49	1901.65
644.69	1897.33
644.89	1895.96
645.08	1889.14
645.28	1882.77
645.47	1869.34
645.67	1873.89
645.87	1859.10
646.06	1857.74
646.26	1849.54
646.46	1849.32
646.65	1849.54
646.85	1839.08
647.04	1830.20
647.24	1823.60
647.43	1824.51
647.63	1835.89
647.83	1827.93
648.02	1823.83
648.22	1832.48
648.41	1832.70
648.61	1836.35
648.81	1829.06
649.00	1829.06
649.20	1828.61
649.39	1854.09
649.59	1842.49
649.78	1842.26
649.98	1829.97
650.18	1826.56
650.37	1822.69
650.57	1811.54
650.76	1821.55
650.96	1822.69
651.15	1792.20
651.35	1798.34
651.55	1799.25
651.74	1812.22
651.94	1816.78
652.13	1831.57
652.33	1842.26
652.52	1841.81
652.72	1832.02
652.91	1834.98
653.11	1839.53
653.31	1830.20
653.50	1819.05
653.70	1826.33
653.89	1822.46
654.09	1844.76
654.28	1838.62
654.48	1837.48
654.67	1831.57
654.87	1841.58
655.06	1854.78
655.26	1866.15
655.45	1852.27
655.65	1852.27
655.85	1835.21
656.04	1860.01
656.24	1861.38
656.43	1868.20
656.63	1857.51
656.82	1855.69
657.02	1865.47
657.21	1860.24
657.41	1855.91
657.60	1865.93
657.80	1834.30
657.99	1832.02
658.19	1813.36
658.38	1818.60
658.58	1818.60
658.77	1802.67
658.97	1824.29
659.16	1832.70
659.36	1826.33
659.55	1833.39
659.75	1827.70
659.94	1845.90
660.14	1832.93
660.33	1833.39
660.53	1820.64
660.72	1812.68
660.92	1803.35
661.11	1806.54
661.31	1811.54
661.50	1809.49
661.70	1802.44
661.89	1798.57
662.09	1807.90
662.28	1818.14
662.48	1818.14
662.67	1822.46
662.87	1835.66
663.06	1833.39
663.26	1847.95
663.45	1864.33
663.65	1876.62
663.84	1863.20
664.04	1846.59
664.23	1843.40
664.43	1842.49
664.62	1826.11
664.81	1832.48
665.01	1839.08
665.20	1840.90
665.40	1848.86
665.59	1861.60
665.79	1879.13
665.98	1878.67
666.18	1868.89
666.37	1974.24
666.57	1972.65
666.76	1964.91
666.95	1968.78
667.15	1961.95
667.34	1969.92
667.54	1978.11
667.73	1983.12
667.93	1985.16
668.12	1865.70
668.32	1860.69
668.51	1861.83
668.70	1857.51
668.90	1855.00
669.09	1837.94
669.29	1837.26
669.48	1838.85
669.68	1829.97
669.87	1822.46
670.06	1817.69
670.26	1811.77
670.45	1813.36
670.65	1816.55
670.84	1828.84
671.04	1814.73
671.23	1815.87
671.42	1832.02
671.62	1857.96
671.81	1862.51
672.01	1867.52
672.20	1859.33
672.40	1867.75
672.59	1874.80
672.78	1894.60
672.98	1900.97
673.17	1893.92
673.37	1887.32
673.56	1886.41
673.75	1883.68
673.95	1890.05
674.14	1890.96
674.34	1888.68
674.53	1879.35
674.72	1877.08
674.92	1881.40
675.11	1888.91
675.30	1897.78
675.50	1905.29
675.69	1895.51
675.89	1889.14
676.08	1887.32
676.27	1873.44
676.47	1853.64
676.66	1842.72
676.86	1835.89
677.05	1824.29
677.24	1826.56
677.44	1813.13
677.63	1797.43
677.82	1791.29
678.02	1795.16
678.21	1789.92
678.41	1816.55
678.60	1804.26
678.79	1806.08
678.99	1788.10
679.18	1794.70
679.37	1806.54
679.57	1798.34
679.76	1796.52
679.95	1808.58
680.15	1788.33
680.34	1796.98
680.53	1799.48
680.73	1806.99
680.92	1806.54
681.12	1807.67
681.31	1816.78
681.50	1813.59
681.70	1823.37
681.89	1820.19
682.08	1826.33
682.28	1804.49
682.47	1787.42
682.66	1795.16
682.86	1790.15
683.05	1783.55
683.24	1785.83
683.44	1780.60
683.63	1784.92
683.82	1783.55
684.02	1809.95
684.21	1837.94
684.40	1836.80
684.59	1836.80
684.79	1841.12
684.98	1840.21
685.17	1836.80
685.37	1846.81
685.56	1847.72
685.75	1850.23
685.95	1842.26
686.14	1842.94
686.33	1855.69
686.53	1859.78
686.72	1883.22
686.91	1880.72
687.11	1860.01
687.30	1849.32
687.49	1849.77
687.68	1843.85
687.88	1847.72
688.07	1846.36
688.26	1837.26
688.46	1821.78
688.65	1841.12
688.84	1859.78
689.03	1867.06
689.23	1863.20
689.42	1867.75
689.61	1856.83
689.81	1855.91
690.00	1853.18
690.19	1857.51
690.38	1838.62
690.58	1829.75
690.77	1835.66
690.96	1837.03
691.16	1842.72
691.35	1852.27
691.54	1846.59
691.73	1864.56
691.93	1878.90
692.12	1888.23
692.31	1906.43
692.50	1893.23
692.70	1893.46
692.89	1897.10
693.08	1888.00
693.27	1878.90
693.47	1869.57
693.66	1852.50
693.85	1843.40
694.04	1822.69
694.24	1819.96
694.43	1812.00
694.62	1803.12
694.81	1799.94
695.01	1814.73
695.20	1821.10
695.39	1808.36
695.58	1808.36
695.78	1805.40
695.97	1810.63
696.16	1805.17
696.35	1811.31
696.55	1820.42
696.74	1810.63
696.93	1799.94
697.12	1812.68
697.31	1820.42
697.51	1830.20
697.70	1834.07
697.89	1844.99
698.08	1833.39
698.28	1825.65
698.47	1821.78
698.66	1816.09
698.85	1811.77
699.04	1801.76
699.24	1795.16
699.43	1806.31
699.62	1797.66
699.81	1801.30
700.00	1811.09
700.20	1816.55
700.39	1820.64
700.58	1814.27
700.77	1814.27
700.96	1815.18
701.16	1810.86
701.35	1809.72
701.54	1790.61
701.73	1791.52
701.92	1784.92
702.12	1778.32
702.31	1776.73
702.50	1783.10
702.69	1787.19
702.88	1776.27
703.07	1784.01
703.27	1822.69
703.46	1823.15
703.65	1825.20
703.84	1827.93
704.03	1826.11
704.23	1819.51
704.42	1815.64
704.61	1813.82
704.80	1823.15
704.99	1800.62
705.18	1788.56
705.38	1776.27
705.57	1768.76
705.76	1776.50
705.95	1780.82
706.14	1768.53
706.33	1757.84
706.52	1738.27
706.72	1735.08
706.91	1745.78
707.10	1751.92
707.29	1767.40
707.48	1780.60
707.67	1787.88
707.87	1797.89
708.06	1811.31
708.25	1827.02
708.44	1842.72
708.63	1839.08
708.82	1840.90
709.01	1841.12
709.20	1830.66
709.40	1821.10
709.59	1828.15
709.78	1837.26
709.97	1829.06
710.16	1819.73
710.35	1827.47
710.54	1841.58
710.74	1830.66
710.93	1814.73
711.12	1815.64
711.31	1804.72
711.50	1792.88
711.69	1795.61
711.88	1786.06
712.07	1783.55
712.26	1781.73
712.46	1773.77
712.65	1783.10
712.84	1780.37
713.03	1786.97
713.22	1784.24
713.41	1783.33
713.60	1785.15
713.79	1784.69
713.98	1765.80
714.17	1779.46
714.37	1787.42
714.56	1809.04
714.75	1808.36
714.94	1811.77
715.13	1808.36
715.32	1810.86
715.51	1802.90
715.70	1820.64
715.89	1816.55
716.08	1800.62
716.27	1795.39
716.46	1781.51
716.66	1783.10
716.85	1769.44
717.04	1761.48
717.23	1756.47
717.42	1736.68
717.61	1733.95
717.80	1741.91
717.99	1738.04
718.18	1761.48
718.37	1756.70
718.56	1756.02
718.75	1759.43
718.94	1767.40
719.13	1779.23
719.32	1784.92
719.52	1798.12
719.71	1793.57
719.90	1778.55
720.09	1788.56
720.28	1795.84
720.47	1789.92
720.66	1785.83
720.85	1796.75
721.04	1788.56
721.23	1779.23
721.42	1762.16
721.61	1752.83
721.80	1745.78
721.99	1756.70
722.18	1765.58
722.37	1762.85
722.56	1738.73
722.75	1733.04
722.94	1729.17
723.13	1750.10
723.32	1765.58
723.51	1767.62
723.70	1775.13
723.89	1785.37
724.08	1784.24
724.27	1794.93
724.46	1792.66
724.65	1786.28
724.84	1770.36
725.03	1782.87
725.22	1786.06
725.41	1768.31
725.60	1767.17
725.79	1774.00
725.98	1765.12
726.17	1782.87
726.36	1781.51
726.55	1784.92
726.74	1756.47
726.93	1743.73
727.12	1749.19
727.31	1746.92
727.50	1745.10
727.69	1765.12
727.88	1759.21
728.07	1764.21
728.26	1744.41
728.45	1747.60
728.64	1756.47
728.83	1764.89
729.02	1761.48
729.21	1747.37
729.40	1717.79
729.59	1706.41
729.78	1692.76
729.97	1704.82
730.16	1714.38
730.35	1713.92
730.54	1694.13
730.73	1677.51
730.92	1691.85
731.11	1706.87
731.30	1703.45
731.49	1722.57
731.68	1721.89
731.87	1730.53
732.06	1728.03
732.25	1733.04
732.44	1748.51
732.63	1740.55
732.82	1732.58
733.00	1742.59
733.19	1729.17
733.38	1717.34
733.57	1697.54
733.76	1710.28
733.95	1703.91
734.14	1700.72
734.33	1703.68
734.52	1705.28
734.71	1710.05
734.90	1728.26
735.09	1744.19
735.28	1745.32
735.47	1734.86
735.66	1739.64
735.85	1725.98
736.03	1724.39
736.22	1714.38
736.41	1709.60
736.60	1699.59
736.79	1689.80
736.98	1695.72
737.17	1691.39
737.36	1683.89
737.55	1692.08
737.74	1695.95
737.93	1711.87
738.11	1708.01
738.30	1702.32
738.49	1706.19
738.68	1695.72
738.87	1687.75
739.06	1689.35
739.25	1691.17
739.44	1696.17
739.63	1697.99
739.82	1696.40
740.00	1697.08
740.19	1712.56
740.38	1714.83
740.57	1709.60
740.76	1720.98
740.95	1722.11
741.14	1708.69
741.33	1710.05
741.52	1728.26
741.70	1748.51
741.89	1743.96
742.08	1755.79
742.27	1754.65
742.46	1756.47
742.65	1753.97
742.84	1755.56
743.03	1771.04
743.21	1761.94
743.40	1739.86
743.59	1737.13
743.78	1733.04
743.97	1751.47
744.16	1741.46
744.35	1737.82
744.53	1733.26
744.72	1718.25
744.91	1711.65
745.10	1721.89
745.29	1704.82
745.48	1702.54
745.66	1686.39
745.85	1698.22
746.04	1691.62
746.23	1693.90
746.42	1687.98
746.61	1697.31
746.80	1701.86
746.98	1700.50
747.17	1704.59
747.36	1724.16
747.55	1700.72
747.74	1721.43
747.93	1718.93
748.11	1729.85
748.30	1723.02
748.49	1719.16
748.68	1731.22
748.87	1728.03
749.05	1742.14
749.24	1764.89
749.43	1757.16
749.62	1776.50
749.81	1767.62
750.00	1779.00
750.18	1765.35
750.37	1768.76
750.56	1782.42
750.75	1748.74
750.94	1736.68
751.12	1746.46
751.31	1728.03
751.50	1720.07
751.69	1720.07
751.88	1738.95
752.06	1735.99
752.25	1724.39
752.44	1745.55
752.63	1743.05
752.81	1727.58
753.00	1739.64
753.19	1732.13
753.38	1722.80
753.57	1705.28
753.75	1698.45
753.94	1706.19
754.13	1704.37
754.32	1726.89
754.50	1732.13
754.69	1727.58
754.88	1741.68
755.07	1749.88
755.26	1765.12
755.44	1770.36
755.63	1750.10
755.82	1731.67
756.01	1707.55
756.19	1695.72
756.38	1677.97
756.57	1679.79
756.76	1681.15
756.94	1664.77
757.13	1672.96
757.32	1683.20
757.51	1690.71
757.69	1703.00
757.88	1708.46
758.07	1720.98
758.26	1718.25
758.44	1711.19
758.63	1712.10
758.82	1697.99
759.01	1706.19
759.19	1701.18
759.38	1697.31
759.57	1696.17
759.76	1696.63
759.94	1695.04
760.13	1680.24
760.32	1687.98
760.50	1702.09
760.69	1691.39
760.88	1699.59
761.07	1703.91
761.25	1718.47
761.44	1720.52
761.63	1739.86
761.81	1741.23
762.00	1737.59
762.19	1742.14
762.38	1735.99
762.56	1729.62
762.75	1717.56
762.94	1709.60
763.12	1713.24
763.31	1691.17
763.50	1707.78
763.68	1721.89
763.87	1717.34
764.06	1733.26
764.25	1738.95
764.43	1746.92
764.62	1753.74
764.81	1751.24
764.99	1756.47
765.18	1731.22
765.37	1717.56
765.55	1719.38
765.74	1699.36
765.93	1681.38
766.11	1662.27
766.30	1651.57
766.49	1637.46
766.67	1632.69
766.86	1662.27
767.05	1661.59
767.23	1650.44
767.42	1663.41
767.61	1685.25
767.79	1693.22
767.98	1685.48
768.17	1697.31
768.35	1687.53
768.54	1659.54
768.73	1662.50
768.91	1660.22
769.10	1664.77
769.29	1658.85
769.47	1657.49
769.66	1659.54
769.85	1644.06
770.03	1648.84
770.22	1666.14
770.41	1664.54
770.59	1670.69
770.78	1667.50
770.96	1666.82
771.15	1665.23
771.34	1670.46
771.52	1678.42
771.71	1690.71
771.90	1698.22
772.08	1700.95
772.27	1695.26
772.46	1704.59
772.64	1705.73
772.83	1704.14
773.01	1700.27
773.20	1708.92
773.39	1696.86
773.57	1679.33
773.76	1668.64
773.94	1689.35
774.13	1674.56
774.32	1675.92
774.50	1698.45
774.69	1706.41
774.87	1702.54
775.06	1709.14
775.25	1715.97
775.43	1718.70
775.62	1699.13
775.80	1704.82
775.99	1701.41
776.18	1689.80
776.36	1675.92
776.55	1685.93
776.73	1675.47
776.92	1673.87
777.11	1672.74
777.29	1675.69
777.48	1665.23
777.66	1667.73
777.85	1662.50
778.04	1661.36
778.22	1660.68
778.41	1674.78
778.59	1684.34
778.78	1688.89
778.96	1683.43
779.15	1700.72
779.34	1705.28
779.52	1723.48
779.71	1747.83
779.89	1756.02
780.08	1754.65
780.26	1750.56
780.45	1751.24
780.63	1753.74
780.82	1749.42
781.01	1745.10
781.19	1735.31
781.38	1722.57
781.56	1712.10
781.75	1708.01
781.93	1700.50
782.12	1717.56
782.30	1722.80
782.49	1722.80
782.67	1721.66
782.86	1719.38
783.04	1712.33
783.23	1704.37
783.42	1714.38
783.60	1714.15
783.79	1691.17
783.97	1693.22
784.16	1710.74
784.34	1725.30
784.53	1730.53
784.71	1737.82
784.90	1761.03
785.08	1751.24
785.27	1756.25
785.45	1760.80
785.64	1761.48
785.82	1739.64
786.01	1737.13
786.19	1742.82
786.38	1759.43
786.56	1740.77
786.75	1736.68
786.93	1733.49
787.12	1751.92
787.30	1754.65
787.49	1769.90
787.67	1751.01
787.86	1738.27
788.04	1720.75
788.23	1738.95
788.41	1749.65
788.60	1751.01
788.78	1734.86
788.97	1737.36
789.15	1715.97
789.34	1737.13
789.52	1736.91
789.71	1739.18
789.89	1712.56
790.08	1713.24
790.26	1718.93
790.45	1711.65
790.63	1703.23
790.82	1717.79
791.00	1710.05
791.18	1707.32
791.37	1699.81
791.55	1704.14
791.74	1698.90
791.92	1706.41
792.11	1713.69
792.29	1737.13
792.48	1720.98
792.66	1711.87
792.85	1721.89
793.03	1728.26
793.21	1732.58
793.40	1740.55
793.58	1725.75
793.77	1740.09
793.95	1723.02
794.14	1726.67
794.32	1732.81
794.51	1737.59
794.69	1746.46
794.87	1748.74
795.06	1743.73
795.24	1758.29
795.43	1750.10
795.61	1751.01
795.80	1751.01
795.98	1742.37
796.16	1726.44
796.35	1704.59
796.53	1694.13
796.72	1686.16
796.90	1693.90
797.08	1688.21
797.27	1674.33
797.45	1680.93
797.64	1693.67
797.82	1696.40
798.01	1724.84
798.19	1737.13
798.37	1740.32
798.56	1728.03
798.74	1723.25
798.93	1740.77
799.11	1732.35
799.29	1722.11
799.48	1736.68
799.66	1727.35
799.84	1734.40
800.03	1751.01
800.21	1766.94
800.40	1776.95
800.58	1777.64
800.76	1803.35
800.95	1821.33
801.13	1825.20
801.32	1828.15
801.50	1833.84
801.68	1835.44
801.87	1820.87
802.05	1832.48
802.23	1834.75
802.42	1822.46
802.60	1803.12
802.79	1789.92
802.97	1790.61
803.15	1791.06
803.34	1776.27
803.52	1778.77
803.70	1769.67
803.89	1764.67
804.07	1768.08
804.25	1779.46
804.44	1799.71
804.62	1809.04
804.80	1788.79
804.99	1797.21
805.17	1806.08
805.35	1812.22
805.54	1819.96
805.72	1825.42
805.90	1852.96
806.09	1851.59
806.27	1850.91
806.45	1875.26
806.64	1884.13
806.82	1871.39
807.00	1875.94
807.19	1862.51
807.37	1860.92
807.55	1839.53
807.74	1826.79
807.92	1815.64
808.10	1796.52
808.29	1790.61
808.47	1797.66
808.65	1784.92
808.84	1799.25
809.02	1793.11
809.20	1796.75
809.39	1789.01
809.57	1804.03
809.75	1812.00
809.93	1814.73
810.12	1835.89
810.30	1855.00
810.48	1846.13
810.67	1850.91
810.85	1868.66
811.03	1885.72
811.21	1894.60
811.40	1905.29
811.58	1903.25
811.76	1888.45
811.95	1883.45
812.13	1895.05
812.31	1905.52
812.49	1884.81
812.68	1888.91
812.86	1869.11
813.04	1882.77
813.23	1890.50
813.41	1901.88
813.59	1909.84
813.77	1920.08
813.96	1924.18
814.14	1938.52
814.32	1948.98
814.50	1956.72
814.69	1950.12
814.87	1970.15
815.05	1969.69
815.23	1968.55
815.42	1974.01
815.60	1958.31
815.78	1939.43
815.96	1927.82
816.15	1941.47
816.33	1938.74
816.51	1917.58
816.69	1916.90
816.88	1924.41
817.06	1927.59
817.24	1941.93
817.42	1955.36
817.61	1970.37
817.79	1971.28
817.97	1977.20
818.15	1988.58
818.34	1983.80
818.52	1970.37
818.70	1953.53
818.88	1948.30
819.06	1940.11
819.25	1927.59
819.43	1924.41
819.61	1923.04
819.79	1932.60
819.97	1953.08
820.16	1969.92
820.34	1986.76
820.52	2012.70
820.70	2033.86
820.89	2052.29
821.07	2060.26
821.25	2070.95
821.43	2058.89
821.61	2060.71
821.79	2055.48
821.98	2051.38
822.16	2042.05
822.34	2043.42
822.52	2041.37
822.70	2052.52
822.89	2069.36
823.07	2088.93
823.25	2090.98
823.43	2102.13
823.61	2116.23
823.80	2121.01
823.98	2131.25
824.16	2122.83
824.34	2108.04
824.52	2089.84
824.70	2086.65
824.89	2086.20
825.07	2086.65
825.25	2069.36
825.43	2057.30
825.61	2031.13
825.79	2041.14
825.98	2049.33
826.16	2055.48
826.34	2044.10
826.52	2028.85
826.70	2024.53
826.88	2049.11
827.06	2055.48
827.25	2071.18
827.43	2063.44
827.61	2060.26
827.79	2061.17
827.97	2065.95
828.15	2076.64
828.33	2070.72
828.52	2054.34
828.70	2080.96
828.88	2092.80
829.06	2109.18
829.24	2124.88
829.42	2112.14
829.60	2108.27
829.78	2110.55
829.97	2131.71
830.15	2138.53
830.33	2116.92
830.51	2108.27
830.69	2102.35
830.87	2091.89
831.05	2101.67
831.23	2112.59
831.41	2106.90
831.60	2092.34
831.78	2094.16
831.96	2101.22
832.14	2103.95
832.32	2090.52
832.50	2076.87
832.68	2062.30
832.86	2049.11
833.04	2043.19
833.22	2031.59
833.41	2010.42
833.59	1994.95
833.77	1986.76
833.95	1996.54
834.13	2008.15
834.31	2026.58
834.49	2045.24
834.67	2058.66
834.85	2069.13
835.03	2082.10
835.21	2092.80
835.39	2113.05
835.58	2114.87
835.76	2126.93
835.94	2119.88
836.12	2107.13
836.30	2088.47
836.48	2098.94
836.66	2102.13
836.84	2096.21
837.02	2077.55
837.20	2064.35
837.38	2050.70
837.56	2057.07
837.74	2058.66
837.92	2062.99
838.10	2057.30
838.28	2053.43
838.46	2061.85
838.64	2072.32
838.82	2093.25
839.01	2100.31
839.19	2108.50
839.37	2134.21
839.55	2173.58
839.73	2190.42
839.91	2188.60
840.09	2195.19
840.27	2214.08
840.45	2217.95
840.63	2219.09
840.81	2217.50
840.99	2204.52
841.17	2174.72
841.35	2178.58
841.53	2200.88
841.71	2194.97
841.89	2181.54
842.07	2171.76
842.25	2171.76
842.43	2178.13
842.61	2187.91
842.79	2217.04
842.97	2202.48
843.15	2209.99
843.33	2217.72
843.51	2243.66
843.69	2257.54
843.87	2270.74
844.05	2263.23
844.23	2256.41
844.41	2236.15
844.59	2224.32
844.77	2202.02
844.95	2184.27
845.13	2131.71
845.31	2103.04
845.49	2078.92
845.67	2071.86
845.85	2055.02
846.03	2059.35
846.21	2063.44
846.39	2072.09
846.57	2064.58
846.75	2095.30
846.93	2123.52
847.11	2139.90
847.28	2141.27
847.46	2158.10
847.64	2152.87
847.82	2168.12
848.00	2156.51
848.18	2165.39
848.36	2149.91
848.54	2135.80
848.72	2138.53
848.90	2140.81
849.08	2129.66
849.26	2132.85
849.44	2127.84
849.62	2136.03
849.80	2146.73
849.98	2165.61
850.16	2164.25
850.34	2157.88
850.51	2169.48
850.69	2176.99
850.87	2197.02
851.05	2205.89
851.23	2225.69
851.41	2234.11
851.59	2236.61
851.77	2258.91
851.95	2269.38
852.13	2270.51
852.31	2274.16
852.49	2253.68
852.67	2247.99
852.84	2232.74
853.02	2239.80
853.20	2226.14
853.38	2222.50
853.56	2222.50
853.74	2225.23
853.92	2232.74
854.10	2238.66
854.28	2243.21
854.46	2229.78
854.63	2223.41
854.81	2209.53
854.99	2204.75
855.17	2197.93
855.35	2172.44
855.53	2151.28
855.71	2136.26
855.89	2115.10
856.07	2119.42
856.24	2111.91
856.42	2126.47
856.60	2121.24
856.78	2114.19
856.96	2131.94
857.14	2145.59
857.32	2163.79
857.49	2179.49
857.67	2177.45
857.85	2184.27
858.03	2186.32
858.21	2192.46
858.39	2198.84
858.57	2220.91
858.75	2242.75
858.92	2268.92
859.10	2280.07
859.28	2309.65
859.46	2332.18
859.64	2362.90
859.82	2372.91
859.99	2397.49
860.17	2388.39
860.35	2377.92
860.53	2346.06
860.71	2336.28
860.89	2319.44
861.06	2274.61
861.24	2246.39
861.42	2236.38
861.60	2199.97
861.78	2186.55
861.96	2180.18
862.13	2173.35
862.31	2155.15
862.49	2146.95
862.67	2149.68
862.85	2142.40
863.02	2135.80
863.20	2139.44
863.38	2149.91
863.56	2148.32
863.74	2152.87
863.92	2182.45
864.09	2202.25
864.27	2217.04
864.45	2243.44
864.63	2254.36
864.81	2272.79
864.98	2266.19
865.16	2263.01
865.34	2251.86
865.52	2235.02
865.69	2218.18
865.87	2205.43
866.05	2178.58
866.23	2153.33
866.41	2128.75
866.58	2108.04
866.76	2087.34
866.94	2081.65
867.12	2072.09
867.29	2057.98
867.47	2062.30
867.65	2072.32
867.83	2093.93
868.01	2118.74
868.18	2141.27
868.36	2168.12
868.54	2194.06
868.72	2206.34
868.89	2220.68
869.07	2211.35
869.25	2209.76
869.43	2222.73
869.60	2217.95
869.78	2210.90
869.96	2209.30
870.14	2209.99
870.31	2208.17
870.49	2210.44
870.67	2229.56
870.85	2218.41
871.02	2198.61
871.20	2188.82
871.38	2192.92
871.56	2182.91
871.73	2160.61
871.91	2168.80
872.09	2171.53
872.26	2173.58
872.44	2181.31
872.62	2178.13
872.80	2168.34
872.97	2162.43
873.15	2167.89
873.33	2170.39
873.50	2163.34
873.68	2168.34
873.86	2177.90
874.04	2179.95
874.21	2200.66
874.39	2224.78
874.57	2218.41
874.74	2227.73
874.92	2232.29
875.10	2238.20
875.27	2234.56
875.45	2219.77
875.63	2217.95
875.81	2204.52
875.98	2204.52
876.16	2209.99
876.34	2212.94
876.51	2229.10
876.69	2253.22
876.87	2257.32
877.04	2277.80
877.22	2296.23
877.40	2296.46
877.57	2315.80
877.75	2311.93
877.93	2295.77
878.10	2288.49
878.28	2257.54
878.46	2249.81
878.63	2230.92
878.81	2204.30
878.99	2199.29
879.16	2164.25
879.34	2171.76
879.52	2174.94
879.69	2174.03
879.87	2169.48
880.05	2163.57
880.22	2174.72
880.40	2205.66
880.58	2216.81
880.75	2243.66
880.93	2244.12
881.10	2237.06
881.28	2235.70
881.46	2244.57
881.63	2240.02
881.81	2216.81
881.99	2192.69
882.16	2168.34
882.34	2142.63
882.51	2133.76
882.69	2139.67
882.87	2140.35
883.04	2139.90
883.22	2149.00
883.40	2149.00
883.57	2141.04
883.75	2149.00
883.92	2140.35
884.10	2139.90
884.28	2116.46
884.45	2103.72
884.63	2072.32
884.80	2047.29
884.98	2038.18
885.16	2046.38
885.33	2047.51
885.51	2060.26
885.68	2065.49
885.86	2083.24
886.04	2091.89
886.21	2124.43
886.39	2144.91
886.56	2169.25
886.74	2151.50
886.92	2162.43
887.09	2146.04
887.27	2151.28
887.44	2160.83
887.62	2161.29
887.79	2177.22
887.97	2196.33
888.15	2207.94
888.32	2242.07
888.50	2248.90
888.67	2265.51
888.85	2263.69
889.02	2283.03
889.20	2284.40
889.37	2268.24
889.55	2281.44
889.73	2279.39
889.90	2300.32
890.08	2315.34
890.25	2332.86
890.43	2334.23
890.60	2311.93
890.78	2295.09
890.95	2296.23
891.13	2264.37
891.30	2257.09
891.48	2211.58
891.66	2180.40
891.83	2148.55
892.01	2129.20
892.18	2125.79
892.36	2133.76
892.53	2129.20
892.71	2143.77
892.88	2161.74
893.06	2161.29
893.23	2166.30
893.41	2183.13
893.58	2205.43
893.76	2219.32
893.93	2245.03
894.11	2247.53
894.28	2245.26
894.46	2226.82
894.63	2235.24
894.81	2244.12
894.98	2240.02
895.16	2250.95
895.33	2261.64
895.51	2252.99
895.68	2262.10
895.86	2260.50
896.03	2275.29
896.21	2289.86
896.38	2308.06
896.56	2316.71
896.73	2301.01
896.91	2275.52
897.08	2275.98
897.26	2272.11
897.43	2270.97
897.61	2262.32
897.78	2268.69
897.96	2249.35
898.13	2246.17
898.31	2240.02
898.48	2240.93
898.65	2259.59
898.83	2257.09
899.00	2272.11
899.18	2283.94
899.35	2281.21
899.53	2285.08
899.70	2295.32
899.88	2320.58
900.05	2339.69
900.23	2337.19
900.40	2350.84
900.57	2354.48
900.75	2345.83
900.92	2359.49
901.10	2363.81
901.27	2364.95
901.45	2372.69
901.62	2368.59
901.80	2356.30
901.97	2350.16
902.14	2334.00
902.32	2312.16
902.49	2285.99
902.67	2272.56
902.84	2255.72
903.02	2221.59
903.19	2196.56
903.36	2176.76
903.54	2157.65
903.71	2150.82
903.89	2162.43
904.06	2173.58
904.23	2180.86
904.41	2205.21
904.58	2214.54
904.76	2240.02
904.93	2237.52
905.10	2253.45
905.28	2272.11
905.45	2261.41
905.63	2263.01
905.80	2281.21
905.97	2275.75
906.15	2304.65
906.32	2299.19
906.50	2312.38
906.67	2321.71
906.84	2324.22
907.02	2342.88
907.19	2336.28
907.36	2314.89
907.54	2303.96
907.71	2272.79
907.89	2283.94
908.06	2291.68
908.23	2284.85
908.41	2266.65
908.58	2252.54
908.75	2250.04
908.93	2250.04
909.10	2270.97
909.27	2272.11
909.45	2263.92
909.62	2257.77
909.80	2270.74
909.97	2275.29
910.14	2279.16
910.32	2273.70
910.49	2288.95
910.66	2284.40
910.84	2292.36
911.01	2290.77
911.18	2286.90
911.36	2275.98
911.53	2288.26
911.70	2300.10
911.88	2306.92
912.05	2296.23
912.22	2280.53
912.40	2261.64
912.57	2245.03
912.74	2234.11
912.92	2220.68
913.09	2200.20
913.26	2183.59
913.44	2176.31
913.61	2170.16
913.78	2167.43
913.95	2180.40
914.13	2191.10
914.30	2184.50
914.47	2178.81
914.65	2171.76
914.82	2166.98
914.99	2161.06
915.17	2166.07
915.34	2172.67
915.51	2186.32
915.68	2179.72
915.86	2199.29
916.03	2204.75
916.20	2192.01
916.38	2184.04
916.55	2174.49
916.72	2160.83
916.89	2151.05
917.07	2133.07
917.24	2123.29
917.41	2102.81
917.59	2101.44
917.76	2115.10
917.93	2117.83
918.10	2130.57
918.28	2139.44
918.45	2139.44
918.62	2150.14
918.79	2175.17
918.97	2190.19
919.14	2182.68
919.31	2192.92
919.48	2215.45
919.66	2219.32
919.83	2205.21
920.00	2184.27
920.17	2170.39
920.35	2157.42
920.52	2160.15
920.69	2168.12
920.86	2169.25
921.04	2161.74
921.21	2163.11
921.38	2185.87
921.55	2213.40
921.73	2233.20
921.90	2242.75
922.07	2261.41
922.24	2280.07
922.41	2287.13
922.59	2298.05
922.76	2296.23
922.93	2282.80
923.10	2267.78
923.27	2263.23
923.45	2246.62
923.62	2207.94
923.79	2180.40
923.96	2159.92
924.14	2149.46
924.31	2135.58
924.48	2134.89
924.65	2157.88
924.82	2139.22
925.00	2148.77
925.17	2152.19
925.34	2150.59
925.51	2136.03
925.68	2117.60
925.85	2120.79
926.03	2108.73
926.20	2085.51
926.37	2079.14
926.54	2066.86
926.71	2075.50
926.89	2075.05
927.06	2092.34
927.23	2088.93
927.40	2070.27
927.57	2073.68
927.74	2070.04
927.92	2052.29
928.09	2036.14
928.26	2032.95
928.43	2027.72
928.60	2009.74
928.77	2012.93
928.94	2029.08
929.12	2014.52
929.29	2012.24
929.46	2010.88
929.63	2012.93
929.80	1982.89
929.97	1969.69
930.15	1951.94
930.32	1934.42
930.49	1911.44
930.66	1901.88
930.83	1897.78
931.00	1902.56
931.17	1900.74
931.34	1911.67
931.52	1909.16
931.69	1926.91
931.86	1927.59
932.03	1929.64
932.20	1915.99
932.37	1900.74
932.54	1910.53
932.71	1914.62
932.89	1915.76
933.06	1924.86
933.23	1930.55
933.40	1957.63
933.57	1964.91
933.74	1997.68
933.91	2011.11
934.08	2017.48
934.25	2017.48
934.42	2022.26
934.60	2006.33
934.77	1992.45
934.94	1969.01
935.11	1959.00
935.28	1957.63
935.45	1953.31
935.62	1936.24
935.79	1930.78
935.96	1915.31
936.13	1928.05
936.30	1917.58
936.47	1913.03
936.65	1929.64
936.82	1925.77
936.99	1913.26
937.16	1913.71
937.33	1921.90
937.50	1920.77
937.67	1910.75
937.84	1927.37
938.01	1948.98
938.18	1952.40
938.35	1946.94
938.52	1960.13
938.69	1968.10
938.86	1964.91
939.03	1988.81
939.20	2004.51
939.37	1996.09
939.54	1981.98
939.72	1976.06
939.89	1970.37
940.06	1960.82
940.23	1942.84
940.40	1933.05
940.57	1898.01
940.74	1880.04
940.91	1881.40
941.08	1881.40
941.25	1869.34
941.42	1862.29
941.59	1869.34
941.76	1876.62
941.93	1877.99
942.10	1904.61
942.27	1911.21
942.44	1918.26
942.61	1912.12
942.78	1916.22
942.95	1921.90
943.12	1903.02
943.29	1900.51
943.46	1918.72
943.63	1924.86
943.80	1932.14
943.97	1921.68
944.14	1932.60
944.31	1944.66
944.48	1961.50
944.65	2000.18
944.82	2019.07
944.99	2010.88
945.16	2009.28
945.33	2015.20
945.50	2026.12
945.67	2028.85
945.84	2031.13
946.01	2010.88
946.18	1978.11
946.35	1961.27
946.52	1955.13
946.69	1937.38
946.86	1913.03
947.02	1894.83
947.19	1871.62
947.36	1850.45
947.53	1860.01
947.70	1870.71
947.87	1867.06
948.04	1867.29
948.21	1859.78
948.38	1874.35
948.55	1881.63
948.72	1880.04
948.89	1884.13
949.06	1890.28
949.23	1875.26
949.40	1877.53
949.57	1867.75
949.74	1876.17
949.91	1874.12
950.07	1868.43
950.24	1869.34
950.41	1860.69
950.58	1842.72
950.75	1846.59
950.92	1845.67
951.09	1860.24
951.26	1862.74
951.43	1862.06
951.60	1870.71
951.77	1890.96
951.94	1905.75
952.10	1916.90
952.27	1930.55
952.44	1937.83
952.61	1943.98
952.78	1961.95
952.95	1962.64
953.12	1969.46
953.29	1958.31
953.46	1969.69
953.63	1977.66
953.79	1964.68
953.96	1951.94
954.13	1919.40
954.30	1891.87
954.47	1890.50
954.64	1864.56
954.81	1847.95
954.98	1831.34
955.14	1806.54
955.31	1802.21
955.48	1802.67
955.65	1797.43
955.82	1790.38
955.99	1776.27
956.16	1789.47
956.33	1805.63
956.49	1799.25
956.66	1809.49
956.83	1817.69
957.00	1830.43
957.17	1853.64
957.34	1859.78
957.50	1867.98
957.67	1873.66
957.84	1872.75
958.01	1875.48
958.18	1895.05
958.35	1896.19
958.52	1890.28
958.68	1894.83
958.85	1904.16
959.02	1913.49
959.19	1916.67
959.36	1918.04
959.52	1919.63
959.69	1898.69
959.86	1883.90
960.03	1877.53
960.20	1874.80
960.37	1860.24
960.53	1840.44
960.70	1811.77
960.87	1791.75
961.04	1779.23
961.21	1762.16
961.37	1764.44
961.54	1762.85
961.71	1744.64
961.88	1735.54
962.05	1733.49
962.21	1739.41
962.38	1751.01
962.55	1746.01
962.72	1757.16
962.89	1755.79
963.05	1742.37
963.22	1750.33
963.39	1767.40
963.56	1764.44
963.73	1768.31
963.89	1742.37
964.06	1740.32
964.23	1737.59
964.40	1735.99
964.56	1740.77
964.73	1732.13
964.90	1705.96
965.07	1703.68
965.23	1707.32
965.40	1717.34
965.57	1721.20
965.74	1724.62
965.90	1726.44
966.07	1730.76
966.24	1738.95
966.41	1739.64
966.57	1741.23
966.74	1724.62
966.91	1733.04
967.08	1719.16
967.24	1692.76
967.41	1697.54
967.58	1694.35
967.75	1683.66
967.91	1696.63
968.08	1693.90
968.25	1692.08
968.42	1692.30
968.58	1707.55
968.75	1716.88
968.92	1704.14
969.08	1690.03
969.25	1678.65
969.42	1663.18
969.59	1677.29
969.75	1690.26
969.92	1691.17
970.09	1685.25
970.25	1696.40
970.42	1694.35
970.59	1727.58
970.76	1737.36
970.92	1756.93
971.09	1738.73
971.26	1737.13
971.42	1728.94
971.59	1718.70
971.76	1717.56
971.92	1723.71
972.09	1697.08
972.26	1693.44
972.42	1679.56
972.59	1687.07
972.76	1693.90
972.92	1698.90
973.09	1692.76
973.26	1684.34
973.42	1681.38
973.59	1682.98
973.76	1687.30
973.92	1687.07
974.09	1693.67
974.26	1680.47
974.42	1665.91
974.59	1692.53
974.76	1695.04
974.92	1692.99
975.09	1688.66
975.26	1687.07
975.42	1693.67
975.59	1676.15
975.76	1677.74
975.92	1676.38
976.09	1667.05
976.26	1667.50
976.42	1669.55
976.59	1658.40
976.76	1639.97
976.92	1627.00
977.09	1629.50
977.25	1619.03
977.42	1618.81
977.59	1616.30
977.75	1625.63
977.92	1616.30
978.08	1631.78
978.25	1642.93
978.42	1655.44
978.58	1662.50
978.75	1670.46
978.92	1670.91
979.08	1657.49
979.25	1631.55
979.41	1634.28
979.58	1628.82
979.75	1627.22
979.91	1619.94
980.08	1616.30
980.24	1604.01
980.41	1612.89
980.58	1631.78
980.74	1633.60
980.91	1632.91
981.07	1631.32
981.24	1638.15
981.40	1635.19
981.57	1633.82
981.74	1643.61
981.90	1637.24
982.07	1618.35
982.23	1622.67
982.40	1623.36
982.56	1622.90
982.73	1613.34
982.90	1622.90
983.06	1630.64
983.23	1633.37
983.39	1639.74
983.56	1647.48
983.72	1649.30
983.89	1649.30
984.05	1643.61
984.22	1649.07
984.39	1634.51
984.55	1619.03
984.72	1610.61
984.88	1601.97
985.05	1601.97
985.21	1593.77
985.38	1593.32
985.54	1592.18
985.71	1584.67
985.87	1608.11
986.04	1604.47
986.20	1604.47
986.37	1586.72
986.54	1586.72
986.70	1598.55
986.87	1605.84
987.03	1605.61
987.20	1613.12
987.36	1595.37
987.53	1592.18
987.69	1608.79
987.86	1627.00
988.02	1618.12
988.19	1609.93
988.35	1593.32
988.52	1603.33
988.68	1607.43
988.85	1608.11
989.01	1619.94
989.18	1595.82
989.34	1583.99
989.51	1580.12
989.67	1592.18
989.84	1600.37
990.00	1594.46
990.17	1588.09
990.33	1592.41
990.49	1592.41
990.66	1599.24
990.82	1600.83
990.99	1611.30
991.15	1610.84
991.32	1614.25
991.48	1611.07
991.65	1614.48
991.81	1608.11
991.98	1594.00
992.14	1585.58
992.31	1597.19
992.47	1586.72
992.63	1572.61
992.80	1568.52
992.96	1562.37
993.13	1557.59
993.29	1555.32
993.46	1570.79
993.62	1572.84
993.79	1581.49
993.95	1578.07
994.11	1571.47
994.28	1570.79
994.44	1587.18
994.61	1586.95
994.77	1584.22
994.94	1578.07
995.10	1581.49
995.26	1565.10
995.43	1584.67
995.59	1608.34
995.76	1609.93
995.92	1594.91
996.09	1620.40
996.25	1614.94
996.41	1600.83
996.58	1593.77
996.74	1593.55
996.91	1588.31
997.07	1575.12
997.23	1563.51
997.40	1566.47
997.56	1549.86
997.73	1563.28
997.89	1573.52
998.05	1580.12
998.22	1590.82
998.38	1603.79
998.54	1595.14
998.71	1604.70
998.87	1590.59
999.04	1580.35
999.20	1570.79
999.36	1565.79
999.53	1566.47
999.69	1557.82
999.85	1547.13
1000.02	1559.19
1000.18	1554.86
1000.35	1571.02
1000.51	1569.20
1000.67	1586.49
1000.84	1592.41
1001.00	1596.28
1001.16	1588.54
1001.33	1576.94
1001.49	1565.79
1001.65	1571.02
1001.82	1567.15
1001.98	1564.42
1002.14	1536.43
1002.31	1540.07
1002.47	1535.29
1002.63	1536.66
1002.80	1534.16
1002.96	1550.08
1003.12	1543.94
1003.29	1529.83
1003.45	1532.79
1003.61	1550.31
1003.78	1535.52
1003.94	1532.56
1004.10	1540.76
1004.27	1540.76
1004.43	1529.15
1004.59	1535.07
1004.76	1554.18
1004.92	1559.41
1005.08	1548.49
1005.25	1545.76
1005.41	1552.36
1005.57	1548.95
1005.73	1544.62
1005.90	1549.86
1006.06	1540.76
1006.22	1532.56
1006.39	1519.82
1006.55	1532.11
1006.71	1542.58
1006.87	1545.53
1007.04	1543.26
1007.20	1549.40
1007.36	1538.48
1007.53	1533.47
1007.69	1540.76
1007.85	1540.30
1008.01	1538.48
1008.18	1546.44
1008.34	1542.35
1008.50	1536.20
1008.66	1539.39
1008.83	1544.17
1008.99	1558.05
1009.15	1545.31
1009.32	1550.08
1009.48	1544.62
1009.64	1532.56
1009.80	1521.19
1009.97	1525.28
1010.13	1532.11
1010.29	1528.24
1010.45	1516.18
1010.62	1528.47
1010.78	1535.29
1010.94	1533.02
1011.10	1549.63
1011.26	1558.28
1011.43	1563.51
1011.59	1568.06
1011.75	1580.80
1011.91	1576.03
1012.08	1573.52
1012.24	1568.74
1012.40	1559.41
1012.56	1556.00
1012.72	1566.47
1012.89	1559.64
1013.05	1531.20
1013.21	1546.90
1013.37	1562.37
1013.54	1553.27
1013.70	1538.48
1013.86	1544.85
1014.02	1540.76
1014.18	1528.01
1014.35	1529.83
1014.51	1542.12
1014.67	1515.50
1014.83	1512.77
1014.99	1528.01
1015.15	1545.31
1015.32	1553.27
1015.48	1551.68
1015.64	1548.72
1015.80	1552.59
1015.96	1564.88
1016.13	1567.15
1016.29	1558.28
1016.45	1546.67
1016.61	1537.34
1016.77	1520.50
1016.93	1515.95
1017.10	1527.33
1017.26	1518.23
1017.42	1502.07
1017.58	1491.15
1017.74	1499.57
1017.90	1506.39
1018.06	1513.68
1018.23	1530.29
1018.39	1536.20
1018.55	1518.23
1018.71	1526.87
1018.87	1526.65
1019.03	1547.35
1019.20	1538.25
1019.36	1530.52
1019.52	1524.60
1019.68	1526.19
1019.84	1517.09
1020.00	1529.83
1020.16	1523.92
1020.32	1547.35
1020.49	1543.71
1020.65	1554.86
1020.81	1558.73
1020.97	1571.47
1021.13	1568.52
1021.29	1580.58
1021.45	1581.94
1021.61	1608.34
1021.77	1599.92
1021.94	1584.22
1022.10	1579.21
1022.26	1578.98
1022.42	1561.46
1022.58	1560.10
1022.74	1562.60
1022.90	1567.83
1023.06	1546.90
1023.22	1539.39
1023.38	1531.88
1023.54	1524.60
1023.71	1513.90
1023.87	1520.28
1024.03	1517.09
1024.19	1510.04
1024.35	1498.43
1024.51	1501.84
1024.67	1499.11
1024.83	1507.08
1024.99	1507.53
1025.15	1520.96
1025.31	1506.39
1025.47	1512.77
1025.63	1510.95
1025.79	1505.94
1025.96	1506.17
1026.12	1501.16
1026.28	1524.37
1026.44	1524.60
1026.60	1535.75
1026.76	1534.84
1026.92	1524.83
1027.08	1523.23
1027.24	1520.05
1027.40	1507.53
1027.56	1501.62
1027.72	1481.59
1027.88	1487.28
1028.04	1469.53
1028.20	1479.32
1028.36	1479.77
1028.52	1480.23
1028.68	1482.50
1028.84	1475.90
1029.00	1481.36
1029.16	1485.92
1029.32	1479.54
1029.48	1488.42
1029.64	1504.80
1029.80	1511.40
1029.96	1508.67
1030.12	1518.00
1030.28	1527.56
1030.44	1532.79
1030.60	1529.83
1030.76	1532.56
1030.92	1521.64
1031.08	1497.52
1031.24	1498.89
1031.40	1509.13
1031.56	1511.63
1031.72	1515.04
1031.88	1512.99
1032.04	1515.27
1032.20	1507.76
1032.36	1508.22
1032.52	1513.68
1032.68	1507.99
1032.84	1502.07
1033.00	1494.11
1033.16	1493.88
1033.32	1499.57
1033.48	1487.28
1033.64	1485.92
1033.80	1477.50
1033.96	1500.48
1034.12	1497.29
1034.28	1476.59
1034.44	1477.27
1034.60	1485.46
1034.76	1476.59
1034.92	1488.42
1035.07	1506.85
1035.23	1513.45
1035.39	1499.34
1035.55	1492.74
1035.71	1517.09
1035.87	1478.63
1036.03	1542.12
1036.19	1400.81
1036.35	1566.70