345.86	12.857
346.08	12.857
346.29	12.857
346.50	323.571
346.72	807.911
346.93	49.704
347.14	-603.157
347.36	684.286
347.57	-6803.409
347.78	-268.813
348.00	7.514
348.21	-103.673
348.42	-82.770
348.64	227.983
348.85	83.842
349.06	37.500
349.28	244.192
349.49	-512.968
349.70	7112.121
349.92	729.348
350.13	-45.539
350.34	66.465
350.56	-30.808
350.77	-269.428
350.98	-10.950
351.20	-8.422
351.41	-291.883
351.62	-696.465
351.84	-105.682
352.05	10.582
352.26	126.278
352.48	120.017
352.69	209.049
352.90	216.818
353.12	65.783
353.33	390.993
353.54	379.924
353.75	75.392
353.97	-3794.318
354.18	-111.501
354.39	1.079
354.61	2873.864
354.82	1906.169
355.03	-98.158
355.25	-154.334
355.46	-270.586
355.67	-50.559
355.88	16.196
356.10	136.145
356.31	118.266
356.52	-13.843
356.74	-1553.409
356.95	2578.409
357.16	-563.430
357.38	-4.287
357.59	5.710
357.80	-254.261
358.01	-12.299
358.23	3471.212
358.44	-6437.879
358.65	-241.129
358.87	121.770
359.08	44.809
359.29	-134.951
359.50	63.012
359.72	194.965
359.93	110.462
360.14	22.114
360.35	8.813
360.57	-5.092
360.78	109.091
360.99	7.834
361.21	-79.652
361.42	136.262
361.63	831.818
361.84	180.753
362.06	128.636
362.27	-157.609
362.48	132.561
362.69	128.196
362.91	-2.273
363.12	86.168
363.33	80.789
363.54	28.596
363.76	-642.727
363.97	-119.112
364.18	-52.033
364.39	1916.667
364.61	664.583
364.82	-77.888
365.03	15.472
365.25	-10.159
365.46	1676.948
365.67	-233.502
365.88	246.939
366.10	120.868
366.31	-34.412
366.52	-12.810
366.73	-24.048
366.94	-444.034
367.16	-104.834
367.37	-277.406
367.58	71.920
367.79	172.220
368.01	28.509
368.22	11.660
368.43	72.037
368.64	134.834
368.86	80.523
369.07	6.483
369.28	-142.032
369.49	-101.658
369.71	-123.468
369.92	-52.211
370.13	-121.121
370.34	-18.436
370.55	166.629
370.77	166.318
370.98	89.429
371.19	11.100
371.40	8.927
371.62	8.215
371.83	-78.381
372.04	-267.063
372.25	-83.412
372.46	30.402
372.68	91.154
372.89	90.375
373.10	171.307
373.31	376.318
373.53	224.044
373.74	90.737
373.95	-12.799
374.16	-174.139
374.37	25.527
374.59	640.341
374.80	1465.341
375.01	14.827
375.22	108.431
375.43	29.924
375.65	-135.167
375.86	-45.356
376.07	-514.205
376.28	-80.422
376.49	261.742
376.71	191.246
376.92	-476.948
377.13	-525.260
377.34	-87.657
377.55	3.324
377.77	-18.202
377.98	53.582
378.19	121.469
378.40	400.433
378.61	337.390
378.83	59.878
379.04	-58.455
379.25	195.613
379.46	138.991
379.67	-9.280
379.88	-37.263
380.10	651.705
380.31	47.091
380.52	-136.443
380.73	-67.819
380.94	1.776
381.15	-48.641
381.37	-22.213
381.58	-244.139
381.79	51.608
382.00	-18.264
382.21	-6107.955
382.43	-4.904
382.64	-24.002
382.85	54.302
383.06	17.177
383.27	324.091
383.48	142.677
383.70	14.580
383.91	-80.992
384.12	-115.199
384.33	27.327
384.54	310.777
384.75	-576.970
384.96	4.740
385.18	26.183
385.39	-69.706
385.60	-7.468
385.81	227.512
386.02	199.472
386.23	258.712
386.45	-96.406
386.66	-2658.523
386.87	-26.705
387.08	1160.795
387.29	-17.803
387.50	-89.773
387.71	-518.182
387.93	-9.497
388.14	29.192
388.35	175.030
388.56	259.738
388.77	125.991
388.98	60.839
389.19	40.759
389.40	90.123
389.62	110.756
389.83	122.050
390.04	-5.195
390.25	20.417
390.46	-804.278
390.67	-108.333
390.88	-819.176
391.10	-313.759
391.31	1065.747
391.52	-69.565
391.73	-59.289
391.94	438.102
392.15	-161.780
392.36	-383.800
392.57	-961.364
392.78	901.212
393.00	126.779
393.21	-9.643
393.42	-27.983
393.63	22.690
393.84	93.404
394.05	306.029
394.26	250.292
394.47	161.685
394.69	273.547
394.90	131.042
395.11	29.149
395.32	-43.883
395.53	-114.311
395.74	-213.636
395.95	-281.818
396.16	67.386
396.37	-29.840
396.58	12.044
396.80	47.404
397.01	122.201
397.22	68.670
397.43	-7.722
397.64	-199.545
397.85	-175.969
398.06	64.231
398.27	550.758
398.48	-138.689
398.69	-8.879
398.90	90.861
399.12	55.894
399.33	74.901
399.54	63.173
399.75	39.972
399.96	99.028
400.17	183.704
400.38	85.430
400.59	87.483
400.80	31.831
401.01	1.270
401.22	38.813
401.43	27.735
401.64	28.356
401.86	26.586
402.07	41.206
402.28	34.598
402.49	22.484
402.70	9.035
402.91	43.970
403.12	61.630
403.33	40.292
403.54	5.730
403.75	22.808
403.96	25.896
404.17	35.641
404.38	-10.202
404.59	-12.500
404.80	48.349
405.01	80.316
405.23	54.975
405.44	45.758
405.65	78.397
405.86	75.022
406.07	48.570
406.28	71.026
406.49	26.607
406.70	-1.664
406.91	12.471
407.12	13.790
407.33	41.156
407.54	71.603
407.75	48.771
407.96	-12.784
408.17	66.744
408.38	52.545
408.59	-54.766
408.80	-31.281
409.01	23.396
409.22	37.736
409.43	7.278
409.64	-11.734
409.85	9.233
410.07	25.179
410.28	57.413
410.49	2.469
410.70	-8.327
410.91	13.515
411.12	15.505
411.33	9.937
411.54	-1.810
411.75	-12.670
411.96	27.027
412.17	12.999
412.38	3.666
412.59	-0.856
412.80	-14.574
413.01	-4.333
413.22	-4.384
413.43	22.326
413.64	14.196
413.85	-19.966
414.06	-26.072
414.27	-52.773
414.48	-25.667
414.69	-7.199
414.90	6.321
415.11	40.969
415.32	60.067
415.53	22.925
415.74	36.015
415.95	26.281
416.16	0.609
416.37	-3.872
416.58	8.274
416.79	-26.596
417.00	30.954
417.21	37.056
417.42	-49.744
417.63	23.277
417.84	37.292
418.05	-0.723
418.26	-15.941
418.47	13.500
418.68	-11.111
418.89	3.888
419.10	2.120
419.31	1.801
419.52	14.604
419.73	43.037
419.94	36.457
420.15	38.586
420.36	47.199
420.57	-43.491
420.78	-65.956
420.99	-24.980
421.20	-1.936
421.41	22.624
421.61	36.456
421.82	9.956
422.03	34.457
422.24	32.683
422.45	-7.303
422.66	-5.485
422.87	4.301
423.08	23.766
423.29	49.058
423.50	42.466
423.71	35.160
423.92	19.515
424.13	17.167
424.34	17.787
424.55	17.628
424.76	24.616
424.97	15.997
425.18	25.244
425.39	28.375
425.60	19.612
425.81	-6.916
426.02	-5.788
426.23	-10.325
426.43	-12.917
426.64	-3.225
426.85	-23.055
427.06	-21.756
427.27	11.045
427.48	42.882
427.69	29.788
427.90	40.280
428.11	36.619
428.32	22.989
428.53	28.316
428.74	34.386
428.95	16.917
429.16	23.284
429.37	27.348
429.58	13.438
429.78	11.817
429.99	18.072
430.20	23.942
430.41	16.021
430.62	17.944
430.83	22.586
431.04	25.236
431.25	20.422
431.46	-2.619
431.67	1.605
431.88	-9.228
432.09	5.023
432.30	-9.386
432.50	-30.190
432.71	-25.428
432.92	3.832
433.13	-51.377
433.34	-20.428
433.55	-6.099
433.76	-9.706
433.97	2.111
434.18	13.658
434.39	18.051
434.59	21.462
434.80	27.770
435.01	28.802
435.22	23.878
435.43	9.525
435.64	28.243
435.85	13.869
436.06	16.138
436.27	14.594
436.48	-22.590
436.68	-14.429
436.89	-0.327
437.10	5.223
437.31	17.910
437.52	35.264
437.73	28.917
437.94	26.481
438.15	9.986
438.36	2.366
438.56	-1.770
438.77	-2.082
438.98	7.460
439.19	20.431
439.40	26.080
439.61	36.145
439.82	26.608
440.03	28.333
440.23	21.583
440.44	1.465
440.65	16.693
440.86	8.001
441.07	-2.810
441.28	5.313
441.49	8.535
441.70	2.185
441.90	18.694
442.11	9.747
442.32	6.714
442.53	18.208
442.74	10.160
442.95	-8.167
443.16	10.321
443.36	14.393
443.57	13.721
443.78	16.303
443.99	-4.773
444.20	-3.983
444.41	6.049
444.61	-4.735
444.82	-11.222
445.03	8.629
445.24	6.348
445.45	6.058
445.66	16.256
445.87	7.420
446.07	15.477
446.28	19.995
446.49	4.965
446.70	7.894
446.91	15.030
447.12	10.351
447.32	10.159
447.53	13.578
447.74	20.083
447.95	15.919
448.16	6.377
448.37	-7.901
448.57	-16.149
448.78	-7.906
448.99	-19.253
449.20	-17.512
449.41	-2.811
449.62	10.583
449.82	16.149
450.03	21.865
450.24	7.753
450.45	6.179
450.66	9.831
450.86	-1.672
451.07	-2.099
451.28	5.125
451.49	13.039
451.70	11.895
451.90	17.648
452.11	9.867
452.32	15.202
452.53	14.545
452.74	3.276
452.95	-6.793
453.15	13.374
453.36	18.676
453.57	13.762
453.78	13.035
453.99	1.240
454.19	-5.111
454.40	7.916
454.61	1.654
454.82	-0.822
455.02	16.158
455.23	18.854
455.44	19.137
455.65	16.318
455.86	1.790
456.06	8.745
456.27	9.807
456.48	4.599
456.69	17.707
456.90	31.809
457.10	24.346
457.31	15.856
457.52	12.284
457.73	6.471
457.93	4.554
458.14	-5.957
458.35	-8.259
458.56	5.736
458.77	15.152
458.97	8.103
459.18	6.783
459.39	22.453
459.60	23.237
459.80	12.858
460.01	11.414
460.22	22.331
460.43	24.058
460.63	16.386
460.84	9.039
461.05	11.746
461.26	10.385
461.46	5.224
461.67	0.312
461.88	4.815
462.09	13.898
462.29	20.018
462.50	19.152
462.71	18.347
462.92	24.557
463.12	16.023
463.33	8.641
463.54	7.152
463.75	1.955
463.95	0.027
464.16	-1.993
464.37	-6.132
464.58	-0.340
464.78	-3.499
464.99	-3.332
465.20	3.548
465.41	-1.224
465.61	2.386
465.82	9.157
466.03	2.433
466.24	9.242
466.44	11.727
466.65	10.737
466.86	7.785
467.06	12.955
467.27	12.991
467.48	14.015
467.69	6.384
467.89	6.052
468.10	4.682
468.31	7.664
468.52	5.442
468.72	-1.990
468.93	0.359
469.14	0.755
469.34	-0.291
469.55	3.016
469.76	-1.809
469.97	-8.887
470.17	-5.692
470.38	-4.640
470.59	-0.323
470.79	-2.195
471.00	-3.194
471.21	-1.492
471.41	3.212
471.62	7.241
471.83	-1.382
472.04	-3.619
472.24	2.929
472.45	7.089
472.66	6.568
472.86	5.644
473.07	3.738
473.28	4.317
473.48	10.303
473.69	1.867
473.90	-3.408
474.10	-1.439
474.31	-0.046
474.52	-1.274
474.73	5.915
474.93	4.570
475.14	0.974
475.35	6.826
475.55	6.226
475.76	4.206
475.97	3.555
476.17	4.140
476.38	2.859
476.59	12.944
476.79	7.416
477.00	3.420
477.21	4.213
477.41	6.741
477.62	5.335
477.83	5.594
478.03	2.267
478.24	5.303
478.45	7.115
478.65	1.395
478.86	-0.576
479.07	2.033
479.27	5.972
479.48	1.839
479.69	-1.341
479.89	-2.413
480.10	4.428
480.31	8.153
480.51	1.776
480.72	2.885
480.92	8.838
481.13	8.618
481.34	4.097
481.54	-0.383
481.75	-1.075
481.96	4.640
482.16	4.618
482.37	1.757
482.58	2.989
482.78	-1.825
482.99	-5.871
483.20	-7.208
483.40	-5.888
483.61	-4.186
483.81	-2.292
484.02	-2.640
484.23	-0.110
484.43	3.412
484.64	-1.110
484.85	-5.160
485.05	-4.773
485.26	-1.377
485.46	2.243
485.67	2.394
485.88	-0.535
486.08	2.711
486.29	4.817
486.50	1.221
486.70	-0.344
486.91	-0.856
487.11	2.542
487.32	0.948
487.53	-0.359
487.73	-1.956
487.94	-0.954
488.14	-3.369
488.35	-0.725
488.56	-0.682
488.76	1.076
488.97	3.447
489.17	0.584
489.38	0.847
489.59	1.303
489.79	-0.733
490.00	-2.626
490.20	1.077
490.41	1.028
490.62	2.470
490.82	4.366
491.03	2.501
491.23	-0.769
491.44	-1.934
491.65	-2.101
491.85	-1.082
492.06	2.106
492.26	1.950
492.47	2.895
492.68	3.609
492.88	2.580
493.09	1.652
493.29	-1.171
493.50	-2.692
493.70	-1.566
493.91	1.672
494.12	0.424
494.32	-0.539
494.53	2.025
494.73	3.834
494.94	2.750
495.14	-0.765
495.35	-1.922
495.56	-0.034
495.76	3.942
495.97	1.239
496.17	-1.993
496.38	1.735
496.58	2.862
496.79	2.235
496.99	-0.282
497.20	-0.038
497.41	-0.674
497.61	2.540
497.82	2.471
498.02	3.183
498.23	5.569
498.43	6.183
498.64	4.622
498.84	4.697
499.05	3.495
499.25	2.647
499.46	0.907
499.67	-0.166
499.87	-0.444
500.08	0.598
500.28	1.641
500.49	-0.397
500.69	-0.986
500.90	0.311
501.10	1.822
501.31	2.122
501.51	0.094
501.72	-2.085
501.92	-0.200
502.13	0.809
502.33	3.383
502.54	2.117
502.75	1.593
502.95	2.488
503.16	1.731
503.36	-0.512
503.57	0.463
503.77	1.402
503.98	2.135
504.18	2.697
504.39	0.472
504.59	1.280
504.80	1.810
505.00	-1.040
505.21	-1.487
505.41	-0.489
505.62	0.239
505.82	1.759
506.03	0.206
506.23	-2.000
506.44	-1.387
506.64	-1.543
506.85	-0.932
507.05	0.895
507.26	0.052
507.46	1.903
507.67	2.898
507.87	3.857
508.08	3.328
508.28	1.490
508.49	1.528
508.69	3.794
508.90	1.832
509.10	0.731
509.31	-0.682
509.51	-0.139
509.72	1.737
509.92	2.539
510.13	1.373
510.33	1.701
510.54	4.216
510.74	4.847
510.94	2.820
511.15	3.192
511.35	3.673
511.56	2.670
511.76	3.374
511.97	1.849
512.17	1.391
512.38	2.781
512.58	2.438
512.79	2.465
512.99	6.228
513.20	5.768
513.40	4.758
513.61	5.965
513.81	5.587
514.01	4.274
514.22	4.517
514.42	4.275
514.63	5.959
514.83	5.354
515.04	3.492
515.24	2.068
515.45	2.373
515.65	3.245
515.86	3.120
516.06	3.453
516.26	2.770
516.47	3.562
516.67	3.713
516.88	4.619
517.08	4.242
517.29	2.635
517.49	2.736
517.69	7.014
517.90	6.029
518.10	4.720
518.31	4.851
518.51	5.151
518.72	7.165
518.92	8.180
519.12	6.686
519.33	6.636
519.53	6.674
519.74	7.454
519.94	7.614
520.15	6.958
520.35	6.810
520.55	7.991
520.76	8.435
520.96	9.989
521.17	9.704
521.37	9.695
521.58	9.158
521.78	8.072
521.98	9.300
522.19	8.792
522.39	7.792
522.60	9.153
522.80	9.019
523.00	8.013
523.21	9.203
523.41	6.995
523.62	7.428
523.82	9.187
524.02	9.887
524.23	9.673
524.43	12.584
524.64	13.008
524.84	13.549
525.04	14.039
525.25	13.178
525.45	14.438
525.65	15.214
525.86	15.105
526.06	14.759
526.27	13.940
526.47	13.643
526.67	14.155
526.88	15.262
527.08	15.271
527.29	14.308
527.49	15.811
527.69	17.733
527.90	17.827
528.10	18.878
528.30	19.527
528.51	17.342
528.71	17.421
528.92	17.493
529.12	16.805
529.32	16.789
529.53	17.520
529.73	17.176
529.93	18.528
530.14	18.011
530.34	18.523
530.54	18.421
530.75	18.247
530.95	19.340
531.15	19.396
531.36	19.733
531.56	21.831
531.77	20.777
531.97	20.821
532.17	22.430
532.38	21.555
532.58	21.951
532.78	23.044
532.99	22.838
533.19	24.014
533.39	26.346
533.60	24.521
533.80	25.240
534.00	25.915
534.21	24.564
534.41	25.011
534.61	26.789
534.82	26.348
535.02	26.808
535.22	28.132
535.43	27.703
535.63	29.006
535.83	29.981
536.04	29.487
536.24	29.425
536.44	29.512
536.65	30.687
536.85	30.042
537.05	28.617
537.26	29.847
537.46	29.591
537.66	30.877
537.86	31.924
538.07	30.955
538.27	31.605
538.47	32.180
538.68	31.769
538.88	33.249
539.08	33.590
539.29	33.457
539.49	34.220
539.69	35.648
539.90	36.292
540.10	36.320
540.30	34.905
540.50	34.382
540.71	35.074
540.91	35.249
541.11	34.010
541.32	34.926
541.52	37.880
541.72	39.684
541.92	38.947
542.13	38.634
542.33	39.551
542.53	40.431
542.74	40.182
542.94	40.921
543.14	40.259
543.34	41.673
543.55	43.102
543.75	42.955
543.95	42.651
544.16	43.732
544.36	42.825
544.56	43.568
544.76	44.051
544.97	42.907
545.17	42.952
545.37	43.786
545.57	44.856
545.78	46.050
545.98	46.556
546.18	47.960
546.39	47.715
546.59	47.114
546.79	47.707
546.99	46.743
547.20	46.261
547.40	46.877
547.60	45.932
547.80	47.040
548.01	46.819
548.21	46.642
548.41	46.728
548.61	48.274
548.82	48.465
549.02	49.220
549.22	50.438
549.42	51.471
549.63	50.690
549.83	50.520
550.03	50.948
550.23	52.727
550.43	53.323
550.64	54.031
550.84	52.933
551.04	52.706
551.24	54.258
551.45	54.297
551.65	53.742
551.85	57.448
552.05	57.657
552.26	52.317
552.46	52.180
552.66	50.508
552.86	50.053
553.06	51.243
553.27	51.075
553.47	50.933
553.67	55.795
553.87	56.218
554.07	54.287
554.28	55.593
554.48	56.017
554.68	56.755
554.88	58.940
555.09	59.233
555.29	59.884
555.49	58.892
555.69	57.543
555.89	57.702
556.10	57.719
556.30	57.193
556.50	57.295
556.70	58.948
556.90	59.593
557.11	59.323
557.31	58.554
557.51	58.375
557.71	60.306
557.91	61.333
558.11	60.274
558.32	60.683
558.52	62.145
558.72	64.000
558.92	63.707
559.12	62.526
559.33	61.160
559.53	61.637
559.73	62.356
559.93	61.970
560.13	61.462
560.33	61.914
560.54	60.935
560.74	61.143
560.94	61.346
561.14	61.095
561.34	61.748
561.54	62.457
561.75	62.410
561.95	64.205
562.15	63.970
562.35	63.921
562.55	63.481
562.75	63.291
562.96	63.154
563.16	63.399
563.36	63.652
563.56	63.665
563.76	64.275
563.96	65.675
564.17	65.326
564.37	65.623
564.57	65.943
564.77	65.889
564.97	66.296
565.17	65.490
565.37	64.693
565.58	64.963
565.78	66.423
565.98	66.695
566.18	65.942
566.38	66.900
566.58	67.807
566.78	68.378
566.98	68.823
567.19	68.112
567.39	67.907
567.59	69.779
567.79	69.083
567.99	67.183
568.19	68.315
568.39	68.134
568.59	68.867
568.80	68.929
569.00	68.787
569.20	68.971
569.40	69.749
569.60	67.482
569.80	67.642
570.00	67.683
570.20	68.775
570.41	68.977
570.61	68.481
570.81	67.536
571.01	68.628
571.21	67.973
571.41	67.264
571.61	67.576
571.81	66.856
572.01	67.102
572.21	67.367
572.42	66.290
572.62	66.250
572.82	67.263
573.02	66.011
573.22	65.536
573.42	65.556
573.62	66.330
573.82	67.406
574.02	69.148
574.22	69.216
574.42	68.782
574.63	69.480
574.83	68.810
575.03	66.711
575.23	65.802
575.43	65.986
575.63	65.737
575.83	67.338
576.03	67.040
576.23	66.394
576.43	67.139
576.63	68.583
576.83	68.997
577.03	69.925
577.23	69.738
577.44	69.576
577.64	68.804
577.84	67.208
578.04	66.578
578.24	66.912
578.44	67.282
578.64	67.178
578.84	67.233
579.04	67.691
579.24	67.077
579.44	66.682
579.64	65.301
579.84	64.722
580.04	64.083
580.24	64.710
580.44	64.294
580.64	65.594
580.84	65.816
581.05	65.058
581.25	65.094
581.45	64.467
581.65	63.839
581.85	63.278
582.05	62.836
582.25	63.974
582.45	64.222
582.65	63.942
582.85	63.272
583.05	62.823
583.25	62.565
583.45	61.957
583.65	60.552
583.85	60.776
584.05	60.413
584.25	61.262
584.45	61.407
584.65	61.298
584.85	61.459
585.05	61.210
585.25	60.097
585.45	59.597
585.65	58.650
585.85	58.950
586.05	59.843
586.25	59.898
586.45	59.912
586.65	61.338
586.85	61.519
587.05	61.349
587.25	61.339
587.45	60.803
587.65	62.782
587.85	63.947
588.05	61.369
588.25	61.352
588.45	61.929
588.65	61.795
588.85	61.650
589.05	60.189
589.25	60.042
589.45	60.282
589.65	58.531
589.85	57.842
590.05	57.652
590.25	57.934
590.45	59.123
590.65	59.512
590.85	59.930
591.05	61.043
591.25	60.467
591.45	59.585
591.65	59.967
591.85	59.123
592.05	58.504
592.25	59.482
592.45	58.602
592.65	57.965
592.85	59.244
593.05	58.687
593.25	58.324
593.45	59.045
593.64	58.858
593.84	59.040
594.04	60.207
594.24	58.487
594.44	57.213
594.64	56.622
594.84	55.884
595.04	54.738
595.24	54.659
595.44	53.992
595.64	53.856
595.84	54.276
596.04	55.555
596.24	56.683
596.44	57.510
596.64	57.791
596.84	59.120
597.04	58.641
597.24	57.755
597.43	56.084
597.63	55.521
597.83	55.453
598.03	55.252
598.23	54.012
598.43	54.212
598.63	56.017
598.83	57.130
599.03	56.777
599.23	57.332
599.43	58.264
599.63	59.190
599.83	58.687
600.02	57.942
600.22	59.003
600.42	60.051
600.62	59.336
600.82	58.880
601.02	57.141
601.22	55.421
601.42	54.845
601.62	53.880
601.82	53.683
602.02	55.418
602.21	56.717
602.41	57.603
602.61	57.572
602.81	55.073
603.01	53.705
603.21	52.802
603.41	52.147
603.61	51.700
603.81	51.049
604.01	51.315
604.20	52.308
604.40	52.591
604.60	51.412
604.80	51.432
605.00	50.971
605.20	51.012
605.40	50.550
605.60	49.503
605.79	49.318
605.99	50.012
606.19	50.328
606.39	51.245
606.59	50.867
606.79	50.014
606.99	49.721
607.19	49.206
607.38	48.318
607.58	48.291
607.78	48.346
607.98	48.888
608.18	49.993
608.38	49.953
608.58	49.221
608.77	49.217
608.97	48.553
609.17	48.790
609.37	48.786
609.57	48.430
609.77	47.252
609.97	47.971
610.16	47.769
610.36	47.628
610.56	47.600
610.76	47.457
610.96	47.912
611.16	48.649
611.35	48.061
611.55	46.647
611.75	46.876
611.95	47.723
612.15	47.846
612.35	47.808
612.55	47.970
612.74	46.443
612.94	46.574
613.14	46.058
613.34	46.331
613.54	46.490
613.73	47.092
613.93	48.121
614.13	49.107
614.33	48.480
614.53	47.571
614.73	47.595
614.92	47.244
615.12	47.115
615.32	46.729
615.52	45.107
615.72	45.303
615.91	45.426
616.11	44.101
616.31	44.594
616.51	45.072
616.71	45.147
616.90	46.128
617.10	45.691
617.30	44.604
617.50	43.816
617.70	43.099
617.89	41.569
618.09	41.697
618.29	40.945
618.49	41.027
618.69	41.140
618.88	42.004
619.08	42.318
619.28	42.140
619.48	41.854
619.68	41.673
619.87	41.225
620.07	41.668
620.27	41.946
620.47	42.795
620.66	43.606
620.86	43.949
621.06	43.571
621.26	43.390
621.46	43.121
621.65	42.804
621.85	41.463
622.05	41.555
622.25	42.927
622.44	43.475
622.64	43.636
622.84	43.930
623.04	42.975
623.23	42.250
623.43	41.984
623.63	41.573
623.83	41.812
624.02	42.335
624.22	40.614
624.42	40.278
624.62	40.646
624.81	41.159
625.01	40.046
625.21	40.287
625.41	41.046
625.60	41.691
625.80	42.202
626.00	41.270
626.20	40.424
626.39	40.494
626.59	40.210
626.79	39.408
626.99	39.418
627.18	40.460
627.38	40.829
627.58	40.932
627.78	41.200
627.97	40.963
628.17	40.398
628.37	40.070
628.56	39.801
628.76	40.615
628.96	41.035
629.16	40.084
629.35	39.703
629.55	39.773
629.75	39.743
629.94	38.746
630.14	38.216
630.34	39.164
630.54	39.732
630.73	38.816
630.93	37.611
631.13	37.279
631.32	38.086
631.52	38.640
631.72	37.415
631.92	37.121
632.11	37.710
632.31	37.404
632.51	37.215
632.70	37.078
632.90	36.581
633.10	36.955
633.29	36.875
633.49	36.521
633.69	36.392
633.88	35.225
634.08	34.027
634.28	34.025
634.48	33.831
634.67	33.405
634.87	33.837
635.07	34.667
635.26	34.739
635.46	34.251
635.66	34.550
635.85	34.089
636.05	33.128
636.25	33.004
636.44	32.330
636.64	32.577
636.84	33.469
637.03	32.728
637.23	32.647
637.43	33.746
637.62	33.672
637.82	33.745
638.02	35.087
638.21	35.786
638.41	35.252
638.61	34.946
638.80	34.267
639.00	33.371
639.19	32.808
639.39	32.610
639.59	32.250
639.78	33.107
639.98	32.627
640.18	31.616
640.37	31.429
640.57	31.973
640.77	31.693
640.96	32.457
641.16	33.017
641.36	33.430
641.55	33.997
641.75	33.915
641.94	31.425
642.14	31.581
642.34	30.561
642.53	30.331
642.73	30.258
642.93	30.285
643.12	30.307
643.32	32.099
643.51	32.036
643.71	30.983
643.91	30.965
644.10	31.086
644.30	31.465
644.49	31.295
644.69	30.487
644.89	30.530
645.08	31.677
645.28	31.533
645.47	30.699
645.67	29.238
645.87	29.461
646.06	29.579
646.26	29.752
646.46	29.159
646.65	28.678
646.85	29.882
647.04	29.631
647.24	29.447
647.43	29.625
647.63	28.719
647.83	27.849
648.02	28.121
648.22	27.737
648.41	26.739
648.61	26.734
648.81	26.972
649.00	27.301
649.20	28.798
649.39	28.336
649.59	26.310
649.78	26.671
649.98	27.205
650.18	26.894
650.37	27.100
650.57	26.781
650.76	28.156
650.96	29.255
651.15	28.694
651.35	27.018
651.55	26.939
651.74	25.787
651.94	25.888
652.13	24.902
652.33	24.146
652.52	24.911
652.72	25.416
652.91	25.437
653.11	25.161
653.31	24.893
653.50	25.271
653.70	25.289
653.89	25.383
654.09	24.700
654.28	23.839
654.48	25.228
654.67	25.858
654.87	25.182
655.06	25.414
655.26	25.567
655.45	25.404
655.65	26.206
655.85	25.584
656.04	24.861
656.24	24.697
656.43	25.660
656.63	25.560
656.82	25.941
657.02	24.534
657.21	23.557
657.41	24.113
657.60	23.804
657.80	21.903
657.99	21.985
658.19	22.682
658.38	23.437
658.58	23.458
658.77	23.375
658.97	23.092
659.16	23.606
659.36	22.943
659.55	22.201
659.75	22.142
659.94	22.604
660.14	22.012
660.33	21.942
660.53	22.909
660.72	23.081
660.92	22.552
661.11	22.318
661.31	21.457
661.50	21.854
661.70	21.692
661.89	21.512
662.09	22.485
662.28	22.089
662.48	22.448
662.67	22.410
662.87	22.651
663.06	21.184
663.26	20.460
663.45	20.460
663.65	20.818
663.84	20.631
664.04	21.013
664.23	22.104
664.43	22.955
664.62	23.563
664.81	23.200
665.01	22.804
665.20	22.429
665.40	21.690
665.59	20.632
665.79	20.646
665.98	19.800
666.18	24.455
666.37	25.319
666.57	21.601
666.76	22.123
666.95	22.115
667.15	21.735
667.34	22.248
667.54	21.880
667.73	20.853
667.93	24.874
668.12	25.460
668.32	20.969
668.51	20.375
668.70	20.742
668.90	20.681
669.09	20.737
669.29	20.417
669.48	19.204
669.68	19.085
669.87	19.849
670.06	20.961
670.26	21.053
670.45	20.913
670.65	20.402
670.84	20.513
671.04	20.085
671.23	18.978
671.42	18.559
671.62	18.843
671.81	18.851
672.01	19.095
672.20	19.164
672.40	19.418
672.59	19.245
672.78	19.376
672.98	18.274
673.17	18.010
673.37	17.792
673.56	17.149
673.75	17.871
673.95	18.109
674.14	18.534
674.34	18.687
674.53	17.870
674.72	17.505
674.92	16.849
675.11	16.838
675.30	16.779
675.50	16.670
675.69	16.889
675.89	18.343
676.08	18.218
676.27	16.482
676.47	16.284
676.66	17.669
676.86	18.038
677.05	17.920
677.24	17.063
677.44	16.772
677.63	18.012
677.82	17.898
678.02	16.618
678.21	17.628
678.41	17.893
678.60	17.477
678.79	17.663
678.99	17.266
679.18	17.317
679.37	17.660
679.57	17.616
679.76	17.310
679.95	16.868
680.15	16.420
680.34	15.068
680.53	15.549
680.73	14.588
680.92	14.213
681.12	14.622
681.31	15.149
681.50	14.997
681.70	15.435
681.89	14.447
682.08	14.385
682.28	14.711
682.47	15.210
682.66	15.116
682.86	14.446
683.05	13.774
683.24	13.540
683.44	14.380
683.63	14.278
683.82	14.037
684.02	14.428
684.21	15.568
684.40	14.626
684.59	14.731
684.79	13.942
684.98	13.219
685.17	14.130
685.37	14.180
685.56	14.131
685.75	14.861
685.95	14.864
686.14	14.275
686.33	14.858
686.53	14.806
686.72	14.035
686.91	13.659
687.11	13.610
687.30	13.044
687.49	13.454
687.68	12.974
687.88	13.702
688.07	13.682
688.26	13.705
688.46	14.004
688.65	13.675
688.84	12.575
689.03	12.244
689.23	12.528
689.42	12.666
689.61	13.370
689.81	12.297
690.00	11.457
690.19	12.160
690.38	12.534
690.58	12.413
690.77	12.988
690.96	13.735
691.16	13.340
691.35	13.073
691.54	12.983
691.73	13.218
691.93	12.103
692.12	11.610
692.31	11.679
692.50	12.151
692.70	12.692
692.89	12.061
693.08	10.848
693.27	11.680
693.47	12.676
693.66	11.560
693.85	11.756
694.04	10.593
694.24	11.153
694.43	12.028
694.62	10.304
694.81	9.741
695.01	11.046
695.20	10.360
695.39	10.398
695.58	11.047
695.78	10.950
695.97	11.386
696.16	12.059
696.35	11.652
696.55	11.887
696.74	12.270
696.93	11.753
697.12	11.103
697.31	11.765
697.51	12.399
697.70	11.807
697.89	11.465
698.08	11.976
698.28	11.312
698.47	11.230
698.66	11.826
698.85	11.226
699.04	11.087
699.24	11.941
699.43	12.342
699.62	12.209
699.81	11.828
700.00	11.896
700.20	11.514
700.39	11.308
700.58	10.450
700.77	9.764
700.96	10.365
701.16	10.541
701.35	9.295
701.54	9.577
701.73	10.218
701.92	9.461
702.12	8.849
702.31	8.679
702.50	9.163
702.69	9.799
702.88	10.396
703.07	10.918
703.27	11.274
703.46	10.114
703.65	9.498
703.84	9.517
704.03	9.421
704.23	10.030
704.42	10.020
704.61	10.795
704.80	12.304
704.99	11.343
705.18	10.366
705.38	10.387
705.57	10.029
705.76	10.256
705.95	10.024
706.14	9.759
706.33	10.507
706.52	10.767
706.72	10.468
706.91	9.154
707.10	8.434
707.29	8.531
707.48	9.172
707.67	9.004
707.87	7.799
708.06	7.980
708.25	9.681
708.44	8.973
708.63	8.093
708.82	7.778
709.01	8.337
709.20	9.069
709.40	9.709
709.59	9.052
709.78	9.803
709.97	9.474
710.16	8.964
710.35	9.577
710.54	9.041
710.74	8.123
710.93	8.936
711.12	10.032
711.31	10.687
711.50	10.580
711.69	8.570
711.88	8.318
712.07	9.794
712.26	8.207
712.46	6.945
712.65	7.619
712.84	7.545
713.03	7.048
713.22	7.641
713.41	7.418
713.60	7.663
713.79	7.825
713.98	6.132
714.17	6.840
714.37	7.739
714.56	7.204
714.75	5.335
714.94	6.330
715.13	7.230
715.32	7.696
715.51	7.286
715.70	7.300
715.89	7.531
716.08	9.686
716.27	9.260
716.46	6.252
716.66	6.400
716.85	6.655
717.04	6.906
717.23	7.277
717.42	7.426
717.61	6.643
717.80	9.021
717.99	9.949
718.18	7.833
718.37	6.152
718.56	5.671
718.75	6.208
718.94	6.517
719.13	6.411
719.32	6.745
719.52	7.027
719.71	7.585
719.90	6.029
720.09	5.693
720.28	5.603
720.47	5.873
720.66	6.586
720.85	6.747
721.04	7.230
721.23	7.493
721.42	5.955
721.61	6.125
721.80	6.998
721.99	6.033
722.18	5.872
722.37	6.050
722.56	5.374
722.75	5.884
722.94	7.320
723.13	6.880
723.32	6.498
723.51	7.534
723.70	7.137
723.89	6.876
724.08	6.182
724.27	5.248
724.46	4.406
724.65	5.842
724.84	6.720
725.03	6.788
725.22	6.052
725.41	6.799
725.60	6.039
725.79	5.214
725.98	4.796
726.17	4.808
726.36	4.540
726.55	5.227
726.74	5.175
726.93	5.851
727.12	6.773
727.31	6.561
727.50	4.739
727.69	5.149
727.88	5.160
728.07	4.603
728.26	3.561
728.45	3.992
728.64	5.426
728.83	7.635
729.02	6.861
729.21	4.988
729.40	5.622
729.59	5.960
729.78	5.083
729.97	5.052
730.16	5.161
730.35	6.455
730.54	7.980
730.73	7.331
730.92	6.463
731.11	5.750
731.30	4.820
731.49	5.277
731.68	5.349
731.87	5.102
732.06	4.282
732.25	4.325
732.44	3.978
732.63	4.646
732.82	4.688
733.00	4.671
733.19	5.382
733.38	6.621
733.57	6.921
733.76	6.096
733.95	5.585
734.14	6.377
734.33	4.837
734.52	5.120
734.71	6.121
734.90	5.382
735.09	4.078
735.28	5.154
735.47	5.040
735.66	4.140
735.85	4.183
736.03	2.864
736.22	2.441
736.41	4.631
736.60	4.512
736.79	4.443
736.98	5.807
737.17	5.566
737.36	5.314
737.55	6.123
737.74	4.477
737.93	4.347
738.11	4.557
738.30	2.815
738.49	4.149
738.68	4.668
738.87	4.455
739.06	5.397
739.25	7.313
739.44	7.092
739.63	6.650
739.82	5.943
740.00	4.715
740.19	4.210
740.38	2.498
740.57	2.729
740.76	2.464
740.95	2.860
741.14	2.566
741.33	2.174
741.52	1.628
741.70	2.110
741.89	1.710
742.08	1.693
742.27	2.484
742.46	3.462
742.65	2.936
742.84	4.744
743.03	3.897
743.21	2.229
743.40	1.640
743.59	1.354
743.78	2.279
743.97	3.054
744.16	1.860
744.35	1.551
744.53	4.148
744.72	3.582
744.91	2.597
745.10	2.824
745.29	2.053
745.48	2.952
745.66	4.188
745.85	4.391
746.04	4.071
746.23	4.556
746.42	4.828
746.61	4.607
746.80	4.654
746.98	4.350
747.17	4.741
747.36	4.065
747.55	4.863
747.74	4.417
747.93	4.496
748.11	4.605
748.30	5.347
748.49	4.296
748.68	4.126
748.87	5.560
749.05	4.795
749.24	3.921
749.43	3.859
749.62	3.251
749.81	3.233
750.00	2.674
750.18	1.121
750.37	0.886
750.56	0.494
750.75	0.794
750.94	0.849
751.12	1.408
751.31	1.040
751.50	2.210
751.69	2.751
751.88	1.878
752.06	1.929
752.25	1.402
752.44	1.080
752.63	2.188
752.81	2.348
753.00	1.999
753.19	2.409
753.38	3.461
753.57	2.360
753.75	1.836
753.94	2.752
754.13	3.042
754.32	3.360
754.50	3.680
754.69	2.571
754.88	2.817
755.07	3.667
755.26	2.372
755.44	2.315
755.63	2.368
755.82	2.648
756.01	2.393
756.19	1.617
756.38	2.171
756.57	3.672
756.76	3.803
756.94	2.839
757.13	3.333
757.32	3.436
757.51	3.768
757.69	2.884
757.88	2.543
758.07	3.223
758.26	4.320
758.44	2.809
758.63	1.321
758.82	2.309
759.01	3.811
759.19	4.262
759.38	3.088
759.57	1.784
759.76	2.253
759.94	1.818
760.13	2.307
760.32	1.572
760.50	3.395
760.69	3.765
760.88	3.485
761.07	3.258
761.25	2.968
761.44	1.714
761.63	1.549
761.81	1.026
762.00	2.635
762.19	2.364
762.38	2.263
762.56	2.243
762.75	3.804
762.94	4.378
763.12	3.065
763.31	1.530
763.50	2.574
763.68	3.089
763.87	1.924
764.06	1.704
764.25	2.875
764.43	4.101
764.62	5.201
764.81	3.924
764.99	3.214
765.18	5.442
765.37	5.229
765.55	3.557
765.74	2.537
765.93	1.651
766.11	3.119
766.30	1.595
766.49	-0.383
766.67	0.316
766.86	2.100
767.05	1.906
767.23	1.191
767.42	0.880
767.61	0.456
767.79	0.564
767.98	1.866
768.17	1.166
768.35	3.041
768.54	3.867
768.73	2.760
768.91	2.791
769.10	2.787
769.29	0.876
769.47	1.256
769.66	0.610
769.85	0.699
770.03	1.371
770.22	2.476
770.41	2.357
770.59	3.537
770.78	2.844
770.96	0.953
771.15	0.635
771.34	-0.356
771.52	-0.076
771.71	1.814
771.90	1.457
772.08	-0.080
772.27	0.878
772.46	2.178
772.64	1.908
772.83	2.089
773.01	1.991
773.20	2.314
773.39	3.362
773.57	4.359
773.76	4.157
773.94	4.419
774.13	3.018
774.32	2.229
774.50	2.741
774.69	2.603
774.87	2.467
775.06	2.317
775.25	1.348
775.43	3.187
775.62	4.388
775.80	2.924
775.99	2.467
776.18	1.994
776.36	2.468
776.55	2.452
776.73	1.651
776.92	1.807
777.11	2.579
777.29	3.726
777.48	3.812
777.66	4.257
777.85	3.564
778.04	5.792
778.22	5.899
778.41	4.579
778.59	4.832
778.78	3.775
778.96	3.326
779.15	4.302
779.34	4.102
779.52	3.733
779.71	4.655
779.89	4.708
780.08	3.032
780.26	1.847
780.45	0.086
780.63	0.310
780.82	1.662
781.01	1.868
781.19	1.661
781.38	3.125
781.56	3.581
781.75	2.454
781.93	3.542
782.12	3.657
782.30	2.520
782.49	2.813
782.67	2.374
782.86	1.600
783.04	1.152
783.23	1.838
783.42	1.743
783.60	3.096
783.79	3.647
783.97	4.245
784.16	4.681
784.34	3.709
784.53	1.598
784.71	1.690
784.90	1.972
785.08	0.749
785.27	1.074
785.45	3.116
785.64	4.116
785.82	5.920
786.01	4.627
786.19	3.294
786.38	4.760
786.56	3.538
786.75	1.351
786.93	3.007
787.12	5.232
787.30	5.002
787.49	3.887
787.67	1.506
787.86	1.668
788.04	3.714
788.23	3.345
788.41	0.480
788.60	1.612
788.78	4.396
788.97	5.746
789.15	5.463
789.34	3.849
789.52	2.205
789.71	3.789
789.89	4.498
790.08	4.490
790.26	3.977
790.45	3.814
790.63	5.159
790.82	5.325
791.00	5.684
791.18	4.970
791.37	3.001
791.55	3.125
791.74	5.958
791.92	5.680
792.11	6.567
792.29	6.916
792.48	4.578
792.66	4.381
792.85	3.121
793.03	2.475
793.21	2.693
793.40	4.207
793.58	5.441
793.77	6.382
793.95	5.411
794.14	5.504
794.32	5.545
794.51	5.197
794.69	5.677
794.87	5.349
795.06	6.497
795.24	7.278
795.43	6.318
795.61	4.468
795.80	4.334
795.98	4.639
796.16	5.394
796.35	5.848
796.53	5.930
796.72	7.734
796.90	8.259
797.08	5.983
797.27	5.105
797.45	4.995
797.64	4.582
797.82	4.656
798.01	6.356
798.19	6.091
798.37	8.679
798.56	8.781
798.74	7.002
798.93	6.621
799.11	5.709
799.29	6.243
799.48	6.952
799.66	6.527
799.84	6.310
800.03	9.259
800.21	9.328
800.40	8.809
800.58	8.468
800.76	7.272
800.95	8.133
801.13	7.826
801.32	5.241
801.50	6.207
801.68	6.850
801.87	7.619
802.05	8.128
802.23	7.957
802.42	8.308
802.60	7.968
802.79	8.829
802.97	10.342
803.15	8.207
803.34	6.953
803.52	7.598
803.70	7.775
803.89	8.744
804.07	8.934
804.25	8.552
804.44	11.733
804.62	12.166
804.80	11.194
804.99	10.972
805.17	9.927
805.35	8.541
805.54	9.264
805.72	9.660
805.90	11.278
806.09	11.373
806.27	11.570
806.45	10.907
806.64	10.756
806.82	9.965
807.00	8.502
807.19	7.687
807.37	9.738
807.55	9.430
807.74	9.153
807.92	9.783
808.10	9.932
808.29	9.457
808.47	10.207
808.65	9.085
808.84	9.816
809.02	10.653
809.20	10.649
809.39	9.926
809.57	10.820
809.75	10.814
809.93	13.678
810.12	13.105
810.30	11.902
810.48	11.642
810.67	12.236
810.85	9.987
811.03	8.967
811.21	9.933
811.40	10.043
811.58	12.484
811.76	13.160
811.95	11.703
812.13	12.453
812.31	12.344
812.49	10.967
812.68	11.621
812.86	11.885
813.04	12.125
813.23	12.588
813.41	13.224
813.59	14.445
813.77	14.726
813.96	13.962
814.14	13.893
814.32	14.091
814.50	14.151
814.69	16.614
814.87	16.730
815.05	15.442
815.23	16.286
815.42	16.050
815.60	13.768
815.78	14.011
815.96	14.724
816.15	15.394
816.33	17.444
816.51	17.653
816.69	17.280
816.88	19.289
817.06	18.290
817.24	16.230
817.42	14.919
817.61	16.395
817.79	16.915
817.97	15.536
818.15	14.499
818.34	14.861
818.52	15.516
818.70	17.731
818.88	16.505
819.06	15.456
819.25	17.713
819.43	18.484
819.61	17.530
819.79	17.507
819.97	16.618
820.16	16.995
820.34	18.314
820.52	18.227
820.70	17.935
820.89	18.600
821.07	19.842
821.25	19.482
821.43	21.093
821.61	22.531
821.79	22.860
821.98	22.503
822.16	21.111
822.34	19.247
822.52	19.942
822.70	20.927
822.89	20.633
823.07	21.273
823.25	22.723
823.43	23.385
823.61	22.763
823.80	20.926
823.98	19.073
824.16	19.929
824.34	22.766
824.52	23.598
824.70	24.182
824.89	25.280
825.07	25.492
825.25	24.159
825.43	22.144
825.61	22.126
825.79	22.186
825.98	22.572
826.16	23.193
826.34	22.918
826.52	23.256
826.70	25.885
826.88	25.071
827.06	22.983
827.25	23.503
827.43	24.860
827.61	24.362
827.79	24.414
827.97	24.224
828.15	24.420
828.33	25.402
828.52	27.081
828.70	26.126
828.88	24.580
829.06	24.979
829.24	24.642
829.42	22.692
829.60	25.294
829.78	27.197
829.97	26.470
830.15	26.277
830.33	24.850
830.51	24.892
830.69	27.727
830.87	26.515
831.05	24.078
831.23	24.938
831.41	28.055
831.60	30.483
831.78	30.125
831.96	28.717
832.14	29.856
832.32	30.404
832.50	30.317
832.68	30.295
832.86	30.524
833.04	29.784
833.22	29.838
833.41	28.783
833.59	29.075
833.77	28.810
833.95	28.828
834.13	30.273
834.31	33.017
834.49	34.602
834.67	33.665
834.85	33.430
835.03	32.890
835.21	31.552
835.39	30.832
835.58	31.250
835.76	30.593
835.94	30.861
836.12	31.317
836.30	30.447
836.48	31.915
836.66	31.471
836.84	29.810
837.02	29.038
837.20	29.406
837.38	31.537
837.56	32.836
837.74	31.747
837.92	31.898
838.10	33.416
838.28	33.671
838.46	33.805
838.64	33.517
838.82	32.581
839.01	33.692
839.19	35.022
839.37	35.457
839.55	35.059
839.73	33.590
839.91	33.207
840.09	34.873
840.27	35.332
840.45	33.316
840.63	33.138
840.81	34.637
840.99	34.534
841.17	37.261
841.35	37.229
841.53	35.158
841.71	35.632
841.89	36.039
842.07	35.709
842.25	39.049
842.43	38.712
842.61	35.833
842.79	37.928
842.97	39.208
843.15	36.954
843.33	37.396
843.51	37.968
843.69	36.074
843.87	38.547
844.05	37.539
844.23	38.648
844.41	37.737
844.59	35.475
844.77	35.051
844.95	36.004
845.13	36.666
845.31	38.069
845.49	37.830
845.67	37.292
845.85	40.086
846.03	40.183
846.21	38.780
846.39	39.084
846.57	37.644
846.75	41.220
846.93	42.356
847.11	41.798
847.28	40.036
847.46	44.100
847.64	44.821
847.82	44.963
848.00	39.778
848.18	39.399
848.36	41.806
848.54	42.354
848.72	41.209
848.90	39.300
849.08	41.192
849.26	43.070
849.44	43.584
849.62	40.326
849.80	40.639
849.98	39.657
850.16	42.024
850.34	44.273
850.51	44.036
850.69	44.484
850.87	44.675
851.05	45.687
851.23	46.191
851.41	44.211
851.59	43.267
851.77	45.535
851.95	45.704
852.13	45.753
852.31	44.500
852.49	43.381
852.67	42.333
852.84	43.929
853.02	41.147
853.20	41.966
853.38	44.941
853.56	44.864
853.74	44.050
853.92	42.108
854.10	42.040
854.28	41.633
854.46	43.803
854.63	43.261
854.81	41.664
854.99	45.901
855.17	46.132
855.35	42.602
855.53	43.320
855.71	44.962
855.89	42.793
856.07	44.921
856.24	44.797
856.42	45.152
856.60	47.374
856.78	48.266
856.96	45.730
857.14	47.053
857.32	46.156
857.49	44.329
857.67	46.200
857.85	47.475
858.03	46.323
858.21	47.244
858.39	51.238
858.57	53.716
858.75	54.270
858.92	53.796
859.10	49.698
859.28	52.996
859.46	53.312
859.64	49.940
859.82	47.327
859.99	49.674
860.17	46.292
860.35	50.783
860.53	52.872
860.71	53.084
860.89	54.483
861.06	57.189
861.24	55.737
861.42	54.137
861.60	52.049
861.78	51.804
861.96	50.144
862.13	51.380
862.31	52.300
862.49	51.943
862.67	54.370
862.85	56.042
863.02	52.941
863.20	54.926
863.38	58.632
863.56	54.118
863.74	56.295
863.92	58.442
864.09	56.645
864.27	56.299
864.45	55.009
864.63	50.343
864.81	52.376
864.98	50.975
865.16	47.586
865.34	50.777
865.52	56.155
865.69	57.374
865.87	57.650
866.05	56.489
866.23	55.082
866.41	55.199
866.58	54.128
866.76	53.087
866.94	53.414
867.12	58.038
867.29	56.439
867.47	55.919
867.65	58.165
867.83	57.486
868.01	57.652
868.18	58.049
868.36	57.352
868.54	58.682
868.72	57.019
868.89	51.527
869.07	50.119
869.25	54.826
869.43	57.289
869.60	55.169
869.78	55.592
869.96	59.408
870.14	61.330
870.31	58.866
870.49	57.625
870.67	54.069
870.85	58.187
871.02	60.287
871.20	59.787
871.38	57.904
871.56	58.741
871.73	60.007
871.91	60.097
872.09	58.665
872.26	55.581
872.44	54.048
872.62	57.192
872.80	59.162
872.97	58.251
873.15	54.785
873.33	58.325
873.50	62.577
873.68	65.357
873.86	60.395
874.04	55.656
874.21	59.584
874.39	58.371
874.57	56.656
874.74	56.603
874.92	54.044
875.10	60.475
875.27	64.129
875.45	58.600
875.63	56.157
875.81	59.848
875.98	59.189
876.16	57.249
876.34	59.429
876.51	59.582
876.69	62.457
876.87	60.899
877.04	59.121
877.22	55.358
877.40	59.700
877.57	61.203
877.75	56.345
877.93	59.708
878.10	61.815
878.28	61.260
878.46	64.232
878.63	63.768
878.81	61.841
878.99	66.348
879.16	66.982
879.34	65.046
879.52	64.945
879.69	61.585
879.87	60.652
880.05	62.036
880.22	65.101
880.40	64.050
880.58	61.182
880.75	62.898
880.93	60.399
881.10	61.926
881.28	63.076
881.46	60.088
881.63	62.038
881.81	68.590
881.99	67.384
882.16	63.554
882.34	63.502
882.51	63.981
882.69	66.201
882.87	67.349
883.04	66.097
883.22	60.688
883.40	62.960
883.57	63.997
883.75	60.481
883.92	61.928
884.10	63.662
884.28	64.254
884.45	65.331
884.63	63.722
884.80	62.028
884.98	65.224
885.16	67.648
885.33	64.274
885.51	65.119
885.68	65.908
885.86	65.522
886.04	66.124
886.21	63.752
886.39	64.013
886.56	66.868
886.74	69.672
886.92	69.294
887.09	67.975
887.27	68.359
887.44	64.821
887.62	63.157
887.79	66.053
887.97	65.245
888.15	66.872
888.32	66.702
888.50	67.801
888.67	67.279
888.85	70.348
889.02	70.052
889.20	69.306
889.37	72.418
889.55	72.744
889.73	68.967
889.90	68.042
890.08	67.961
890.25	65.852
890.43	68.239
890.60	65.435
890.78	66.192
890.95	70.304
891.13	68.445
891.30	70.033
891.48	66.815
891.66	64.634
891.83	62.568
892.01	66.173
892.18	67.679
892.36	70.625
892.53	70.150
892.71	69.809
892.88	67.589
893.06	64.084
893.23	66.937
893.41	68.558
893.58	74.289
893.76	78.206
893.93	78.983
894.11	76.597
894.28	77.036
894.46	71.501
894.63	68.228
894.81	71.860
894.98	77.212
895.16	75.321
895.33	73.249
895.51	72.176
895.68	70.141
895.86	70.931
896.03	70.145
896.21	69.279
896.38	69.230
896.56	64.518
896.73	63.113
896.91	66.081
897.08	68.147
897.26	66.954
897.43	68.048
897.61	70.164
897.78	75.233
897.96	76.880
898.13	70.907
898.31	67.462
898.48	71.095
898.65	71.296
898.83	66.923
899.00	68.603
899.18	69.291
899.35	69.440
899.53	69.192
899.70	71.302
899.88	68.489
900.05	73.278
900.23	73.933
900.40	71.120
900.57	71.231
900.75	73.229
900.92	72.838
901.10	69.952
901.27	70.733
901.45	73.148
901.62	77.466
901.80	70.691
901.97	69.674
902.14	69.669
902.32	71.958
902.49	74.391
902.67	72.647
902.84	71.360
903.02	74.566
903.19	76.483
903.36	72.579
903.54	74.048
903.71	74.727
903.89	68.992
904.06	69.702
904.23	69.079
904.41	68.118
904.58	68.716
904.76	68.082
904.93	67.209
905.10	72.362
905.28	66.660
905.45	68.812
905.63	71.895
905.80	75.552
905.97	75.645
906.15	74.315
906.32	69.742
906.50	71.279
906.67	75.374
906.84	72.076
907.02	71.675
907.19	75.218
907.36	79.407
907.54	83.772
907.71	80.785
907.89	79.289
908.06	75.662
908.23	76.136
908.41	74.119
908.58	74.263
908.75	72.916
908.93	75.320
909.10	75.302
909.27	75.136
909.45	75.745
909.62	75.276
909.80	77.404
909.97	76.153
910.14	71.637
910.32	74.877
910.49	78.962
910.66	75.197
910.84	70.321
911.01	70.798
911.18	76.627
911.36	77.068
911.53	70.783
911.70	63.110
911.88	66.936
912.05	75.838
912.22	68.824
912.40	66.897
912.57	72.363
912.74	77.634
912.92	77.440
913.09	77.823
913.26	76.361
913.44	75.907
913.61	77.785
913.78	78.630
913.95	73.814
914.13	73.727
914.30	72.924
914.47	76.210
914.65	80.776
914.82	78.372
914.99	74.984
915.17	78.088
915.34	78.745
915.51	75.743
915.68	70.239
915.86	72.286
916.03	74.125
916.20	75.411
916.38	78.032
916.55	80.081
916.72	83.885
916.89	84.293
917.07	81.793
917.24	73.776
917.41	81.319
917.59	81.992
917.76	74.663
917.93	73.558
918.10	77.184
918.28	76.507
918.45	81.482
918.62	78.262
918.79	68.103
918.97	65.217
919.14	64.797
919.31	63.824
919.48	64.310
919.66	65.218
919.83	70.155
920.00	77.829
920.17	86.345
920.35	86.950
920.52	81.463
920.69	81.418
920.86	83.980
921.04	79.604
921.21	78.644
921.38	78.877
921.55	82.174
921.73	80.919
921.90	77.718
922.07	74.642
922.24	78.957
922.41	82.068
922.59	72.486
922.76	68.263
922.93	73.513
923.10	77.689
923.27	77.925
923.45	74.736
923.62	73.129
923.79	81.029
923.96	87.301
924.14	81.353
924.31	78.224
924.48	90.095
924.65	87.914
924.82	83.319
925.00	76.375
925.17	78.828
925.34	77.701
925.51	79.102
925.68	78.372
925.85	78.132
926.03	84.052
926.20	77.024
926.37	71.783
926.54	78.195
926.71	76.868
926.89	74.296
927.06	71.253
927.23	71.093
927.40	75.773
927.57	73.591
927.74	71.551
927.92	68.700
928.09	75.945
928.26	80.050
928.43	73.817
928.60	71.053
928.77	73.711
928.94	78.207
929.12	78.719
929.29	80.273
929.46	78.731
929.63	84.213
929.80	86.579
929.97	80.090
930.15	70.602
930.32	72.260
930.49	68.057
930.66	64.501
930.83	72.945
931.00	82.577
931.17	86.730
931.34	84.013
931.52	84.749
931.69	79.071
931.86	76.284
932.03	70.036
932.20	65.062
932.37	73.660
932.54	85.524
932.71	78.864
932.89	76.268
933.06	85.621
933.23	91.411
933.40	87.879
933.57	83.053
933.74	81.621
933.91	91.329
934.08	88.447
934.25	75.955
934.42	69.627
934.60	69.163
934.77	69.464
934.94	59.083
935.11	57.756
935.28	64.095
935.45	69.478
935.62	66.795
935.79	75.538
935.96	86.196
936.13	90.802
936.30	89.848
936.47	92.400
936.65	94.639
936.82	85.286
936.99	79.090
937.16	78.409
937.33	77.198
937.50	75.464
937.67	83.340
937.84	86.540
938.01	93.056
938.18	91.966
938.35	84.486
938.52	77.883
938.69	77.858
938.86	79.994
939.03	75.103
939.20	77.329
939.37	87.271
939.54	79.761
939.72	68.252
939.89	69.986
940.06	70.655
940.23	68.114
940.40	71.758
940.57	75.430
940.74	84.432
940.91	91.658
941.08	84.636
941.25	70.300
941.42	66.540
941.59	66.021
941.76	67.675
941.93	64.670
942.10	68.222
942.27	66.467
942.44	68.576
942.61	76.710
942.78	81.194
942.95	66.738
943.12	62.296
943.29	68.702
943.46	93.698
943.63	89.248
943.80	73.935
943.97	75.472
944.14	91.620
944.31	95.894
944.48	97.788
944.65	85.473
944.82	75.500
944.99	80.322
945.16	80.794
945.33	71.509
945.50	73.715
945.67	89.986
945.84	85.380
946.01	88.616
946.18	97.384
946.35	89.753
946.52	76.176
946.69	74.567
946.86	58.874
947.02	68.521
947.19	93.241
947.36	91.810
947.53	72.213
947.70	83.511
947.87	78.666
948.04	71.589
948.21	70.209
948.38	68.253
948.55	68.650
948.72	74.868
948.89	89.730
949.06	91.782
949.23	94.082
949.40	86.262
949.57	72.306
949.74	84.903
949.91	83.213
950.07	80.090
950.24	99.169
950.41	109.399
950.58	96.932
950.75	87.280
950.92	73.284
951.09	65.740
951.26	56.992
951.43	53.469
951.60	63.480
951.77	87.740
951.94	84.447
952.10	78.509
952.27	66.895
952.44	63.749
952.61	60.935
952.78	51.784
952.95	45.706
953.12	59.730
953.29	79.558
953.46	97.395
953.63	96.528
953.79	83.166
953.96	91.164
954.13	96.453
954.30	101.408
954.47	94.372
954.64	87.817
954.81	95.384
954.98	115.530
955.14	95.381
955.31	84.881
955.48	74.534
955.65	71.700
955.82	92.227
955.99	93.083
956.16	89.393
956.33	98.752
956.49	104.007
956.66	94.329
956.83	93.240
957.00	82.202
957.17	53.840
957.34	56.499
957.50	72.371
957.67	79.389
957.84	75.763
958.01	86.019
958.18	75.545
958.35	70.220
958.52	79.770
958.68	71.798
958.85	71.010
959.02	87.279
959.19	92.233
959.36	81.937
959.52	113.463
959.69	105.862
959.86	79.557
960.03	90.079
960.20	101.233
960.37	94.554
960.53	123.258
960.70	109.079
960.87	89.877
961.04	96.373
961.21	90.226
961.37	87.620
961.54	90.501
961.71	62.858
961.88	56.851
962.05	71.897
962.21	96.891
962.38	108.989
962.55	93.358
962.72	89.738
962.89	98.141
963.05	106.557
963.22	93.744
963.39	68.041
963.56	59.947
963.73	57.423
963.89	57.500
964.06	69.021
964.23	71.219
964.40	68.461
964.56	94.059
964.73	99.441
964.90	91.929
965.07	104.933
965.23	87.835
965.40	68.692
965.57	150.612
965.74	112.379
965.90	123.855
966.07	116.872
966.24	73.196
966.41	30.322
966.57	60.744
966.74	59.125
966.91	56.463
967.08	58.239
967.24	81.944
967.41	99.103
967.58	116.870
967.75	87.268
967.91	80.141
968.08	85.918
968.25	106.992
968.42	92.411
968.58	67.660
968.75	88.790
968.92	97.359
969.08	51.737
969.25	53.988
969.42	64.770
969.59	73.141
969.75	83.888
969.92	81.035
970.09	69.095
970.25	87.778
970.42	100.409
970.59	83.664
970.76	62.875
970.92	92.597
971.09	103.083
971.26	104.087
971.42	70.672
971.59	59.007
971.76	82.864
971.92	100.396
972.09	80.008
972.26	55.790
972.42	64.533
972.59	71.576
972.76	83.826
972.92	48.262
973.09	48.227
973.26	92.919
973.42	101.663
973.59	86.703
973.76	84.972
973.92	75.007
974.09	74.599
974.26	85.242
974.42	79.693
974.59	78.318
974.76	73.052
974.92	70.695
975.09	66.015
975.26	73.537
975.42	59.136
975.59	72.038
975.76	67.183
975.92	71.829
976.09	95.627
976.26	113.430
976.42	84.171
976.59	59.961
976.76	60.999
976.92	52.677
977.09	77.171
977.25	69.323
977.42	53.370
977.59	131.803
977.75	127.508
977.92	86.889
978.08	66.760
978.25	58.880
978.42	69.747
978.58	92.787
978.75	75.491
978.92	80.125
979.08	102.454
979.25	94.623
979.41	108.604
979.58	121.028
979.75	88.013
979.91	112.151
980.08	104.539
980.24	83.578
980.41	96.104
980.58	85.289
980.74	77.925
980.91	105.022
981.07	85.050
981.24	76.351
981.40	89.060
981.57	85.359
981.74	51.846
981.90	82.411
982.07	75.821
982.23	98.599
982.40	127.739
982.56	123.837
982.73	99.039
982.90	157.883
983.06	165.364
983.23	128.160
983.39	117.889
983.56	86.712
983.72	94.334
983.89	115.785
984.05	85.440
984.22	63.860
984.39	83.439
984.55	87.634
984.72	85.809
984.88	86.194
985.05	67.001
985.21	72.044
985.38	79.228
985.54	78.833
985.71	77.279
985.87	68.341
986.04	62.449
986.20	67.305
986.37	67.194
986.54	76.807
986.70	102.548
986.87	111.887
987.03	94.185
987.20	141.703
987.36	119.485
987.53	103.147
987.69	108.284
987.86	85.696
988.02	88.112
988.19	121.884
988.35	87.968
988.52	81.151
988.68	92.105
988.85	67.419
989.01	70.979
989.18	93.081
989.34	82.253
989.51	119.296
989.67	116.482
989.84	110.606
990.00	126.375
990.17	142.280
990.33	88.050
990.49	33.683
990.66	-2.716
990.82	3.361
990.99	68.750
991.15	80.959
991.32	52.565
991.48	72.877
991.65	78.045
991.81	65.548
991.98	52.592
992.14	48.904
992.31	59.344
992.47	79.933
992.63	120.891
992.80	105.706
992.96	118.417
993.13	96.813
993.29	78.743
993.46	95.552
993.62	103.487
993.79	98.769
993.95	45.523
994.11	86.835
994.28	112.754
994.44	131.834
994.61	67.530
994.77	82.273
994.94	65.572
995.10	63.857
995.26	80.068
995.43	82.906
995.59	71.853
995.76	66.941
995.92	114.184
996.09	94.787
996.25	34.411
996.41	30.921
996.58	25.496
996.74	71.064
996.91	125.042
997.07	82.780
997.23	56.807
997.40	166.525
997.56	148.073
997.73	63.596
997.89	37.547
998.05	78.311
998.22	138.448
998.38	184.579
998.54	111.139
998.71	92.926
998.87	102.474
999.04	87.377
999.20	52.223
999.36	69.140
999.53	94.607
999.69	141.176
999.85	124.544
1000.02	67.800
1000.18	47.565
1000.35	58.038
1000.51	7.566
1000.67	-47.856
1000.84	13.990
1001.00	25.468
1001.16	53.716
1001.33	120.609
1001.49	90.880
1001.65	99.003
1001.82	75.916
1001.98	56.132
1002.14	59.920
1002.31	60.549
1002.47	47.895
1002.63	23.135
1002.80	96.118
1002.96	143.633
1003.12	122.326
1003.29	36.705
1003.45	-414.394
1003.61	92.080
1003.78	4.160
1003.94	185.247
1004.10	199.012
1004.27	206.651
1004.43	301.985
1004.59	104.180
1004.76	99.332
1004.92	103.309
1005.08	53.678
1005.25	46.710
1005.41	101.875
1005.57	53.539
1005.73	81.472
1005.90	109.019
1006.06	94.167
1006.22	64.458
1006.39	91.252
1006.55	59.778
1006.71	99.687
1006.87	113.571
1007.04	53.843
1007.20	48.401
1007.36	50.929
1007.53	44.033
1007.69	51.336
1007.85	83.180
1008.01	80.502
1008.18	103.366
1008.34	103.442
1008.50	108.778
1008.66	159.903
1008.83	169.390
1008.99	135.544
1009.15	163.659
1009.32	189.184
1009.48	152.774
1009.64	110.909
1009.80	75.040
1009.97	94.508
1010.13	139.510
1010.29	76.857
1010.45	59.992
1010.62	81.173
1010.78	77.330
1010.94	78.985
1011.10	80.491
1011.26	58.593
1011.43	117.139
1011.59	121.039
1011.75	28.578
1011.91	65.236
1012.08	116.055
1012.24	64.797
1012.40	80.945
1012.56	140.682
1012.72	109.740
1012.89	87.118
1013.05	119.017
1013.21	120.619
1013.37	79.754
1013.54	64.721
1013.70	51.812
1013.86	87.966
1014.02	154.042
1014.18	196.478
1014.35	55.336
1014.51	159.353
1014.67	162.804
1014.83	73.869
1014.99	13.320
1015.15	-16.185
1015.32	24.654
1015.48	48.207
1015.64	59.587
1015.80	75.432
1015.96	77.674
1016.13	62.088
1016.29	68.367
1016.45	47.742
1016.61	33.026
1016.77	38.403
1016.93	201.865
1017.10	235.992
1017.26	177.820
1017.42	323.730
1017.58	-772.460
1017.74	-199.917
1017.90	881.405
1018.06	44.798
1018.23	-52.931
1018.39	-7.372
1018.55	10.624
1018.71	2.491
1018.87	18.059
1019.03	53.139
1019.20	27.175
1019.36	12.840
1019.52	68.261
1019.68	65.277
1019.84	-28.409
1020.00	71.591
1020.16	62.693
1020.32	772.861
1020.49	-2529.545
1020.65	92.532
1020.81	-414.141
1020.97	443.802
1021.13	136.842
1021.29	83.977
1021.45	91.418
1021.61	52.956
1021.77	19.416
1021.94	-12.751
1022.10	-60.744
1022.26	-61.748
1022.42	-40.168
1022.58	-14.847
1022.74	33.988
1022.90	70.590
1023.06	69.028
1023.22	8.094
1023.38	-2.843
1023.54	14.441
1023.71	25.065
1023.87	17.424
1024.03	28.317
1024.19	137.737
1024.35	-223.651
1024.51	-212.500
1024.67	53.584
1024.83	158.720
1024.99	-47.980
1025.15	164.568
1025.31	221.172
1025.47	88.336
1025.63	6.585
1025.79	95.370
1025.96	27.020
1026.12	60.281
1026.28	-135.227
1026.44	-76.136
1026.60	584.091
1026.76	-217.947
1026.92	471.591
1027.08	-1300.000
1027.24	26.900
1027.40	-57.513
1027.56	98.170
1027.72	166.651
1027.88	213.636
1028.04	147.561
1028.20	124.060
1028.36	-152.727
1028.52	-160.091
1028.68	272.378
1028.84	491.008
1029.00	181.126
1029.16	329.127
1029.32	192.424
1029.48	222.043
1029.64	136.911
1029.80	137.111
1029.96	358.471
1030.12	-23.106
1030.28	-124.152
1030.44	60.396
1030.60	132.395
1030.76	140.422
1030.92	124.821
1031.08	106.952
1031.24	149.640
1031.40	283.523
1031.56	210.548
1031.72	131.600
1031.88	145.627
1032.04	94.954
1032.20	40.729
1032.36	34.898
1032.52	25.947
1032.68	45.960
1032.84	0.160
1033.00	-83.333
1033.16	68.264
1033.32	70.857
1033.48	-18.219
1033.64	-31.931
1033.80	70.249
1033.96	138.397
1034.12	11.080
1034.28	67.965
1034.44	2257.273
1034.60	-444.122
1034.76	-38.636
1034.92	55.044
1035.07	137.112
1035.23	60.182
1035.39	82.824
1035.55	163.038
1035.71	-601.724
1035.87	956.818
1036.03	541.667
1036.19	153.947
1036.35	13.043